<?xml version="1.0" encoding="UTF-8" standalone="no"?>
<svg
   xmlns:dc="http://purl.org/dc/elements/1.1/"
   xmlns:cc="http://creativecommons.org/ns#"
   xmlns:rdf="http://www.w3.org/1999/02/22-rdf-syntax-ns#"
   xmlns:svg="http://www.w3.org/2000/svg"
   xmlns="http://www.w3.org/2000/svg"
   xmlns:xlink="http://www.w3.org/1999/xlink"
   xmlns:sodipodi="http://sodipodi.sourceforge.net/DTD/sodipodi-0.dtd"
   xmlns:inkscape="http://www.inkscape.org/namespaces/inkscape"
   sodipodi:docname="ghost_programmer.svg"
   inkscape:version="1.0.2 (e86c8708, 2021-01-15)"
   id="svg8"
   version="1.1"
   viewBox="0 0 175.05185 143.88519"
   height="143.88519mm"
   width="175.05185mm"
   inkscape:export-filename="/home/karthikeyan/gnu_ghost/blog_system/ghost_blog/images/gnu_ghost.png"
   inkscape:export-xdpi="150.03171"
   inkscape:export-ydpi="150.03171">
  <defs
     id="defs2">
    <linearGradient
       id="linearGradient6713"
       y2="778.71002"
       gradientUnits="userSpaceOnUse"
       x2="318.51999"
       y1="838.28998"
       x1="317.16">
      <stop
         id="stop6416"
         stop-color="#cff2ff"
         offset="0" />
      <stop
         id="stop6418"
         stop-color="#fff"
         offset="1" />
    </linearGradient>
    <linearGradient
       id="linearGradient6783"
       y2="762.59998"
       gradientUnits="userSpaceOnUse"
       x2="320.32001"
       y1="799.96002"
       x1="316.03">
      <stop
         id="stop6416-7"
         stop-color="#cff2ff"
         offset="0" />
      <stop
         id="stop6418-0"
         stop-color="#fff"
         offset="1" />
    </linearGradient>
    <filter
       id="filter5309"
       height="1.7816"
       width="1.2628"
       y="-0.39082"
       x="-0.13138001"
       color-interpolation-filters="sRGB">
      <feGaussianBlur
         id="feGaussianBlur5311"
         stdDeviation="3.0125679" />
    </filter>
    <radialGradient
       id="radialGradient3702"
       gradientUnits="userSpaceOnUse"
       cy="519.23999"
       cx="515.85999"
       gradientTransform="matrix(0.77994,3.9458,-1.9194,0.3794,1155.7,-1723)"
       r="76.268997">
      <stop
         id="stop6549-7"
         stop-opacity="0"
         offset="0" />
      <stop
         id="stop6551-9"
         stop-opacity="0"
         offset=".5" />
      <stop
         id="stop6553-0"
         stop-color="#67afcd"
         stop-opacity=".44746"
         offset="1" />
    </radialGradient>
    <linearGradient
       id="linearGradient3704"
       y2="388.14001"
       gradientUnits="userSpaceOnUse"
       x2="499.79999"
       gradientTransform="translate(54)"
       y1="504.5"
       x1="500.98999">
      <stop
         id="stop3461-6-8"
         stop-color="#fff"
         stop-opacity=".4339"
         offset="0" />
      <stop
         id="stop3465-4-3"
         stop-color="#40aeff"
         stop-opacity=".37966"
         offset="1" />
    </linearGradient>
    <filter
       id="filter3485-5-0"
       width="1.2315"
       y="-0.12456"
       x="-0.11576"
       height="1.2491"
       color-interpolation-filters="sRGB">
      <feGaussianBlur
         id="feGaussianBlur3487-7-4"
         stdDeviation="6.0922004" />
    </filter>
    <radialGradient
       id="radialGradient3706"
       gradientUnits="userSpaceOnUse"
       cy="542.71002"
       cx="453.75"
       gradientTransform="matrix(2.1031,-0.75707,0.3519,0.97755,-636.75,356.49)"
       r="77.982002">
      <stop
         id="stop4676"
         stop-opacity="0"
         offset="0" />
      <stop
         id="stop3400"
         stop-opacity="0"
         offset=".5" />
      <stop
         id="stop4678"
         stop-opacity=".37069"
         offset="1" />
    </radialGradient>
    <filter
       id="filter3485-5"
       width="1.2315"
       y="-0.12456"
       x="-0.11576"
       height="1.2491"
       color-interpolation-filters="sRGB">
      <feGaussianBlur
         id="feGaussianBlur3487-7"
         stdDeviation="6.0922004" />
    </filter>
    <radialGradient
       id="radialGradient3720"
       gradientUnits="userSpaceOnUse"
       cy="716.19"
       cx="189.48"
       gradientTransform="matrix(-1.3653,0.49546,-0.90594,-2.4964,1097.5,2408.3)"
       r="13.047">
      <stop
         id="stop4484"
         stop-color="#fff"
         offset="0" />
      <stop
         id="stop4490"
         stop-color="#ecb732"
         offset=".33002" />
      <stop
         id="stop4486"
         stop-color="#d5b214"
         offset="1" />
    </radialGradient>
    <radialGradient
       id="radialGradient3722"
       gradientUnits="userSpaceOnUse"
       cy="729.08002"
       cx="166.73"
       gradientTransform="matrix(0.96082,0.063654,-0.051551,1.1205,44.117,-98.473)"
       r="0.1797">
      <stop
         id="stop4762"
         offset="0" />
      <stop
         id="stop4764"
         stop-opacity=".15593"
         offset="1" />
    </radialGradient>
    <linearGradient
       id="linearGradient3736"
       y2="670.87"
       gradientUnits="userSpaceOnUse"
       x2="188.53"
       y1="670.82001"
       x1="187.5">
      <stop
         id="stop4494-3-4"
         stop-color="#bcab00"
         offset="0" />
      <stop
         id="stop4496-8-6"
         stop-color="#fff"
         offset="1" />
    </linearGradient>
    <linearGradient
       id="linearGradient3738"
       y2="689.20001"
       gradientUnits="userSpaceOnUse"
       x2="181.07001"
       gradientTransform="matrix(0.99638,0.084967,-0.084967,0.99638,65.126,-12.746)"
       y1="689.25"
       x1="179.74001">
      <stop
         id="stop4494-3-7"
         stop-color="#bcab00"
         offset="0" />
      <stop
         id="stop4496-8-7"
         stop-color="#fff"
         offset="1" />
    </linearGradient>
    <linearGradient
       id="linearGradient3740"
       y2="688.31"
       gradientUnits="userSpaceOnUse"
       x2="192.23"
       gradientTransform="matrix(0.9978,-0.066347,0.066347,0.9978,-46.794,14.239)"
       y1="688.17999"
       x1="190.92">
      <stop
         id="stop4494-3-8"
         stop-color="#bcab00"
         offset="0" />
      <stop
         id="stop4496-8-0"
         stop-color="#fff"
         offset="1" />
    </linearGradient>
    <linearGradient
       id="linearGradient3742"
       y2="689.20001"
       gradientUnits="userSpaceOnUse"
       x2="181.07001"
       gradientTransform="matrix(0.99394,0.10995,-0.10995,0.99394,84.792,-15.712)"
       y1="689.25"
       x1="179.74001">
      <stop
         id="stop4494-3-7-9"
         stop-color="#bcab00"
         offset="0" />
      <stop
         id="stop4496-8-7-8"
         stop-color="#fff"
         offset="1" />
    </linearGradient>
    <linearGradient
       id="linearGradient3744"
       y2="670.71997"
       gradientUnits="userSpaceOnUse"
       x2="185.97"
       y1="670.64001"
       x1="184.87">
      <stop
         id="stop4494-3-3"
         stop-color="#bcab00"
         offset="0" />
      <stop
         id="stop4496-8-65"
         stop-color="#fff"
         offset="1" />
    </linearGradient>
    <linearGradient
       id="linearGradient3746"
       y2="689.20001"
       gradientUnits="userSpaceOnUse"
       x2="181.07001"
       gradientTransform="rotate(3.3905069,182.1195,752.35946)"
       y1="689.25"
       x1="179.74001">
      <stop
         id="stop4494-3-7-5"
         stop-color="#bcab00"
         offset="0" />
      <stop
         id="stop4496-8-7-2"
         stop-color="#fff"
         offset="1" />
    </linearGradient>
    <linearGradient
       id="linearGradient3748"
       y2="671.02002"
       xlink:href="#linearGradient4492-2"
       gradientUnits="userSpaceOnUse"
       x2="177.62"
       y1="671.03003"
       x1="176.46001" />
    <linearGradient
       id="linearGradient4492-2">
      <stop
         id="stop4494-3"
         stop-color="#bcab00"
         offset="0" />
      <stop
         id="stop4496-8"
         stop-color="#fff"
         offset="1" />
    </linearGradient>
    <linearGradient
       id="linearGradient3750"
       y2="670.53998"
       xlink:href="#linearGradient4492-2"
       gradientUnits="userSpaceOnUse"
       x2="180.67999"
       y1="670.42999"
       x1="179.00999" />
    <linearGradient
       id="linearGradient3752"
       y2="670.76001"
       gradientUnits="userSpaceOnUse"
       x2="183.69"
       y1="670.65997"
       x1="181.98">
      <stop
         id="stop4494-3-0"
         stop-color="#bcab00"
         offset="0" />
      <stop
         id="stop4496-8-78"
         stop-color="#fff"
         offset="1" />
    </linearGradient>
    <linearGradient
       id="linearGradient3754"
       y2="688.31"
       xlink:href="#linearGradient4492-2"
       gradientUnits="userSpaceOnUse"
       x2="192.23"
       y1="688.17999"
       x1="190.92" />
    <linearGradient
       id="linearGradient3756"
       y2="689.02002"
       xlink:href="#linearGradient4492-2"
       gradientUnits="userSpaceOnUse"
       x2="179.08"
       y1="689.15997"
       x1="177.14999" />
    <linearGradient
       id="linearGradient3758"
       y2="689.20001"
       xlink:href="#linearGradient4492-2"
       gradientUnits="userSpaceOnUse"
       x2="181.07001"
       y1="689.25"
       x1="179.74001" />
    <linearGradient
       id="linearGradient3760"
       y2="688.73999"
       xlink:href="#linearGradient4492-2"
       gradientUnits="userSpaceOnUse"
       x2="184.09"
       y1="688.73999"
       x1="182.03999" />
    <linearGradient
       id="linearGradient9035"
       inkscape:collect="always">
      <stop
         id="stop9037"
         style="stop-color:#ffffff"
         offset="0" />
      <stop
         id="stop9039"
         style="stop-color:#ffffff;stop-opacity:0"
         offset="1" />
    </linearGradient>
    <linearGradient
       id="linearGradient8603"
       inkscape:collect="always">
      <stop
         id="stop8605"
         style="stop-color:#000000"
         offset="0" />
      <stop
         id="stop8607"
         style="stop-color:#000000;stop-opacity:0"
         offset="1" />
    </linearGradient>
    <style
       id="style3168"
       type="text/css">@font-face { font-family:&quot;Gigi&quot;;src:url(&quot;#FontID0&quot;) format(svg)}
    .str0 {stroke:#1F1A17;stroke-width:0.0762}
    .str2 {stroke:black;stroke-width:0.0762}
    .str3 {stroke:#1F1A17;stroke-width:0.1763}
    .str6 {stroke:#1F1A17;stroke-width:0.1763;stroke-linecap:round;stroke-linejoin:round}
    .str5 {stroke:black;stroke-width:0.1763}
    .str4 {stroke:black;stroke-width:0.1763;stroke-linecap:round;stroke-linejoin:round}
    .str1 {stroke:#0093DD;stroke-width:0.3527}
    .fil1 {fill:none}
    .fil2 {fill:none;fill-rule:nonzero}
    .fil13 {fill:#00923F}
    .fil3 {fill:#0093DD}
    .fil5 {fill:#1F1A17}
    .fil21 {fill:#DA251D}
    .fil4 {fill:white}
    .fil22 {fill:#79C6F1}
    .fil14 {fill:black}
    .fil7 {fill:#020202}
    .fil9 {fill:#090909}
    .fil18 {fill:#33CC33}
    .fil20 {fill:#663300}
    .fil12 {fill:#848489}
    .fil19 {fill:#996633}
    .fil10 {fill:#A6A6AD}
    .fil11 {fill:#BBBBC2}
    .fil6 {fill:#E5E5E8}
    .fil8 {fill:#FDFDFD}
    .fil16 {fill:red}
    .fil17 {fill:#FF99CC}
    .fil15 {fill:white}
    .fil0 {fill:#E7E09D}
    .fnt0 {font-weight:normal;font-size:8.1876;font-family:'Gigi'}</style>
    <linearGradient
       id="linearGradient8609"
       y2="353.82999"
       xlink:href="#linearGradient8603"
       gradientUnits="userSpaceOnUse"
       x2="365.10999"
       y1="380.45001"
       x1="206.64999"
       inkscape:collect="always" />
    <linearGradient
       id="linearGradient8632"
       y2="354.54001"
       xlink:href="#linearGradient8603"
       gradientUnits="userSpaceOnUse"
       x2="380.82999"
       gradientTransform="translate(75.256,496.04)"
       y1="355.81"
       x1="284.85999"
       inkscape:collect="always" />
    <linearGradient
       id="linearGradient8640"
       y2="846.03003"
       gradientUnits="userSpaceOnUse"
       x2="195.73"
       gradientTransform="translate(62.143,-1.4286)"
       y1="840.46997"
       x1="61.957001"
       inkscape:collect="always">
      <stop
         id="stop8636"
         style="stop-color:#000000;stop-opacity:.71910"
         offset="0" />
      <stop
         id="stop8638"
         style="stop-color:#000000;stop-opacity:0"
         offset="1" />
    </linearGradient>
    <filter
       id="filter8688"
       height="1.2515"
       width="1.0372"
       y="-0.12574001"
       x="-0.018595999"
       inkscape:collect="always"
       style="color-interpolation-filters:sRGB">
      <feGaussianBlur
         id="feGaussianBlur8690"
         stdDeviation="2.5347217"
         inkscape:collect="always" />
    </filter>
    <linearGradient
       id="linearGradient8698"
       y2="708.47998"
       gradientUnits="userSpaceOnUse"
       x2="220.13"
       y1="598.88"
       x1="183.74001"
       inkscape:collect="always">
      <stop
         id="stop8694"
         style="stop-color:#ffffff"
         offset="0" />
      <stop
         id="stop8696"
         style="stop-color:#ffffff;stop-opacity:0"
         offset="1" />
    </linearGradient>
    <filter
       id="filter8768"
       inkscape:collect="always"
       style="color-interpolation-filters:sRGB">
      <feGaussianBlur
         id="feGaussianBlur8770"
         stdDeviation="5.2797312"
         inkscape:collect="always" />
    </filter>
    <linearGradient
       id="linearGradient8782"
       y2="268.85999"
       gradientUnits="userSpaceOnUse"
       x2="211"
       y1="497.98999"
       x1="46.355"
       inkscape:collect="always">
      <stop
         id="stop8778"
         style="stop-color:#ffffff"
         offset="0" />
      <stop
         id="stop8780"
         style="stop-color:#ffffff;stop-opacity:0"
         offset="1" />
    </linearGradient>
    <filter
       id="filter9105"
       inkscape:collect="always"
       style="color-interpolation-filters:sRGB">
      <feGaussianBlur
         id="feGaussianBlur9107"
         stdDeviation="1.0022768"
         inkscape:collect="always" />
    </filter>
    <linearGradient
       id="linearGradient9141"
       y2="667.19"
       xlink:href="#linearGradient9035"
       gradientUnits="userSpaceOnUse"
       x2="181.45"
       gradientTransform="translate(-5.8443,-9.0152)"
       y1="613.02002"
       x1="139.02"
       inkscape:collect="always" />
    <linearGradient
       id="linearGradient9143"
       y2="667.19"
       xlink:href="#linearGradient9035"
       gradientUnits="userSpaceOnUse"
       x2="181.45"
       gradientTransform="translate(37.727,-9.9081)"
       y1="613.02002"
       x1="139.02"
       inkscape:collect="always" />
    <filter
       id="filter4697"
       inkscape:collect="always">
      <feGaussianBlur
         id="feGaussianBlur4699"
         stdDeviation="7.0393284"
         inkscape:collect="always" />
    </filter>
    <filter
       color-interpolation-filters="sRGB"
       x="-0.13138001"
       y="-0.39082"
       width="1.2628"
       height="1.7816"
       id="filter5309-5">
      <feGaussianBlur
         stdDeviation="3.0125679"
         id="feGaussianBlur5311-6" />
    </filter>
    <filter
       height="1.6636728"
       y="-0.3318364"
       width="1.0645676"
       x="-0.032283805"
       id="filter2646"
       style="color-interpolation-filters:sRGB"
       inkscape:collect="always">
      <feGaussianBlur
         id="feGaussianBlur2648"
         stdDeviation="0.95257811"
         inkscape:collect="always" />
    </filter>
    <linearGradient
       id="linearGradient1806">
      <stop
         id="stop1807"
         style="stop-color:#000000;stop-opacity:.35052"
         offset="0" />
      <stop
         id="stop3276"
         style="stop-color:#000000;stop-opacity:.13402"
         offset="0.65" />
      <stop
         id="stop1808"
         style="stop-color:#000000;stop-opacity:0"
         offset="1" />
    </linearGradient>
    <radialGradient
       id="radialGradient1977"
       fx="42.280712"
       fy="39.410545"
       xlink:href="#linearGradient1806"
       cy="39.00753"
       cx="42.007343"
       r="11.574343"
       gradientUnits="userSpaceOnUse" />
    <linearGradient
       id="linearGradient892">
      <stop
         id="stop893"
         style="stop-color:#ffffff;stop-opacity:0"
         offset="0" />
      <stop
         id="stop894"
         style="stop-color:#fff"
         offset="1" />
    </linearGradient>
    <linearGradient
       id="linearGradient888">
      <stop
         id="stop889"
         style="stop-color:#626262"
         offset="0" />
      <stop
         id="stop890"
         style="stop-color:#fff"
         offset="1" />
    </linearGradient>
    <linearGradient
       id="linearGradient891"
       y2="91.11631"
       xlink:href="#linearGradient888"
       y1="-4.1102366"
       x2="27.641132"
       x1="92.56987"
       gradientTransform="scale(1.2261261,0.81557677)"
       gradientUnits="userSpaceOnUse" />
    <linearGradient
       id="linearGradient905"
       y2="11.699694"
       xlink:href="#linearGradient888"
       y1="208.44243"
       x2="95.643105"
       x1="-77.729095"
       gradientTransform="scale(1.0964224,0.91205722)"
       gradientUnits="userSpaceOnUse" />
    <radialGradient
       id="radialGradient1132"
       fx="72.187691"
       fy="39.19841"
       cy="56.439476"
       cx="60.05381"
       r="68.761238"
       gradientTransform="scale(1.2261261,0.81557677)"
       gradientUnits="userSpaceOnUse">
      <stop
         id="stop1134"
         style="stop-color:#8bb7df"
         offset="0" />
      <stop
         id="stop1136"
         style="stop-color:#2a6092"
         offset=".76209" />
      <stop
         id="stop1135"
         style="stop-color:#375e82"
         offset="1" />
    </radialGradient>
    <linearGradient
       id="linearGradient1138"
       y2="75.912041"
       xlink:href="#linearGradient1806"
       y1="375.92303"
       x2="-268.25607"
       x1="-249.72334"
       gradientTransform="scale(1.0871317,0.91985175)"
       gradientUnits="userSpaceOnUse" />
    <linearGradient
       id="linearGradient1140"
       y2="232.2562"
       xlink:href="#linearGradient888"
       y1="110.45887"
       x2="41.965221"
       x1="45.68354"
       gradientTransform="scale(1.9103379,0.52346761)"
       gradientUnits="userSpaceOnUse" />
    <linearGradient
       id="linearGradient1144"
       y2="251.20821"
       xlink:href="#linearGradient892"
       y1="203.48672"
       x2="31.619202"
       x1="31.451719"
       gradientTransform="scale(2.104982,0.47506344)"
       gradientUnits="userSpaceOnUse" />
    <linearGradient
       id="linearGradient1146"
       y2="113.71951"
       xlink:href="#linearGradient892"
       y1="90.197418"
       x2="17.876862"
       x1="39.810898"
       gradientTransform="scale(1.320738,0.75715242)"
       gradientUnits="userSpaceOnUse" />
    <linearGradient
       id="linearGradient1148"
       y2="20.481325"
       xlink:href="#linearGradient892"
       y1="49.50721"
       x2="70.223007"
       x1="39.691166"
       gradientTransform="scale(1.3291328,0.75237027)"
       gradientUnits="userSpaceOnUse" />
    <linearGradient
       id="linearGradient1150"
       y2="105.42764"
       xlink:href="#linearGradient892"
       y1="76.278"
       x2="8.3456697"
       x1="35.190212"
       gradientTransform="scale(1.3283888,0.75279168)"
       gradientUnits="userSpaceOnUse" />
    <linearGradient
       id="linearGradient1156"
       y2="233.52185"
       xlink:href="#linearGradient888"
       y1="177.35367"
       x2="25.343958"
       x1="25.343958"
       gradientTransform="scale(2.4098577,0.41496226)"
       gradientUnits="userSpaceOnUse" />
    <linearGradient
       id="linearGradient1157"
       y2="175.13657"
       xlink:href="#linearGradient888"
       y1="269.3584"
       x2="-16.388636"
       x1="51.766216"
       gradientTransform="scale(2.4098577,0.41496226)"
       gradientUnits="userSpaceOnUse" />
    <linearGradient
       id="linearGradient1166"
       y2="148.6985"
       y1="131.16428"
       x2="107.11449"
       x1="111.56306"
       gradientTransform="scale(1.223121,0.81758061)"
       gradientUnits="userSpaceOnUse">
      <stop
         id="stop1318"
         style="stop-color:#000000;stop-opacity:.52893"
         offset="0" />
      <stop
         id="stop1320"
         style="stop-color:#000000;stop-opacity:.17355"
         offset=".5" />
      <stop
         id="stop1319"
         style="stop-color:#000000;stop-opacity:0"
         offset="1" />
    </linearGradient>
    <linearGradient
       id="linearGradient1167"
       y2="133.541"
       xlink:href="#linearGradient888"
       y1="228.39034"
       x2="88.449509"
       x1="141.60638"
       gradientTransform="scale(1.1838589,0.84469529)"
       gradientUnits="userSpaceOnUse" />
    <linearGradient
       id="linearGradient1169"
       y2="81.480209"
       y1="224.57384"
       x2="74.53273"
       x1="146.69266"
       gradientTransform="scale(1.1870911,0.84239535)"
       gradientUnits="userSpaceOnUse">
      <stop
         id="stop895"
         offset="0" />
      <stop
         id="stop896"
         style="stop-color:#fff"
         offset="1" />
    </linearGradient>
    <linearGradient
       id="linearGradient1171"
       y2="173.03923"
       y1="177.78458"
       x2="95.098763"
       x1="101.1044"
       gradientTransform="scale(1.3602317,0.73516886)"
       gradientUnits="userSpaceOnUse">
      <stop
         id="stop903"
         style="stop-color:#000000;stop-opacity:0"
         offset="0" />
      <stop
         id="stop904"
         style="stop-color:#000000;stop-opacity:.22"
         offset="1" />
    </linearGradient>
    <linearGradient
       id="linearGradient1404"
       y2="182.94478"
       xlink:href="#linearGradient892"
       y1="169.05077"
       x2="89.023384"
       x1="88.782204"
       gradientTransform="scale(1.3691951,0.73035611)"
       gradientUnits="userSpaceOnUse" />
    <linearGradient
       inkscape:collect="always"
       xlink:href="#linearGradient1806"
       id="linearGradient481"
       x1="-248.7292"
       y1="358.13666"
       x2="-266.11276"
       y2="76.728622"
       gradientTransform="scale(1.0901703,0.91728788)"
       gradientUnits="userSpaceOnUse" />
    <linearGradient
       inkscape:collect="always"
       xlink:href="#linearGradient1806"
       id="linearGradient483"
       x1="-249.65137"
       y1="367.32434"
       x2="-267.62833"
       y2="76.309914"
       gradientTransform="scale(1.0879951,0.9191218)"
       gradientUnits="userSpaceOnUse" />
    <linearGradient
       inkscape:collect="always"
       xlink:href="#linearGradient1806"
       id="linearGradient485"
       x1="-249.72334"
       y1="375.92303"
       x2="-268.25607"
       y2="75.912041"
       gradientTransform="scale(1.0871317,0.91985175)"
       gradientUnits="userSpaceOnUse" />
  </defs>
  <sodipodi:namedview
     fit-margin-bottom="0"
     fit-margin-right="0"
     fit-margin-left="0"
     fit-margin-top="0"
     inkscape:window-maximized="1"
     inkscape:window-y="0"
     inkscape:window-x="0"
     inkscape:window-height="1022"
     inkscape:window-width="1680"
     showgrid="false"
     inkscape:document-rotation="0"
     inkscape:current-layer="layer1"
     inkscape:document-units="mm"
     inkscape:cy="160.56358"
     inkscape:cx="551.92137"
     inkscape:zoom="1"
     inkscape:pageshadow="2"
     inkscape:pageopacity="0.0"
     borderopacity="1.0"
     bordercolor="#666666"
     pagecolor="#ffffff"
     id="base" />
  <metadata
     id="metadata5">
    <rdf:RDF>
      <cc:Work
         rdf:about="">
        <dc:format>image/svg+xml</dc:format>
        <dc:type
           rdf:resource="http://purl.org/dc/dcmitype/StillImage" />
        <dc:title></dc:title>
      </cc:Work>
    </rdf:RDF>
  </metadata>
  <g
     transform="translate(229.58263,-116.93395)"
     id="layer1"
     inkscape:groupmode="layer"
     inkscape:label="Layer 1">
    <g
       id="g2686">
      <g
         id="g2634">
        <g
           id="g2343"
           transform="matrix(0.26458333,0,0,0.26458333,-229.58263,130.45574)">
          <g
             transform="translate(8.4387156,-161.58616)"
             inkscape:label="ombra"
             style="display:none"
             id="layer2">
            <path
               d="m 287.54,107.24 c -53.93,0.32756 -111.13,36.371 -131.44,94.75 -8.376,24.075 -3.3745,71.123 -6.7812,96.219 -3.4068,25.095 -7.1545,40.563 -12.125,58.594 -4.9705,18.031 -13.242,38.114 -17.188,49.5 -3.9671,11.448 -5.7002,18.386 -0.9375,20.562 1.4172,0.64771 3.1666,0.83906 5.1562,0.71875 8.3027,0.52033 42.578,-23.404 52.473,-26.241 l 26.688,16.58 c 11.904,11.073 13.126,36.838 26.902,38.973 30.681,4.7559 47.714,-26.006 75.437,-19.438 18.807,4.4556 36.512,27.962 55.656,25.312 18.793,-2.601 25.392,-30.946 42.656,-38.812 15.154,-6.9043 40.598,5.8252 53.188,-0.84375 1.1237,-0.19261 2.2027,-0.70568 3.2188,-1.6562 17.325,-16.207 -27.46,-90.243 -31.312,-109.12 -6.25,-34.003 0.1458,-70.849 -10.125,-105.03 -12.686,-42.22 -48.61,-93.574 -120.72,-99.656 -3.5542,-0.29977 -7.1546,-0.42809 -10.75,-0.40625 z"
               inkscape:connector-curvature="0"
               style="display:inline;fill:#333333;stroke:#000000;stroke-width:1px;filter:url(#filter8768)"
               sodipodi:nodetypes="sssssscccsssscscsss"
               id="path8717" />
          </g>
          <g
             transform="translate(8.4387156,-647.01616)"
             inkscape:label="Livello 1"
             id="layer1-6">
            <g
               transform="matrix(1.25,0,0,-1.25,-3198.7,1848.3)"
               id="g3055" />
            <g
               transform="matrix(1.25,0,0,-1.25,-3198.7,1848.3)"
               id="g3125" />
            <g
               transform="matrix(1.25,0,0,-1.25,-3198.7,1848.3)"
               id="g3133" />
            <g
               transform="matrix(1.25,0,0,-1.25,-3198.7,1848.3)"
               id="g3153" />
          </g>
          <g
             transform="translate(8.4387156,-161.58616)"
             inkscape:label="occhi"
             id="layer3">
            <g
               id="g4701">
              <path
                 inkscape:connector-curvature="0"
                 style="fill:#666666;stroke:#000000;stroke-width:1px;filter:url(#filter4697)"
                 sodipodi:nodetypes="csssssccccssssccscsscc"
                 d="m 197.73,197.16 c -53.93,0.32756 -111.16,36.403 -131.47,94.781 -8.376,24.075 -3.3745,71.092 -6.7812,96.188 -3.4068,25.095 -7.1545,40.563 -12.125,58.594 -4.9705,18.031 -13.211,38.114 -17.156,49.5 -3.9671,11.448 -5.7002,18.386 -0.9375,20.562 1.4433,0.65963 3.2145,0.85408 5.25,0.71875 8.2514,0.48609 18.154,-1.9698 27.969,-4.7812 l 32.411,-9.3806 14.433,8.7868 c 11.894,11.077 17.355,32.553 31.125,34.688 30.681,4.7559 47.746,-26.006 75.469,-19.438 18.807,4.4556 36.48,27.962 55.625,25.312 18.793,-2.601 25.423,-30.946 42.688,-38.812 15.178,-6.9154 40.65,5.8989 53.219,-0.84375 0.008,-0.004 0.0234,0.004 0.0312,0 1.1018,-0.20133 2.1271,-0.72276 3.125,-1.6562 17.325,-16.207 -27.46,-90.212 -31.312,-109.09 -6.2499,-34.003 0.17706,-70.88 -10.094,-105.06 -12.686,-42.22 -48.641,-93.574 -120.75,-99.656 -3.5542,-0.29977 -7.1234,-0.42809 -10.719,-0.40625 z"
                 id="path3841" />
              <g
                 transform="translate(-90.956,88.945)"
                 id="g4508">
                <path
                   d="m 112.95,423.71 c 2.2507,1.023 2.3262,1.4556 4.9106,1.7419 19.612,2.1723 49.855,-14.351 65,-11.385 20.944,4.1013 25.048,38.104 42.561,40.819 30.681,4.7559 47.739,-26.002 75.462,-19.434 18.807,4.4556 36.493,27.961 55.638,25.311 18.793,-2.601 25.403,-30.955 42.667,-38.821 17.912,-8.161 50.185,11.161 58.635,-6.6161 -3.698,-15.765 -43.548,-40.633 -62.323,-46.338 -78.084,-23.727 -137.32,-27.796 -213.71,0.61493 -22.581,8.3978 -61.787,32.178 -68.839,54.107 z"
                   inkscape:connector-curvature="0"
                   style="fill:#cccccc"
                   sodipodi:nodetypes="csssssscssc"
                   id="path8371" />
                <path
                   d="m 124.48,421.06 c 1.8984,1.1865 61.442,-29.139 79.601,-33.328 18.623,-4.2961 33.404,8.2339 52.501,8.9868 27.915,1.1005 60.649,-31.1 81.205,-22.565 9.6665,4.0137 -0.26817,23.97 6.1502,32.238 6.1187,7.8818 10.884,7.425 20.861,7.2544 17.513,-0.29937 37.298,-27.923 52.884,-19.931 13.953,7.1547 34.072,25.736 33.931,23.333"
                   inkscape:connector-curvature="0"
                   style="fill:none;stroke:#848181;stroke-width:6.3;filter:url(#filter8688)"
                   sodipodi:nodetypes="cssssssc"
                   id="path8642" />
                <path
                   d="m 114.21,424.85 c -4.7627,-2.1767 -3.0182,-9.1121 0.94887,-20.56 3.9456,-11.386 12.202,-31.466 17.173,-49.497 4.9705,-18.031 8.7151,-33.494 12.122,-58.589 3.4068,-25.095 -1.6008,-72.135 6.7752,-96.21 21.665,-62.271 85.319,-99.148 142.19,-94.352 72.109,6.0818 108.06,57.428 120.75,99.648 10.271,34.183 3.8516,71.053 10.102,105.06 3.8521,18.882 48.64,92.889 31.315,109.1 -10.644,9.9572 -27.704,-25.436 -40.406,-27.274 -15.706,-0.4652 -26.888,9.9952 -34.748,14.907 -19.741,12.357 -40.582,4.4581 -37.152,-10.8 1.0654,-4.7388 1.8014,-14.597 -1.7625,-20.244 -5.2547,-8.3266 -21.651,-3.2668 -30.384,0.98477 -22.735,11.068 -46.803,19.751 -57.64,18.417 -10.756,-1.3234 -34.041,-12.653 -51.941,-8.0094 -16.229,4.2096 -18.583,6.9608 -35.401,16.443 -15.069,8.4953 -41.805,25.614 -51.936,20.984 z"
                   inkscape:connector-curvature="0"
                   style="fill:#ececec"
                   sodipodi:nodetypes="ssssssscsccsssssss"
                   id="path8369" />
                <path
                   transform="translate(0,-485.43)"
                   inkscape:connector-curvature="0"
                   sodipodi:nodetypes="cccc"
                   d="m 208.53,871.8 c 27.222,-25.07 36.619,-71.973 40.46,-91.83 12.709,38.849 18.448,60.862 9.5404,100.91 -7.9858,2.0364 -33.76,-11.481 -50,-9.0825 z"
                   style="fill:url(#linearGradient8640)"
                   id="path8407" />
                <path
                   d="m 338.86,281.49 c -1.7425,0.17425 14.162,89.881 37.083,127.57 -2.4754,2.8483 -18.343,7.0366 -27.443,0.54098 -2.6539,-1.7253 -4.2592,-4.3245 -5.4922,-7.2339 -0.46059,-4.3857 1.073,-8.3885 1.246,-12.133 0.0483,-7.4965 -0.0662,-6.0765 -1.6395,-12.395 -2.6869,-19.887 -9.1017,-75.93 -3.7546,-96.345 z"
                   inkscape:connector-curvature="0"
                   style="fill:url(#linearGradient8609)"
                   sodipodi:nodetypes="ccccccc"
                   id="rect8592" />
                <path
                   inkscape:connector-curvature="0"
                   transform="translate(0,-485.43)"
                   sodipodi:nodetypes="cscssc"
                   d="m 391.62,776.82 c -2.053,0.68435 0.0992,32.183 22.116,66.541 13.482,21.039 27.157,51.306 36.205,63.254 -4.4089,-1.5293 -12.805,-9.3084 -20.048,-18.006 -3.9899,-4.7907 -7.3496,-7.6651 -13.133,-11.345 -27.429,-17.45 -30.328,-77.563 -25.139,-100.44 z"
                   style="opacity:0.29167;fill:url(#linearGradient8632)"
                   id="path8630" />
                <path
                   transform="translate(0,-485.43)"
                   inkscape:connector-curvature="0"
                   sodipodi:nodetypes="csscc"
                   d="m 157.93,694.69 c 9.4642,-39.141 77.53,-106.39 130.71,-93.214 4.8816,1.2094 6.1229,3.5211 3.0548,12.846 -16.56,50.331 -69.421,44.542 -125.67,101.75 -12.456,9.9977 -13.224,-6.2576 -8.0961,-21.384 z"
                   style="fill:url(#linearGradient8698)"
                   id="path8561" />
                <path
                   d="m 123.21,407.29 c 17.783,-31.429 25.817,-70.595 33.214,-102.5 8.1445,-25.531 50.163,-40.521 54.286,-13.571 6.4938,42.449 -29.328,94.565 -47.001,107.53 -16.388,9.1791 -21.808,6.2953 -39.047,18.411 -3.837,2.6968 -7.3829,0.6069 -1.452,-9.8748 z"
                   inkscape:connector-curvature="0"
                   style="fill:url(#linearGradient8782)"
                   sodipodi:nodetypes="scscss"
                   id="path8774" />
                <g
                   transform="translate(-20.886,332.14)"
                   id="g9131">
                  <g
                     transform="translate(112.14,-754.29)"
                     id="g9050">
                    <g
                       transform="translate(0,-485.43)"
                       id="g8364">
                      <path
                         inkscape:connector-curvature="0"
                         style="fill:#ffffff;stroke:#000000;stroke-width:2.8346"
                         d="m 159.57,1095 c -2.1587,0.039 -4.3369,0.3254 -6.4832,0.9005 -17.17,4.6007 -26.57,25.241 -20.98,46.102 5.5897,20.861 24.07,34.045 41.24,29.444 8.3655,-2.2416 14.89,-8.271 18.729,-16.298 3.8411,8.0079 10.287,14.06 18.639,16.298 17.17,4.6007 35.65,-8.5833 41.24,-29.444 5.5897,-20.861 -3.81,-41.502 -20.98,-46.102 -15.322,-4.1056 -31.677,5.9249 -38.989,22.961 -6.2917,-14.637 -19.171,-24.102 -32.416,-23.862 z"
                         id="path7526" />
                      <ellipse
                         ry="21.428572"
                         rx="19.642857"
                         cy="660.50055"
                         cx="73.214287"
                         transform="matrix(0.87674,0,0,1.1219,106.1,405.69)"
                         style="fill:#000000;stroke:#000000;stroke-width:0.71455;stroke-linecap:round;stroke-linejoin:round"
                         id="path8360" />
                      <ellipse
                         ry="21.428572"
                         rx="19.642857"
                         cy="660.50055"
                         cx="73.214287"
                         transform="matrix(0.87674,0,0,1.1219,149.59,405.69)"
                         style="fill:#000000;stroke:#000000;stroke-width:0.71455;stroke-linecap:round;stroke-linejoin:round"
                         id="path8362" />
                    </g>
                    <path
                       d="m 160.12,640.13 c -5.008,3.7382 -9.6901,21.004 -9.3928,21.302 12.079,59.285 34.224,30.994 38.555,3.7927 2.7836,-17.48 -3.7161,-34.065 -18.589,-28.144 0,0 -5.8547,-0.4732 -10.574,3.0491 z"
                       inkscape:connector-curvature="0"
                       style="fill:url(#linearGradient9141)"
                       sodipodi:nodetypes="scscs"
                       id="path9025" />
                    <path
                       inkscape:connector-curvature="0"
                       style="fill:url(#linearGradient9143)"
                       sodipodi:nodetypes="scscs"
                       d="m 203.69,639.24 c -5.008,3.7382 -9.6901,21.004 -9.3928,21.302 12.079,59.285 34.224,30.994 38.555,3.7927 2.7836,-17.48 -3.7161,-34.065 -18.589,-28.144 0,0 -5.8547,-0.4732 -10.574,3.0491 z"
                       id="path9046" />
                  </g>
                  <path
                     d="m 271.89,-142.92 c -2.1587,0.039 -4.3369,0.3254 -6.4832,0.9005 -17.17,4.6007 -26.57,25.241 -20.98,46.102 5.5897,20.861 24.07,34.045 41.24,29.444 8.3655,-2.2416 14.89,-8.271 18.729,-16.298 3.8411,8.0079 10.287,14.06 18.639,16.298 17.17,4.6007 35.65,-8.5833 41.24,-29.444 5.5897,-20.861 -3.81,-41.502 -20.98,-46.102 -15.322,-4.1056 -31.677,5.9249 -38.989,22.961 -6.2917,-14.637 -19.171,-24.102 -32.416,-23.862 z"
                     inkscape:connector-curvature="0"
                     style="fill:none;stroke:#000000;stroke-width:2.8346;filter:url(#filter9105)"
                     id="path9066" />
                </g>
              </g>
            </g>
          </g>
        </g>
        <path
           fill-rule="evenodd"
           stroke="#000000"
           stroke-width="1.05833"
           fill="#502d16"
           d="m -154.40129,152.21269 c 4.28916,-11.53371 14.52827,0.81881 17.46409,-1.35112 3.04271,-2.24895 0.52916,-8.46666 1.5875,-9.92187 1.05833,-1.45521 5.98249,8.74659 3.96875,12.56771 -1.9717,3.74147 -10.32246,3.42265 -15.79351,3.38481 -3.08875,-0.0201 -7.88167,-2.67626 -7.22683,-4.67942 z"
           id="imagebot_72-7" />
        <path
           fill-rule="evenodd"
           stroke="#000000"
           stroke-width="1.05833"
           fill="#502d16"
           d="m -200.06863,152.21269 c -4.28916,-11.53371 -14.52827,0.81881 -17.46409,-1.35112 -3.0427,-2.24895 -0.52916,-8.46666 -1.5875,-9.92187 -1.05833,-1.45521 -5.98249,8.74659 -3.96874,12.56771 1.9717,3.74147 10.32245,3.42265 15.7935,3.38481 3.08875,-0.0201 7.88168,-2.67626 7.22683,-4.67942 z"
           id="imagebot_50-5" />
      </g>
      <g
         style="fill:#ffffff"
         transform="matrix(1.0960982,0,0,0.69810312,-535.35674,-300.13368)"
         id="g5313-2">
        <path
           fill="#f2e883"
           style="color:#000000;text-indent:0;text-transform:none;filter:url(#filter5309-5)"
           d="m 329.41,604.66 c -7.1203,0 -13.56,0.79778 -18.406,2.125 -2.423,0.66361 -4.4617,1.4322 -6.0625,2.4688 -1.6008,1.0366 -3.0625,2.5457 -3.0625,4.6562 0,2.1105 1.4617,3.6197 3.0625,4.6562 1.6008,1.0366 3.6396,1.8051 6.0625,2.4688 4.8459,1.3272 11.286,2.125 18.406,2.125 7.1203,0 13.56,-0.79778 18.406,-2.125 2.423,-0.66361 4.4305,-1.4322 6.0312,-2.4688 1.6008,-1.0366 3.0625,-2.5457 3.0625,-4.6562 0,-2.1105 -1.4617,-3.6197 -3.0625,-4.6562 -1.6008,-1.0366 -3.6083,-1.8051 -6.0312,-2.4688 -4.8459,-1.3272 -11.286,-2.125 -18.406,-2.125 z m 0,4.7188 c 6.7725,0 12.898,0.77117 17.156,1.9375 2.1292,0.58317 3.7737,1.263 4.7188,1.875 0.94506,0.61196 0.90625,0.92677 0.90625,0.71875 0,-0.20802 0.0388,0.10679 -0.90625,0.71875 -0.94506,0.61196 -2.5895,1.2918 -4.7188,1.875 -4.2585,1.1663 -10.384,1.9375 -17.156,1.9375 -6.7725,0 -12.929,-0.77117 -17.188,-1.9375 -2.1292,-0.58317 -3.7737,-1.263 -4.7188,-1.875 -0.94506,-0.61196 -0.90625,-0.92677 -0.90625,-0.71875 0,0.20802 -0.0388,-0.10679 0.90625,-0.71875 0.94506,-0.61196 2.5895,-1.2918 4.7188,-1.875 4.2585,-1.1663 10.415,-1.9375 17.188,-1.9375 z"
           filter="url(#filter5309)"
           id="path5281-7-9" />
        <path
           fill="#ebdb3d"
           stroke-width="1.5"
           stroke-linecap="round"
           stroke="#6d661a"
           d="m 328.77,605.22 c -7.1203,0 -13.56,0.79778 -18.406,2.125 -2.423,0.66361 -4.4617,1.4322 -6.0625,2.4688 -1.6008,1.0366 -3.0625,2.5457 -3.0625,4.6562 0,2.1105 1.4617,3.6197 3.0625,4.6562 1.6008,1.0366 3.6396,1.8051 6.0625,2.4688 4.8459,1.3272 11.286,2.125 18.406,2.125 7.1203,0 13.56,-0.79778 18.406,-2.125 2.423,-0.66361 4.4305,-1.4322 6.0312,-2.4688 1.6008,-1.0366 3.0625,-2.5457 3.0625,-4.6562 0,-2.1105 -1.4617,-3.6197 -3.0625,-4.6562 -1.6008,-1.0366 -3.6083,-1.8051 -6.0312,-2.4688 -4.8459,-1.3272 -11.286,-2.125 -18.406,-2.125 z m 0,4.7188 c 6.7725,0 12.898,0.77117 17.156,1.9375 2.1292,0.58317 3.7737,1.263 4.7188,1.875 0.94506,0.61196 0.90625,0.92677 0.90625,0.71875 0,-0.20802 0.0388,0.10679 -0.90625,0.71875 -0.94506,0.61196 -2.5895,1.2918 -4.7188,1.875 -4.2585,1.1663 -10.384,1.9375 -17.156,1.9375 -6.7725,0 -12.929,-0.77117 -17.188,-1.9375 -2.1292,-0.58317 -3.7737,-1.263 -4.7188,-1.875 -0.94506,-0.61196 -0.90625,-0.92677 -0.90625,-0.71875 0,0.20802 -0.0388,-0.10679 0.90625,-0.71875 0.94506,-0.61196 2.5895,-1.2918 4.7188,-1.875 4.2585,-1.1663 10.415,-1.9375 17.188,-1.9375 z"
           style="color:#000000;text-indent:0;text-transform:none"
           stroke-linejoin="round"
           id="path5281-1" />
      </g>
      <ellipse
         style="opacity:0.42906;fill:#000000;fill-opacity:1;stroke:none;stroke-width:1.165;stroke-opacity:1;filter:url(#filter2646)"
         id="path2636"
         cx="-174.30698"
         cy="255.0882"
         rx="35.40765"
         ry="3.4447508" />
    </g>
    <g
       id="g479"
       transform="matrix(0.68689403,0,0,0.69893483,-167.08692,148.45081)">
      <circle
         id="path1976"
         style="fill:url(#radialGradient1977);fill-rule:evenodd;stroke-width:1pt"
         transform="matrix(6.3924,0.54541,-0.13001,2.8648,-184.66,-38.151)"
         cx="41.875938"
         cy="37.865574"
         r="12.562782" />
      <g
         id="g4293"
         style="fill:url(#linearGradient1138)"
         transform="matrix(1,0,0,1.037,356.83,-11.429)">
        <path
           id="path2720"
           style="fill:url(#linearGradient481);stroke-width:1pt"
           d="m -270.86,33.815 c -18.5,0.111 -37.07,-0.222 -55.52,0.167 -5.05,1.714 -4.64,7.918 -4.31,12.171 -0.07,14.074 0.15,28.145 0.48,42.215 2,2.672 6.99,2.25 7.53,6.171 1.9,1.72 5.63,0.343 8.24,0.794 15.89,0.027 31.78,0.054 47.67,0.081 0.41,-4.949 6.64,-6.59 10.95,-5.874 -0.2,-0.482 -5.88,-1.601 -3.8,-5.048 0.16,-15.765 0.42,-31.61 -0.2,-47.324 -1.37,-4.187 -7.52,-3.334 -11.04,-3.353 z m 34.21,63.445 c 1.86,2.87 -0.44,5.83 -3.28,6.9 -2.7,1.76 -5.66,3.47 -8.6,4.61 -4.65,-0.58 -2.89,-6.89 -6.48,-8.873 -5.33,-3.45 -12.2,-1.458 -18.22,-1.958 -18.59,0.01 -37.19,0.02 -55.78,0.029 -6.45,5.602 -10.16,13.432 -12.54,21.352 4.3,4.89 11.65,2.96 17.45,3.08 25.45,-0.17 50.98,0.22 76.4,-0.15 4.3,-1.1 0.25,-7.4 4.12,-9.21 0.84,-0.31 -4.23,1.4 -3.68,-1.41 1.77,-4.97 8.12,-5.63 11.34,-9.26 1.53,-2.614 -0.35,-5.448 -2.41,-7.11 0.56,0.667 1.12,1.334 1.68,2 z m -3.99,14.49 c -3,1.38 3.61,-1.05 5.08,0.22 5.85,0.77 11.4,5.23 17.44,3.26 -7.86,1.09 -14.68,-6.2 -22.52,-3.48 z m 28.63,0.59 c -3.97,1.51 3.79,-0.16 1.93,3.54 -2.43,4.06 3.09,-2.01 0.47,-3.33 -0.55,-0.6 -1.67,-0.07 -2.4,-0.21 z m -1.96,8.49 c -6.17,3.5 -14.41,-1.75 -19.89,3.56 -4.5,3.61 -10.71,5.96 -13.18,11.36 -0.62,3.85 3.79,6.15 6.59,7.97 4.85,2.83 11.63,2.03 15.25,-2.29 4.57,-3.47 8.76,-7.35 12.71,-11.46 -0.34,-3.02 -1.95,-6.33 -1.48,-9.14 z" />
        <path
           id="path2723"
           style="fill:url(#linearGradient483);stroke-width:1pt"
           d="m -269.68,32.257 c -19.09,0.094 -38.2,-0.007 -57.27,0.092 -5.69,1.314 -6.95,7.942 -6.27,12.8 0.1,14.748 0.15,29.511 0.6,44.246 0.73,3.915 7.76,2.704 7.51,7.046 -2.96,-0.256 -6.44,-0.124 -7.96,2.805 -5.86,5.734 -8.92,13.414 -11.2,21.044 4.04,5.68 12.01,5.02 18.24,4.43 25.86,0.01 51.75,0.1 77.6,0.06 4.01,0.01 5.12,-4.42 4.46,-7.57 1.08,-4.27 6.93,-3.26 10.16,-2.22 5.79,1.65 12.55,5.44 18.23,1.39 4.22,-2.66 2.52,2.02 -0.2,3.05 -5.05,2.83 -11.31,-0.45 -16.62,1.78 -4.13,2.68 -8.35,5.64 -12.37,8.54 -3.57,2.26 -7.14,7.64 -3.37,11.22 4.35,5.06 11.77,8.48 18.46,6.12 4.59,-2.23 7.89,-6.34 12.06,-9.2 2.52,-2.2 5.13,-4.62 6.78,-7.39 -0.02,-3.58 -3.85,-8.59 0.59,-10.93 2.99,-1.62 4.44,-7.45 0.5,-8.69 -4.42,-1.43 -7.2,4.22 -11.69,2.81 -7.03,-0.92 -14.12,-6.49 -21.26,-2.97 -4.2,2.35 -0.77,-1.28 1.24,-2.15 3.6,-1.72 8.73,-4.2 7.51,-8.952 -0.32,-4.534 -5.27,-6.42 -9,-7.895 -4.67,-2.648 -10.32,-2.378 -15.11,-4.79 0.17,-16.548 0.47,-33.169 -0.21,-49.672 -0.94,-4.868 -7.33,-5.3 -11.41,-5.004 z m 11.02,59.507 c 7.15,0.475 15.45,1.71 20.08,7.508 -0.38,3.788 -5.42,4.528 -7.95,6.868 -2.39,2.34 -4.59,-0.33 -4.5,-2.87 -1.68,-4.934 -7.18,-7.559 -12.29,-6.737 -3.69,0.193 -0.4,-4.595 1.92,-4.153 0.92,-0.202 1.82,-0.426 2.74,-0.616 z" />
        <path
           id="path2737"
           sodipodi:nodetypes="ccccczccccccccccccccccccczccccc"
           style="fill:url(#linearGradient485);stroke-width:1pt"
           d="m -324.04,30.709 c -12.31,0.111 -11.12,8.944 -10.75,14.604 0.24,15.124 0.4,30.286 0.78,45.385 0.8,2.359 3.3,3.288 5.26,4.554 -5.71,1.224 -8.22,7.178 -11.36,11.338 -2.22,4.78 -7.73,9.34 -5.81,14.85 1.92,5.5 13.7,6.24 20.97,5.69 25.88,-0.03 51.78,0.02 77.66,-0.06 3.99,-0.9 6.29,-5.03 5.79,-8.83 3.2,-3.29 8.17,-0.21 11.97,0.39 3.81,0.68 -3.03,0.65 -3.66,1.92 -5.05,2.41 -9.43,6.1 -13.72,9.56 -3.54,2.86 -5.51,8 -2.66,11.97 3.36,3.84 8.16,6.76 13.27,7.72 5.65,1.04 10.73,-1.97 14.68,-5.56 4.75,-3.64 9.53,-7.46 12.78,-12.43 1.08,-3.55 -2.63,-7.94 0.76,-10.71 3.15,-2.64 4.01,-8.08 0.66,-10.83 -5.4,-3.46 -10.95,4.28 -16.48,1.02 -4.04,-1.12 -8.01,-2.76 -12.28,-2.84 4.65,-2.57 6.55,-9.668 2.09,-13.297 -5.53,-5.749 -14.37,-6.359 -21.31,-9.409 -0.47,-6.804 -0.14,-13.771 -0.31,-20.645 -0.1,-9.368 -0.03,-18.786 -0.23,-28.123 -2.1,-5.74 -9.4,-6.536 -14.82,-6.246 -18.65,0.041 -41.13,-0.133 -53.28,-0.021 z m 68.57,63.774 c 5.12,1.138 10.78,1.733 14.64,5.567 -1.55,2.5 -4.45,3.59 -6.97,4.93 -1.92,-5.295 -6.6,-10.01 -12.71,-9.842 -0.16,-1.007 3.78,-0.587 5.04,-0.655 z" />
      </g>
      <rect
         id="rect1155"
         style="fill:url(#linearGradient1156);fill-rule:evenodd;stroke:url(#linearGradient1157);stroke-width:1.4473pt"
         height="8.3154001"
         width="57.568001"
         y="78.657997"
         x="33.326" />
      <path
         id="path2676"
         sodipodi:nodetypes="czzczczzzzzzzc"
         style="fill:url(#linearGradient1169);fill-rule:evenodd;stroke-width:0.90459;stroke-opacity:0.07438"
         d="m 98.724,78.928 c -3.537,-1.168 -5.223,3.628 0.043,2.076 5.263,-1.551 21.363,4.902 21.603,8.791 0.25,4.111 -18.87,8.786 -13.63,14.625 4.89,6.28 8.61,-4.28 16.81,-0.21 8.19,3.97 12.71,5.51 18.7,0.73 6.85,-3.01 2.8,2.14 -2.67,8.66 -5.47,6.53 4.42,1.48 8.33,-8.28 4.02,-9.762 -8.78,2.02 -14.25,0.09 -5.47,-1.93 -13.92,-7.56 -20.38,-2.85 -6.46,4.7 -3.65,-3.067 1.58,-4.657 5.22,-1.811 7.95,-4.857 8,-7.741 0.04,-2.664 -4.93,-5.35 -9.92,-7.759 -5.2,-2.409 -12.44,-3.814 -14.216,-3.475 z" />
      <path
         id="path1139"
         sodipodi:nodetypes="czzzzzzzz"
         style="fill:url(#linearGradient1140);fill-rule:evenodd;stroke-width:1.4473pt"
         d="m 15.103,106.81 c -1.299,2.42 2.046,6.71 4.797,6.71 h 87.95 c 2.34,0 5.86,-3.03 4.8,-5.11 l -9.92,-19.513 c -0.76,-1.503 -2.47,-2.239 -4.154,-2.239 H 28.215 c -1.39,0 -2.861,1.014 -3.518,2.239 z" />
      <rect
         id="rect1137"
         style="fill:url(#linearGradient905);fill-rule:evenodd;stroke-width:1.6283"
         rx="5.4369998"
         ry="5.4369998"
         height="60.125999"
         width="72.279999"
         y="22.414"
         x="26.014999" />
      <rect
         id="rect1131"
         style="fill:url(#radialGradient1132);fill-rule:evenodd;stroke:url(#linearGradient891);stroke-width:1.4649pt"
         height="38.043999"
         width="58.178001"
         y="31.695999"
         x="33.386002" />
      <path
         id="path1145"
         sodipodi:nodetypes="czzccccc"
         style="fill:url(#linearGradient1146);fill-rule:evenodd;stroke-width:1pt"
         d="m 27.69,52.841 -0.319,21.908 c -0.051,3.493 1.939,5.729 5.437,5.757 l 39.817,0.32 3.838,-8.955 -44.455,-0.32 -0.32,-18.869 z" />
      <g
         id="g1791"
         transform="matrix(-1,0,0,1,125.43,0)">
        <path
           id="path1147"
           sodipodi:nodetypes="czzccc"
           style="fill:url(#linearGradient1148);fill-rule:evenodd;stroke-width:1pt"
           d="m 42.062,33.46 35.279,-0.452 c 5.446,-0.07 12.212,5.409 12.212,10.855 V 60.146 L 41.61,59.694 Z" />
        <path
           id="path1149"
           sodipodi:nodetypes="czzccc"
           style="fill:url(#linearGradient1150);fill-rule:evenodd;stroke-width:1pt"
           d="M 78.338,67.629 46.724,67.725 C 41.844,67.739 35.829,62.771 35.877,57.891 L 36.02,43.302 78.974,44.128 Z" />
      </g>
      <path
         id="path1159"
         sodipodi:nodetypes="cczzzzzzc"
         style="fill:url(#linearGradient1167);fill-rule:evenodd;stroke-width:0.72367;stroke-opacity:0.34711"
         d="m 137.39,112.02 c 0,0 -8.31,-1.76 -13.75,1.6 -5.44,3.36 -13.67,9.6 -14.87,11.2 -1.36,1.76 -1.35,5.41 0.48,6.71 l 5.59,4 c 3.48,2.48 10.02,3.72 13.28,0.96 l 14.87,-12.63 c 1.81,-1.54 2.74,-5.58 1.12,-7.04 -1.15,-1.77 -3.62,-3.9 -6.72,-4.8 z" />
      <path
         id="path1160"
         sodipodi:nodetypes="czzzzzc"
         style="fill:url(#linearGradient1171);fill-rule:evenodd;stroke-width:1pt"
         d="m 142.35,121.14 -16.44,12.46 c -2.94,2.22 -7.26,0.52 -9.63,0.17 -2.37,-0.35 -4.39,-1.89 -4.15,-1.44 0.24,0.46 2.95,3.39 5.59,4.16 2.64,0.77 7.23,2.4 9.79,-0.33 2.55,-2.74 17.72,-12.62 14.84,-15.02 z" />
      <path
         id="path1403"
         sodipodi:nodetypes="cczc"
         style="fill:url(#linearGradient1404);fill-rule:evenodd;stroke-width:1pt"
         d="m 132.11,127.52 c 3.2,-4.64 -11.99,-14.39 -23.02,-0.48 1.11,3.68 7.72,5.56 12.73,5.3 4.86,-0.26 7.68,-2.37 10.29,-4.82 z" />
      <path
         id="path1519"
         sodipodi:nodetypes="cccccccc"
         style="fill:url(#linearGradient1166);fill-rule:evenodd;stroke-width:1.0855"
         d="m 138.63,112.68 c -2.63,0.55 -6.31,1.75 -8.75,3.7 -1.11,-0.7 -4.55,-1.81 -6.21,-2.54 l -0.42,0.27 c 6.42,3.12 13.19,3.8 12.63,8.77 0.46,0.11 1.18,0.22 0.85,-0.49 -0.31,-3.49 -4.22,-5.16 -5.7,-5.57 2.14,-2.55 5.23,-3.11 7.6,-4.14 z" />
      <path
         id="path1143"
         sodipodi:nodetypes="czzzzzzzz"
         style="fill:url(#linearGradient1144);fill-rule:evenodd;stroke-width:1pt"
         d="m 18.892,106.48 c -0.914,1.84 0.282,5.08 3.372,5.08 h 82.756 c 1.64,0 4.12,-2.29 3.37,-3.87 L 101.42,92.955 C 100.89,91.819 99.685,91.263 98.5,91.263 H 28.108 c -0.977,0 -2.011,0.766 -2.473,1.692 z" />
    </g>
  </g>
</svg>
