<?xml version="1.0" encoding="UTF-8" standalone="no"?>
<svg
   xmlns:dc="http://purl.org/dc/elements/1.1/"
   xmlns:cc="http://creativecommons.org/ns#"
   xmlns:rdf="http://www.w3.org/1999/02/22-rdf-syntax-ns#"
   xmlns:svg="http://www.w3.org/2000/svg"
   xmlns="http://www.w3.org/2000/svg"
   xmlns:xlink="http://www.w3.org/1999/xlink"
   xmlns:sodipodi="http://sodipodi.sourceforge.net/DTD/sodipodi-0.dtd"
   xmlns:inkscape="http://www.inkscape.org/namespaces/inkscape"
   sodipodi:docname="ghost_lover.svg"
   inkscape:version="1.0 (4035a4f, 2020-05-01)"
   id="svg8"
   version="1.1"
   viewBox="0 0 110.55129 143.88519"
   height="143.88519mm"
   width="110.55129mm">
  <defs
     id="defs2">
    <linearGradient
       id="WhiteTransparent">
      <stop
         stop-color="#fff"
         offset="0"
         id="stop833" />
      <stop
         stop-color="#fff"
         stop-opacity="0"
         offset="1"
         id="stop835" />
    </linearGradient>
    <linearGradient
       id="BlackTransparent">
      <stop
         offset="0"
         id="stop838" />
      <stop
         stop-opacity="0"
         offset="1"
         id="stop840" />
    </linearGradient>
    <linearGradient
       id="lg1999"
       x1="637.03003"
       xlink:href="#WhiteTransparent"
       gradientUnits="userSpaceOnUse"
       y1="69.989998"
       gradientTransform="matrix(0.1,0.1,-0.22,0.2,75.6,-33.53)"
       x2="638.29999"
       y2="118.3" />
    <linearGradient
       id="lg02"
       x1="512.70001"
       xlink:href="#WhiteTransparent"
       gradientUnits="userSpaceOnUse"
       y1="254.36"
       gradientTransform="matrix(0.0807,0.0775,-0.35,0.36,77.14,-45.89)"
       x2="615.59003"
       y2="254.83" />
    <linearGradient
       id="lg05"
       x1="543.09998"
       xlink:href="#BlackTransparent"
       gradientUnits="userSpaceOnUse"
       y1="286.56"
       gradientTransform="matrix(0.0998,0.0998,-0.28,0.28,78.84,-44.8)"
       x2="419.88"
       y2="286.56" />
    <linearGradient
       id="lg09"
       x1="258.95999"
       xlink:href="#WhiteTransparent"
       gradientUnits="userSpaceOnUse"
       y1="62.740002"
       gradientTransform="matrix(0.33,0.33,-0.0944,0.0944,9.03,-48.1)"
       x2="258.95999"
       y2="-1.72" />
    <linearGradient
       id="lg12"
       x1="146.14999"
       xlink:href="#WhiteTransparent"
       gradientUnits="userSpaceOnUse"
       y1="288.57001"
       gradientTransform="matrix(0.3,0.3,-0.09,0.09,78.84,-44.8)"
       x2="146.14999"
       y2="368.26999" />
    <linearGradient
       id="lg16"
       x1="577.03003"
       xlink:href="#WhiteTransparent"
       gradientUnits="userSpaceOnUse"
       y1="124"
       gradientTransform="matrix(0.0775,0.0775,-0.36,0.36,78.84,-44.8)"
       x2="626.09998"
       y2="124" />
    <linearGradient
       gradientUnits="userSpaceOnUse"
       id="lg19"
       x1="2482.957"
       xlink:href="#BlackTransparent"
       y1="6145.3076"
       x2="2375.4978"
       y2="6037.5259" />
    <linearGradient
       id="lg51"
       x1="646.23999"
       xlink:href="#WhiteTransparent"
       gradientUnits="userSpaceOnUse"
       y1="-252.60001"
       gradientTransform="matrix(0.2,0,0,0.2,-80.94,88.3)"
       x2="607.65997"
       y2="-186.25999" />
    <linearGradient
       id="lg55"
       x1="550.96002"
       xlink:href="#WhiteTransparent"
       gradientUnits="userSpaceOnUse"
       y1="-137.5"
       gradientTransform="matrix(0.26,0,0,0.26,-106.57,101.57)"
       x2="655.41998"
       y2="-241.2" />
    <linearGradient
       id="lgdg"
       x1="73.879997"
       xlink:href="#BlackTransparent"
       gradientUnits="userSpaceOnUse"
       y1="66.199997"
       gradientTransform="translate(-34.000855,-5.5169151)"
       x2="84.300003"
       y2="86.68" />
    <clipPath
       id="clipoutline1"
       clipPathUnits="userSpaceOnUse">
      <path
         id="outline1"
         d="m 22.42,17.2 12.96,12.95 -2.5,8.78 -8.78,2.5 -12.96,-12.96 -5.86,5.86 14.89,21.46 17.56,-3.34 61.63,65.62 c 9.44,9.51 22.17,-4.75 13.34,-12.87 L 46.85,42.92 50.86,25.16 28.72,10.89 Z m 81.06,91.97 c 1.68,-1.68 4.4,-1.68 6.08,0 1.68,1.68 1.68,4.4 0,6.08 -1.68,1.67 -4.4,1.67 -6.08,0 -1.68,-1.68 -1.68,-4.4 0,-6.08 z" />
    </clipPath>
    <clipPath
       id="clipoutline2"
       clipPathUnits="userSpaceOnUse">
      <path
         id="outline2"
         d="m 55.8,12 0.76,0.16 c 8.84,-2.94 28.68,8.64 24.26,18.96 -1.12,1.62 -0.93,4.5 0.42,6.31 L 56.43,62.25 c -1.39,-1.39 -4.48,-1.36 -5.9,0 L 9.5,101.63 c -3.74,3.59 -0.8,6.64 0.78,8.25 l 7.36,7.36 c 1.61,1.6 5.86,3.76 8.88,0.56 L 65.24,76.99 c 1.35,-1.42 1.36,-4.47 0,-5.87 0,0 0.01,-0.02 0,-0.02 L 90.15,46.2 c 2.63,2.37 5.114,2.575 7.47,1.93 4.55,-1.245 7.09,3.207 9.81,6.46 l -1.23,1.21 c -1.82,1.84 -1.65,4.94 0.39,6.98 2.04,2.04 5.15,2.21 6.97,0.39 l 8.14,-8.13 c 1.82,-1.84 1.65,-4.94 -0.4,-6.97 -1.84,-1.85 -4.51,-2.09 -6.37,-0.77 -5.58,-6.26 -2.65,-7.2 -10.01,-15.35 L 91.13,17.86 C 81.2,8.12 68.3,8.13 55.8,12 Z" />
    </clipPath>
    <linearGradient
       id="linearGradient6713"
       y2="778.71002"
       gradientUnits="userSpaceOnUse"
       x2="318.51999"
       y1="838.28998"
       x1="317.16">
      <stop
         id="stop6416"
         stop-color="#cff2ff"
         offset="0" />
      <stop
         id="stop6418"
         stop-color="#fff"
         offset="1" />
    </linearGradient>
    <linearGradient
       id="linearGradient6783"
       y2="762.59998"
       gradientUnits="userSpaceOnUse"
       x2="320.32001"
       y1="799.96002"
       x1="316.03">
      <stop
         id="stop6416-7"
         stop-color="#cff2ff"
         offset="0" />
      <stop
         id="stop6418-0"
         stop-color="#fff"
         offset="1" />
    </linearGradient>
    <filter
       id="filter5309"
       height="1.7816"
       width="1.2628"
       y="-0.39082"
       x="-0.13138001"
       color-interpolation-filters="sRGB">
      <feGaussianBlur
         id="feGaussianBlur5311"
         stdDeviation="3.0125679" />
    </filter>
    <radialGradient
       id="radialGradient3702"
       gradientUnits="userSpaceOnUse"
       cy="519.23999"
       cx="515.85999"
       gradientTransform="matrix(0.77994,3.9458,-1.9194,0.3794,1155.7,-1723)"
       r="76.268997">
      <stop
         id="stop6549-7"
         stop-opacity="0"
         offset="0" />
      <stop
         id="stop6551-9"
         stop-opacity="0"
         offset=".5" />
      <stop
         id="stop6553-0"
         stop-color="#67afcd"
         stop-opacity=".44746"
         offset="1" />
    </radialGradient>
    <linearGradient
       id="linearGradient3704"
       y2="388.14001"
       gradientUnits="userSpaceOnUse"
       x2="499.79999"
       gradientTransform="translate(54)"
       y1="504.5"
       x1="500.98999">
      <stop
         id="stop3461-6-8"
         stop-color="#fff"
         stop-opacity=".4339"
         offset="0" />
      <stop
         id="stop3465-4-3"
         stop-color="#40aeff"
         stop-opacity=".37966"
         offset="1" />
    </linearGradient>
    <filter
       id="filter3485-5-0"
       width="1.2315"
       y="-0.12456"
       x="-0.11576"
       height="1.2491"
       color-interpolation-filters="sRGB">
      <feGaussianBlur
         id="feGaussianBlur3487-7-4"
         stdDeviation="6.0922004" />
    </filter>
    <radialGradient
       id="radialGradient3706"
       gradientUnits="userSpaceOnUse"
       cy="542.71002"
       cx="453.75"
       gradientTransform="matrix(2.1031,-0.75707,0.3519,0.97755,-636.75,356.49)"
       r="77.982002">
      <stop
         id="stop4676"
         stop-opacity="0"
         offset="0" />
      <stop
         id="stop3400"
         stop-opacity="0"
         offset=".5" />
      <stop
         id="stop4678"
         stop-opacity=".37069"
         offset="1" />
    </radialGradient>
    <filter
       id="filter3485-5"
       width="1.2315"
       y="-0.12456"
       x="-0.11576"
       height="1.2491"
       color-interpolation-filters="sRGB">
      <feGaussianBlur
         id="feGaussianBlur3487-7"
         stdDeviation="6.0922004" />
    </filter>
    <radialGradient
       id="radialGradient3720"
       gradientUnits="userSpaceOnUse"
       cy="716.19"
       cx="189.48"
       gradientTransform="matrix(-1.3653,0.49546,-0.90594,-2.4964,1097.5,2408.3)"
       r="13.047">
      <stop
         id="stop4484"
         stop-color="#fff"
         offset="0" />
      <stop
         id="stop4490"
         stop-color="#ecb732"
         offset=".33002" />
      <stop
         id="stop4486"
         stop-color="#d5b214"
         offset="1" />
    </radialGradient>
    <radialGradient
       id="radialGradient3722"
       gradientUnits="userSpaceOnUse"
       cy="729.08002"
       cx="166.73"
       gradientTransform="matrix(0.96082,0.063654,-0.051551,1.1205,44.117,-98.473)"
       r="0.1797">
      <stop
         id="stop4762"
         offset="0" />
      <stop
         id="stop4764"
         stop-opacity=".15593"
         offset="1" />
    </radialGradient>
    <linearGradient
       id="linearGradient3736"
       y2="670.87"
       gradientUnits="userSpaceOnUse"
       x2="188.53"
       y1="670.82001"
       x1="187.5">
      <stop
         id="stop4494-3-4"
         stop-color="#bcab00"
         offset="0" />
      <stop
         id="stop4496-8-6"
         stop-color="#fff"
         offset="1" />
    </linearGradient>
    <linearGradient
       id="linearGradient3738"
       y2="689.20001"
       gradientUnits="userSpaceOnUse"
       x2="181.07001"
       gradientTransform="matrix(0.99638,0.084967,-0.084967,0.99638,65.126,-12.746)"
       y1="689.25"
       x1="179.74001">
      <stop
         id="stop4494-3-7"
         stop-color="#bcab00"
         offset="0" />
      <stop
         id="stop4496-8-7"
         stop-color="#fff"
         offset="1" />
    </linearGradient>
    <linearGradient
       id="linearGradient3740"
       y2="688.31"
       gradientUnits="userSpaceOnUse"
       x2="192.23"
       gradientTransform="matrix(0.9978,-0.066347,0.066347,0.9978,-46.794,14.239)"
       y1="688.17999"
       x1="190.92">
      <stop
         id="stop4494-3-8"
         stop-color="#bcab00"
         offset="0" />
      <stop
         id="stop4496-8-0"
         stop-color="#fff"
         offset="1" />
    </linearGradient>
    <linearGradient
       id="linearGradient3742"
       y2="689.20001"
       gradientUnits="userSpaceOnUse"
       x2="181.07001"
       gradientTransform="matrix(0.99394,0.10995,-0.10995,0.99394,84.792,-15.712)"
       y1="689.25"
       x1="179.74001">
      <stop
         id="stop4494-3-7-9"
         stop-color="#bcab00"
         offset="0" />
      <stop
         id="stop4496-8-7-8"
         stop-color="#fff"
         offset="1" />
    </linearGradient>
    <linearGradient
       id="linearGradient3744"
       y2="670.71997"
       gradientUnits="userSpaceOnUse"
       x2="185.97"
       y1="670.64001"
       x1="184.87">
      <stop
         id="stop4494-3-3"
         stop-color="#bcab00"
         offset="0" />
      <stop
         id="stop4496-8-65"
         stop-color="#fff"
         offset="1" />
    </linearGradient>
    <linearGradient
       id="linearGradient3746"
       y2="689.20001"
       gradientUnits="userSpaceOnUse"
       x2="181.07001"
       gradientTransform="rotate(3.3905069,182.1195,752.35946)"
       y1="689.25"
       x1="179.74001">
      <stop
         id="stop4494-3-7-5"
         stop-color="#bcab00"
         offset="0" />
      <stop
         id="stop4496-8-7-2"
         stop-color="#fff"
         offset="1" />
    </linearGradient>
    <linearGradient
       id="linearGradient3748"
       y2="671.02002"
       xlink:href="#linearGradient4492-2"
       gradientUnits="userSpaceOnUse"
       x2="177.62"
       y1="671.03003"
       x1="176.46001" />
    <linearGradient
       id="linearGradient4492-2">
      <stop
         id="stop4494-3"
         stop-color="#bcab00"
         offset="0" />
      <stop
         id="stop4496-8"
         stop-color="#fff"
         offset="1" />
    </linearGradient>
    <linearGradient
       id="linearGradient3750"
       y2="670.53998"
       xlink:href="#linearGradient4492-2"
       gradientUnits="userSpaceOnUse"
       x2="180.67999"
       y1="670.42999"
       x1="179.00999" />
    <linearGradient
       id="linearGradient3752"
       y2="670.76001"
       gradientUnits="userSpaceOnUse"
       x2="183.69"
       y1="670.65997"
       x1="181.98">
      <stop
         id="stop4494-3-0"
         stop-color="#bcab00"
         offset="0" />
      <stop
         id="stop4496-8-78"
         stop-color="#fff"
         offset="1" />
    </linearGradient>
    <linearGradient
       id="linearGradient3754"
       y2="688.31"
       xlink:href="#linearGradient4492-2"
       gradientUnits="userSpaceOnUse"
       x2="192.23"
       y1="688.17999"
       x1="190.92" />
    <linearGradient
       id="linearGradient3756"
       y2="689.02002"
       xlink:href="#linearGradient4492-2"
       gradientUnits="userSpaceOnUse"
       x2="179.08"
       y1="689.15997"
       x1="177.14999" />
    <linearGradient
       id="linearGradient3758"
       y2="689.20001"
       xlink:href="#linearGradient4492-2"
       gradientUnits="userSpaceOnUse"
       x2="181.07001"
       y1="689.25"
       x1="179.74001" />
    <linearGradient
       id="linearGradient3760"
       y2="688.73999"
       xlink:href="#linearGradient4492-2"
       gradientUnits="userSpaceOnUse"
       x2="184.09"
       y1="688.73999"
       x1="182.03999" />
    <style
       id="style3168"
       type="text/css">@font-face { font-family:&quot;Gigi&quot;;src:url(&quot;#FontID0&quot;) format(svg)}
    .str0 {stroke:#1F1A17;stroke-width:0.0762}
    .str2 {stroke:black;stroke-width:0.0762}
    .str3 {stroke:#1F1A17;stroke-width:0.1763}
    .str6 {stroke:#1F1A17;stroke-width:0.1763;stroke-linecap:round;stroke-linejoin:round}
    .str5 {stroke:black;stroke-width:0.1763}
    .str4 {stroke:black;stroke-width:0.1763;stroke-linecap:round;stroke-linejoin:round}
    .str1 {stroke:#0093DD;stroke-width:0.3527}
    .fil1 {fill:none}
    .fil2 {fill:none;fill-rule:nonzero}
    .fil13 {fill:#00923F}
    .fil3 {fill:#0093DD}
    .fil5 {fill:#1F1A17}
    .fil21 {fill:#DA251D}
    .fil4 {fill:white}
    .fil22 {fill:#79C6F1}
    .fil14 {fill:black}
    .fil7 {fill:#020202}
    .fil9 {fill:#090909}
    .fil18 {fill:#33CC33}
    .fil20 {fill:#663300}
    .fil12 {fill:#848489}
    .fil19 {fill:#996633}
    .fil10 {fill:#A6A6AD}
    .fil11 {fill:#BBBBC2}
    .fil6 {fill:#E5E5E8}
    .fil8 {fill:#FDFDFD}
    .fil16 {fill:red}
    .fil17 {fill:#FF99CC}
    .fil15 {fill:white}
    .fil0 {fill:#E7E09D}
    .fnt0 {font-weight:normal;font-size:8.1876;font-family:'Gigi'}</style>
    <filter
       color-interpolation-filters="sRGB"
       x="-0.13138001"
       y="-0.39082"
       width="1.2628"
       height="1.7816"
       id="filter5309-5">
      <feGaussianBlur
         stdDeviation="3.0125679"
         id="feGaussianBlur5311-6" />
    </filter>
    <filter
       id="filter5309-7"
       height="1.7816"
       width="1.2628"
       y="-0.39082"
       x="-0.13138001"
       color-interpolation-filters="sRGB">
      <feGaussianBlur
         id="feGaussianBlur5311-0"
         stdDeviation="3.0125679" />
    </filter>
    <radialGradient
       id="radialGradient3702-9"
       gradientUnits="userSpaceOnUse"
       cy="519.23999"
       cx="515.85999"
       gradientTransform="matrix(0.77994,3.9458,-1.9194,0.3794,1155.7,-1723)"
       r="76.268997">
      <stop
         id="stop6549-7-3"
         stop-opacity="0"
         offset="0" />
      <stop
         id="stop6551-9-6"
         stop-opacity="0"
         offset=".5" />
      <stop
         id="stop6553-0-0"
         stop-color="#67afcd"
         stop-opacity=".44746"
         offset="1" />
    </radialGradient>
    <filter
       id="filter3485-5-0-6"
       width="1.2315"
       y="-0.12456"
       x="-0.11576"
       height="1.2491"
       color-interpolation-filters="sRGB">
      <feGaussianBlur
         id="feGaussianBlur3487-7-4-1"
         stdDeviation="6.0922004" />
    </filter>
    <radialGradient
       id="radialGradient3706-8"
       gradientUnits="userSpaceOnUse"
       cy="542.71002"
       cx="453.75"
       gradientTransform="matrix(2.1031,-0.75707,0.3519,0.97755,-636.75,356.49)"
       r="77.982002">
      <stop
         id="stop4676-7"
         stop-opacity="0"
         offset="0" />
      <stop
         id="stop3400-9"
         stop-opacity="0"
         offset=".5" />
      <stop
         id="stop4678-2"
         stop-opacity=".37069"
         offset="1" />
    </radialGradient>
    <filter
       id="filter3485-5-02"
       width="1.2315"
       y="-0.12456"
       x="-0.11576"
       height="1.2491"
       color-interpolation-filters="sRGB">
      <feGaussianBlur
         id="feGaussianBlur3487-7-3"
         stdDeviation="6.0922004" />
    </filter>
    <radialGradient
       id="radialGradient3720-7"
       gradientUnits="userSpaceOnUse"
       cy="716.19"
       cx="189.48"
       gradientTransform="matrix(-1.3653,0.49546,-0.90594,-2.4964,1097.5,2408.3)"
       r="13.047">
      <stop
         id="stop4484-5"
         stop-color="#fff"
         offset="0" />
      <stop
         id="stop4490-9"
         stop-color="#ecb732"
         offset=".33002" />
      <stop
         id="stop4486-2"
         stop-color="#d5b214"
         offset="1" />
    </radialGradient>
    <radialGradient
       id="radialGradient3722-2"
       gradientUnits="userSpaceOnUse"
       cy="729.08002"
       cx="166.73"
       gradientTransform="matrix(0.96082,0.063654,-0.051551,1.1205,44.117,-98.473)"
       r="0.1797">
      <stop
         id="stop4762-8"
         offset="0" />
      <stop
         id="stop4764-9"
         stop-opacity=".15593"
         offset="1" />
    </radialGradient>
    <style
       id="style3168-0"
       type="text/css">@font-face { font-family:&quot;Gigi&quot;;src:url(&quot;#FontID0&quot;) format(svg)}
    .str0 {stroke:#1F1A17;stroke-width:0.0762}
    .str2 {stroke:black;stroke-width:0.0762}
    .str3 {stroke:#1F1A17;stroke-width:0.1763}
    .str6 {stroke:#1F1A17;stroke-width:0.1763;stroke-linecap:round;stroke-linejoin:round}
    .str5 {stroke:black;stroke-width:0.1763}
    .str4 {stroke:black;stroke-width:0.1763;stroke-linecap:round;stroke-linejoin:round}
    .str1 {stroke:#0093DD;stroke-width:0.3527}
    .fil1 {fill:none}
    .fil2 {fill:none;fill-rule:nonzero}
    .fil13 {fill:#00923F}
    .fil3 {fill:#0093DD}
    .fil5 {fill:#1F1A17}
    .fil21 {fill:#DA251D}
    .fil4 {fill:white}
    .fil22 {fill:#79C6F1}
    .fil14 {fill:black}
    .fil7 {fill:#020202}
    .fil9 {fill:#090909}
    .fil18 {fill:#33CC33}
    .fil20 {fill:#663300}
    .fil12 {fill:#848489}
    .fil19 {fill:#996633}
    .fil10 {fill:#A6A6AD}
    .fil11 {fill:#BBBBC2}
    .fil6 {fill:#E5E5E8}
    .fil8 {fill:#FDFDFD}
    .fil16 {fill:red}
    .fil17 {fill:#FF99CC}
    .fil15 {fill:white}
    .fil0 {fill:#E7E09D}
    .fnt0 {font-weight:normal;font-size:8.1876;font-family:'Gigi'}</style>
    <linearGradient
       id="linearGradient8609"
       y2="353.82999"
       xlink:href="#BlackTransparent"
       gradientUnits="userSpaceOnUse"
       x2="365.10999"
       y1="380.45001"
       x1="206.64999"
       inkscape:collect="always" />
    <linearGradient
       id="linearGradient8632"
       y2="354.54001"
       xlink:href="#BlackTransparent"
       gradientUnits="userSpaceOnUse"
       x2="380.82999"
       gradientTransform="translate(75.256,496.04)"
       y1="355.81"
       x1="284.85999"
       inkscape:collect="always" />
    <linearGradient
       id="linearGradient8640"
       y2="846.03003"
       gradientUnits="userSpaceOnUse"
       x2="195.73"
       gradientTransform="translate(62.143,-1.4286)"
       y1="840.46997"
       x1="61.957001"
       inkscape:collect="always">
      <stop
         id="stop8636"
         style="stop-color:#000000;stop-opacity:.71910"
         offset="0" />
      <stop
         id="stop8638"
         style="stop-color:#000000;stop-opacity:0"
         offset="1" />
    </linearGradient>
    <filter
       id="filter8688"
       height="1.2515"
       width="1.0372"
       y="-0.12574001"
       x="-0.018595999"
       inkscape:collect="always"
       style="color-interpolation-filters:sRGB">
      <feGaussianBlur
         id="feGaussianBlur8690"
         stdDeviation="2.5347217"
         inkscape:collect="always" />
    </filter>
    <linearGradient
       id="linearGradient8698"
       y2="708.47998"
       gradientUnits="userSpaceOnUse"
       x2="220.13"
       y1="598.88"
       x1="183.74001"
       inkscape:collect="always">
      <stop
         id="stop8694"
         style="stop-color:#ffffff"
         offset="0" />
      <stop
         id="stop8696"
         style="stop-color:#ffffff;stop-opacity:0"
         offset="1" />
    </linearGradient>
    <filter
       id="filter8768"
       inkscape:collect="always"
       style="color-interpolation-filters:sRGB">
      <feGaussianBlur
         id="feGaussianBlur8770"
         stdDeviation="5.2797312"
         inkscape:collect="always" />
    </filter>
    <linearGradient
       id="linearGradient8782"
       y2="268.85999"
       gradientUnits="userSpaceOnUse"
       x2="211"
       y1="497.98999"
       x1="46.355"
       inkscape:collect="always">
      <stop
         id="stop8778"
         style="stop-color:#ffffff"
         offset="0" />
      <stop
         id="stop8780"
         style="stop-color:#ffffff;stop-opacity:0"
         offset="1" />
    </linearGradient>
    <filter
       id="filter9105"
       inkscape:collect="always"
       style="color-interpolation-filters:sRGB">
      <feGaussianBlur
         id="feGaussianBlur9107"
         stdDeviation="1.0022768"
         inkscape:collect="always" />
    </filter>
    <linearGradient
       id="linearGradient9141"
       y2="667.19"
       xlink:href="#WhiteTransparent"
       gradientUnits="userSpaceOnUse"
       x2="181.45"
       gradientTransform="translate(-5.8443,-9.0152)"
       y1="613.02002"
       x1="139.02"
       inkscape:collect="always" />
    <linearGradient
       id="linearGradient9143"
       y2="667.19"
       xlink:href="#WhiteTransparent"
       gradientUnits="userSpaceOnUse"
       x2="181.45"
       gradientTransform="translate(37.727,-9.9081)"
       y1="613.02002"
       x1="139.02"
       inkscape:collect="always" />
    <filter
       id="filter4697"
       inkscape:collect="always">
      <feGaussianBlur
         id="feGaussianBlur4699"
         stdDeviation="7.0393284"
         inkscape:collect="always" />
    </filter>
    <filter
       color-interpolation-filters="sRGB"
       x="-0.13138001"
       y="-0.39082"
       width="1.2628"
       height="1.7816"
       id="filter5309-5-6">
      <feGaussianBlur
         stdDeviation="3.0125679"
         id="feGaussianBlur5311-6-3" />
    </filter>
    <filter
       height="1.6636728"
       y="-0.3318364"
       width="1.0645676"
       x="-0.032283805"
       id="filter2646"
       style="color-interpolation-filters:sRGB"
       inkscape:collect="always">
      <feGaussianBlur
         id="feGaussianBlur2648"
         stdDeviation="0.95257811"
         inkscape:collect="always" />
    </filter>
    <filter
       id="filter3426"
       y="-0.096299"
       width="1.2632"
       x="-0.13161001"
       height="1.1926">
      <feGaussianBlur
         id="feGaussianBlur3428"
         stdDeviation="6.6354564" />
    </filter>
    <linearGradient
       id="linearGradient3436"
       x1="218.42999"
       gradientUnits="userSpaceOnUse"
       y1="31.128"
       gradientTransform="matrix(1.5238,0,0,1.5238,-71.255,-63.58)"
       x2="285.26999"
       y2="163.08">
      <stop
         id="stop3432"
         stop-color="#d20101"
         offset="0" />
      <stop
         id="stop3434"
         stop-color="#b50707"
         offset="1" />
    </linearGradient>
    <filter
       id="filter3440"
       y="-0.47999999"
       width="1.96"
       x="-0.47999999"
       height="1.96">
      <feGaussianBlur
         id="feGaussianBlur3442"
         stdDeviation="9.2018311" />
    </filter>
  </defs>
  <sodipodi:namedview
     inkscape:window-maximized="0"
     inkscape:window-y="86"
     inkscape:window-x="170"
     inkscape:window-height="492"
     inkscape:window-width="1024"
     fit-margin-bottom="0"
     fit-margin-right="0"
     fit-margin-left="0"
     fit-margin-top="0"
     showgrid="false"
     inkscape:document-rotation="0"
     inkscape:current-layer="layer1"
     inkscape:document-units="mm"
     inkscape:cy="111.80319"
     inkscape:cx="410.3973"
     inkscape:zoom="0.35"
     inkscape:pageshadow="2"
     inkscape:pageopacity="0.0"
     borderopacity="1.0"
     bordercolor="#666666"
     pagecolor="#ffffff"
     id="base" />
  <metadata
     id="metadata5">
    <rdf:RDF>
      <cc:Work
         rdf:about="">
        <dc:format>image/svg+xml</dc:format>
        <dc:type
           rdf:resource="http://purl.org/dc/dcmitype/StillImage" />
        <dc:title></dc:title>
      </cc:Work>
    </rdf:RDF>
  </metadata>
  <g
     transform="translate(-56.60531,-60.349073)"
     id="layer1"
     inkscape:groupmode="layer"
     inkscape:label="Layer 1">
    <g
       id="g2686"
       transform="translate(286.18794,-56.584875)">
      <g
         id="g2634">
        <g
           transform="matrix(0.26458333,0,0,0.26458333,-229.58263,130.45574)"
           id="g2343">
          <g
             id="layer2"
             style="display:none"
             inkscape:label="ombra"
             transform="translate(8.4387156,-161.58616)">
            <path
               id="path8717"
               sodipodi:nodetypes="sssssscccsssscscsss"
               style="display:inline;fill:#333333;stroke:#000000;stroke-width:1px;filter:url(#filter8768)"
               inkscape:connector-curvature="0"
               d="m 287.54,107.24 c -53.93,0.32756 -111.13,36.371 -131.44,94.75 -8.376,24.075 -3.3745,71.123 -6.7812,96.219 -3.4068,25.095 -7.1545,40.563 -12.125,58.594 -4.9705,18.031 -13.242,38.114 -17.188,49.5 -3.9671,11.448 -5.7002,18.386 -0.9375,20.562 1.4172,0.64771 3.1666,0.83906 5.1562,0.71875 8.3027,0.52033 42.578,-23.404 52.473,-26.241 l 26.688,16.58 c 11.904,11.073 13.126,36.838 26.902,38.973 30.681,4.7559 47.714,-26.006 75.437,-19.438 18.807,4.4556 36.512,27.962 55.656,25.312 18.793,-2.601 25.392,-30.946 42.656,-38.812 15.154,-6.9043 40.598,5.8252 53.188,-0.84375 1.1237,-0.19261 2.2027,-0.70568 3.2188,-1.6562 17.325,-16.207 -27.46,-90.243 -31.312,-109.12 -6.25,-34.003 0.1458,-70.849 -10.125,-105.03 -12.686,-42.22 -48.61,-93.574 -120.72,-99.656 -3.5542,-0.29977 -7.1546,-0.42809 -10.75,-0.40625 z" />
          </g>
          <g
             id="layer1-6"
             inkscape:label="Livello 1"
             transform="translate(8.4387156,-647.01616)">
            <g
               id="g3055"
               transform="matrix(1.25,0,0,-1.25,-3198.7,1848.3)" />
            <g
               id="g3125"
               transform="matrix(1.25,0,0,-1.25,-3198.7,1848.3)" />
            <g
               id="g3133"
               transform="matrix(1.25,0,0,-1.25,-3198.7,1848.3)" />
            <g
               id="g3153"
               transform="matrix(1.25,0,0,-1.25,-3198.7,1848.3)" />
          </g>
          <g
             id="layer3"
             inkscape:label="occhi"
             transform="translate(8.4387156,-161.58616)">
            <g
               id="g4701">
              <path
                 id="path3841"
                 d="m 197.73,197.16 c -53.93,0.32756 -111.16,36.403 -131.47,94.781 -8.376,24.075 -3.3745,71.092 -6.7812,96.188 -3.4068,25.095 -7.1545,40.563 -12.125,58.594 -4.9705,18.031 -13.211,38.114 -17.156,49.5 -3.9671,11.448 -5.7002,18.386 -0.9375,20.562 1.4433,0.65963 3.2145,0.85408 5.25,0.71875 8.2514,0.48609 18.154,-1.9698 27.969,-4.7812 l 32.411,-9.3806 14.433,8.7868 c 11.894,11.077 17.355,32.553 31.125,34.688 30.681,4.7559 47.746,-26.006 75.469,-19.438 18.807,4.4556 36.48,27.962 55.625,25.312 18.793,-2.601 25.423,-30.946 42.688,-38.812 15.178,-6.9154 40.65,5.8989 53.219,-0.84375 0.008,-0.004 0.0234,0.004 0.0312,0 1.1018,-0.20133 2.1271,-0.72276 3.125,-1.6562 17.325,-16.207 -27.46,-90.212 -31.312,-109.09 -6.2499,-34.003 0.17706,-70.88 -10.094,-105.06 -12.686,-42.22 -48.641,-93.574 -120.75,-99.656 -3.5542,-0.29977 -7.1234,-0.42809 -10.719,-0.40625 z"
                 sodipodi:nodetypes="csssssccccssssccscsscc"
                 style="fill:#666666;stroke:#000000;stroke-width:1px;filter:url(#filter4697)"
                 inkscape:connector-curvature="0" />
              <g
                 id="g4508"
                 transform="translate(-90.956,88.945)">
                <path
                   id="path8371"
                   sodipodi:nodetypes="csssssscssc"
                   style="fill:#cccccc"
                   inkscape:connector-curvature="0"
                   d="m 112.95,423.71 c 2.2507,1.023 2.3262,1.4556 4.9106,1.7419 19.612,2.1723 49.855,-14.351 65,-11.385 20.944,4.1013 25.048,38.104 42.561,40.819 30.681,4.7559 47.739,-26.002 75.462,-19.434 18.807,4.4556 36.493,27.961 55.638,25.311 18.793,-2.601 25.403,-30.955 42.667,-38.821 17.912,-8.161 50.185,11.161 58.635,-6.6161 -3.698,-15.765 -43.548,-40.633 -62.323,-46.338 -78.084,-23.727 -137.32,-27.796 -213.71,0.61493 -22.581,8.3978 -61.787,32.178 -68.839,54.107 z" />
                <path
                   id="path8642"
                   sodipodi:nodetypes="cssssssc"
                   style="fill:none;stroke:#848181;stroke-width:6.3;filter:url(#filter8688)"
                   inkscape:connector-curvature="0"
                   d="m 124.48,421.06 c 1.8984,1.1865 61.442,-29.139 79.601,-33.328 18.623,-4.2961 33.404,8.2339 52.501,8.9868 27.915,1.1005 60.649,-31.1 81.205,-22.565 9.6665,4.0137 -0.26817,23.97 6.1502,32.238 6.1187,7.8818 10.884,7.425 20.861,7.2544 17.513,-0.29937 37.298,-27.923 52.884,-19.931 13.953,7.1547 34.072,25.736 33.931,23.333" />
                <path
                   id="path8369"
                   sodipodi:nodetypes="ssssssscsccsssssss"
                   style="fill:#ececec"
                   inkscape:connector-curvature="0"
                   d="m 114.21,424.85 c -4.7627,-2.1767 -3.0182,-9.1121 0.94887,-20.56 3.9456,-11.386 12.202,-31.466 17.173,-49.497 4.9705,-18.031 8.7151,-33.494 12.122,-58.589 3.4068,-25.095 -1.6008,-72.135 6.7752,-96.21 21.665,-62.271 85.319,-99.148 142.19,-94.352 72.109,6.0818 108.06,57.428 120.75,99.648 10.271,34.183 3.8516,71.053 10.102,105.06 3.8521,18.882 48.64,92.889 31.315,109.1 -10.644,9.9572 -27.704,-25.436 -40.406,-27.274 -15.706,-0.4652 -26.888,9.9952 -34.748,14.907 -19.741,12.357 -40.582,4.4581 -37.152,-10.8 1.0654,-4.7388 1.8014,-14.597 -1.7625,-20.244 -5.2547,-8.3266 -21.651,-3.2668 -30.384,0.98477 -22.735,11.068 -46.803,19.751 -57.64,18.417 -10.756,-1.3234 -34.041,-12.653 -51.941,-8.0094 -16.229,4.2096 -18.583,6.9608 -35.401,16.443 -15.069,8.4953 -41.805,25.614 -51.936,20.984 z" />
                <path
                   id="path8407"
                   style="fill:url(#linearGradient8640)"
                   d="m 208.53,871.8 c 27.222,-25.07 36.619,-71.973 40.46,-91.83 12.709,38.849 18.448,60.862 9.5404,100.91 -7.9858,2.0364 -33.76,-11.481 -50,-9.0825 z"
                   sodipodi:nodetypes="cccc"
                   inkscape:connector-curvature="0"
                   transform="translate(0,-485.43)" />
                <path
                   id="rect8592"
                   sodipodi:nodetypes="ccccccc"
                   style="fill:url(#linearGradient8609)"
                   inkscape:connector-curvature="0"
                   d="m 338.86,281.49 c -1.7425,0.17425 14.162,89.881 37.083,127.57 -2.4754,2.8483 -18.343,7.0366 -27.443,0.54098 -2.6539,-1.7253 -4.2592,-4.3245 -5.4922,-7.2339 -0.46059,-4.3857 1.073,-8.3885 1.246,-12.133 0.0483,-7.4965 -0.0662,-6.0765 -1.6395,-12.395 -2.6869,-19.887 -9.1017,-75.93 -3.7546,-96.345 z" />
                <path
                   id="path8630"
                   style="opacity:0.29167;fill:url(#linearGradient8632)"
                   d="m 391.62,776.82 c -2.053,0.68435 0.0992,32.183 22.116,66.541 13.482,21.039 27.157,51.306 36.205,63.254 -4.4089,-1.5293 -12.805,-9.3084 -20.048,-18.006 -3.9899,-4.7907 -7.3496,-7.6651 -13.133,-11.345 -27.429,-17.45 -30.328,-77.563 -25.139,-100.44 z"
                   sodipodi:nodetypes="cscssc"
                   transform="translate(0,-485.43)"
                   inkscape:connector-curvature="0" />
                <path
                   id="path8561"
                   style="fill:url(#linearGradient8698)"
                   d="m 157.93,694.69 c 9.4642,-39.141 77.53,-106.39 130.71,-93.214 4.8816,1.2094 6.1229,3.5211 3.0548,12.846 -16.56,50.331 -69.421,44.542 -125.67,101.75 -12.456,9.9977 -13.224,-6.2576 -8.0961,-21.384 z"
                   sodipodi:nodetypes="csscc"
                   inkscape:connector-curvature="0"
                   transform="translate(0,-485.43)" />
                <path
                   id="path8774"
                   sodipodi:nodetypes="scscss"
                   style="fill:url(#linearGradient8782)"
                   inkscape:connector-curvature="0"
                   d="m 123.21,407.29 c 17.783,-31.429 25.817,-70.595 33.214,-102.5 8.1445,-25.531 50.163,-40.521 54.286,-13.571 6.4938,42.449 -29.328,94.565 -47.001,107.53 -16.388,9.1791 -21.808,6.2953 -39.047,18.411 -3.837,2.6968 -7.3829,0.6069 -1.452,-9.8748 z" />
                <g
                   id="g9131"
                   transform="translate(-20.886,332.14)">
                  <g
                     id="g9050"
                     transform="translate(112.14,-754.29)">
                    <g
                       id="g8364"
                       transform="translate(0,-485.43)">
                      <path
                         id="path7526"
                         d="m 159.57,1095 c -2.1587,0.039 -4.3369,0.3254 -6.4832,0.9005 -17.17,4.6007 -26.57,25.241 -20.98,46.102 5.5897,20.861 24.07,34.045 41.24,29.444 8.3655,-2.2416 14.89,-8.271 18.729,-16.298 3.8411,8.0079 10.287,14.06 18.639,16.298 17.17,4.6007 35.65,-8.5833 41.24,-29.444 5.5897,-20.861 -3.81,-41.502 -20.98,-46.102 -15.322,-4.1056 -31.677,5.9249 -38.989,22.961 -6.2917,-14.637 -19.171,-24.102 -32.416,-23.862 z"
                         style="fill:#ffffff;stroke:#000000;stroke-width:2.8346"
                         inkscape:connector-curvature="0" />
                      <ellipse
                         id="path8360"
                         style="fill:#000000;stroke:#000000;stroke-width:0.71455;stroke-linecap:round;stroke-linejoin:round"
                         transform="matrix(0.87674,0,0,1.1219,106.1,405.69)"
                         cx="73.214287"
                         cy="660.50055"
                         rx="19.642857"
                         ry="21.428572" />
                      <ellipse
                         id="path8362"
                         style="fill:#000000;stroke:#000000;stroke-width:0.71455;stroke-linecap:round;stroke-linejoin:round"
                         transform="matrix(0.87674,0,0,1.1219,149.59,405.69)"
                         cx="73.214287"
                         cy="660.50055"
                         rx="19.642857"
                         ry="21.428572" />
                    </g>
                    <path
                       id="path9025"
                       sodipodi:nodetypes="scscs"
                       style="fill:url(#linearGradient9141)"
                       inkscape:connector-curvature="0"
                       d="m 160.12,640.13 c -5.008,3.7382 -9.6901,21.004 -9.3928,21.302 12.079,59.285 34.224,30.994 38.555,3.7927 2.7836,-17.48 -3.7161,-34.065 -18.589,-28.144 0,0 -5.8547,-0.4732 -10.574,3.0491 z" />
                    <path
                       id="path9046"
                       d="m 203.69,639.24 c -5.008,3.7382 -9.6901,21.004 -9.3928,21.302 12.079,59.285 34.224,30.994 38.555,3.7927 2.7836,-17.48 -3.7161,-34.065 -18.589,-28.144 0,0 -5.8547,-0.4732 -10.574,3.0491 z"
                       sodipodi:nodetypes="scscs"
                       style="fill:url(#linearGradient9143)"
                       inkscape:connector-curvature="0" />
                  </g>
                  <path
                     id="path9066"
                     style="fill:none;stroke:#000000;stroke-width:2.8346;filter:url(#filter9105)"
                     inkscape:connector-curvature="0"
                     d="m 271.89,-142.92 c -2.1587,0.039 -4.3369,0.3254 -6.4832,0.9005 -17.17,4.6007 -26.57,25.241 -20.98,46.102 5.5897,20.861 24.07,34.045 41.24,29.444 8.3655,-2.2416 14.89,-8.271 18.729,-16.298 3.8411,8.0079 10.287,14.06 18.639,16.298 17.17,4.6007 35.65,-8.5833 41.24,-29.444 5.5897,-20.861 -3.81,-41.502 -20.98,-46.102 -15.322,-4.1056 -31.677,5.9249 -38.989,22.961 -6.2917,-14.637 -19.171,-24.102 -32.416,-23.862 z" />
                </g>
              </g>
            </g>
          </g>
        </g>
        <path
           id="imagebot_72-7"
           d="m -154.40129,152.21269 c 4.28916,-11.53371 14.52827,0.81881 17.46409,-1.35112 3.04271,-2.24895 0.52916,-8.46666 1.5875,-9.92187 1.05833,-1.45521 5.98249,8.74659 3.96875,12.56771 -1.9717,3.74147 -10.32246,3.42265 -15.79351,3.38481 -3.08875,-0.0201 -7.88167,-2.67626 -7.22683,-4.67942 z"
           fill="#502d16"
           stroke-width="1.05833"
           stroke="#000000"
           fill-rule="evenodd" />
        <path
           id="imagebot_50-5"
           d="m -200.06863,152.21269 c -4.28916,-11.53371 -14.52827,0.81881 -17.46409,-1.35112 -3.0427,-2.24895 -0.52916,-8.46666 -1.5875,-9.92187 -1.05833,-1.45521 -5.98249,8.74659 -3.96874,12.56771 1.9717,3.74147 10.32245,3.42265 15.7935,3.38481 3.08875,-0.0201 7.88168,-2.67626 7.22683,-4.67942 z"
           fill="#502d16"
           stroke-width="1.05833"
           stroke="#000000"
           fill-rule="evenodd" />
      </g>
      <g
         id="g5313-2"
         transform="matrix(1.0960982,0,0,0.69810312,-535.35674,-300.13368)"
         style="fill:#ffffff">
        <path
           id="path5281-7-9"
           filter="url(#filter5309)"
           d="m 329.41,604.66 c -7.1203,0 -13.56,0.79778 -18.406,2.125 -2.423,0.66361 -4.4617,1.4322 -6.0625,2.4688 -1.6008,1.0366 -3.0625,2.5457 -3.0625,4.6562 0,2.1105 1.4617,3.6197 3.0625,4.6562 1.6008,1.0366 3.6396,1.8051 6.0625,2.4688 4.8459,1.3272 11.286,2.125 18.406,2.125 7.1203,0 13.56,-0.79778 18.406,-2.125 2.423,-0.66361 4.4305,-1.4322 6.0312,-2.4688 1.6008,-1.0366 3.0625,-2.5457 3.0625,-4.6562 0,-2.1105 -1.4617,-3.6197 -3.0625,-4.6562 -1.6008,-1.0366 -3.6083,-1.8051 -6.0312,-2.4688 -4.8459,-1.3272 -11.286,-2.125 -18.406,-2.125 z m 0,4.7188 c 6.7725,0 12.898,0.77117 17.156,1.9375 2.1292,0.58317 3.7737,1.263 4.7188,1.875 0.94506,0.61196 0.90625,0.92677 0.90625,0.71875 0,-0.20802 0.0388,0.10679 -0.90625,0.71875 -0.94506,0.61196 -2.5895,1.2918 -4.7188,1.875 -4.2585,1.1663 -10.384,1.9375 -17.156,1.9375 -6.7725,0 -12.929,-0.77117 -17.188,-1.9375 -2.1292,-0.58317 -3.7737,-1.263 -4.7188,-1.875 -0.94506,-0.61196 -0.90625,-0.92677 -0.90625,-0.71875 0,0.20802 -0.0388,-0.10679 0.90625,-0.71875 0.94506,-0.61196 2.5895,-1.2918 4.7188,-1.875 4.2585,-1.1663 10.415,-1.9375 17.188,-1.9375 z"
           style="color:#000000;text-indent:0;text-transform:none;filter:url(#filter5309-5-6)"
           fill="#f2e883" />
        <path
           id="path5281-1"
           stroke-linejoin="round"
           style="color:#000000;text-indent:0;text-transform:none"
           d="m 328.77,605.22 c -7.1203,0 -13.56,0.79778 -18.406,2.125 -2.423,0.66361 -4.4617,1.4322 -6.0625,2.4688 -1.6008,1.0366 -3.0625,2.5457 -3.0625,4.6562 0,2.1105 1.4617,3.6197 3.0625,4.6562 1.6008,1.0366 3.6396,1.8051 6.0625,2.4688 4.8459,1.3272 11.286,2.125 18.406,2.125 7.1203,0 13.56,-0.79778 18.406,-2.125 2.423,-0.66361 4.4305,-1.4322 6.0312,-2.4688 1.6008,-1.0366 3.0625,-2.5457 3.0625,-4.6562 0,-2.1105 -1.4617,-3.6197 -3.0625,-4.6562 -1.6008,-1.0366 -3.6083,-1.8051 -6.0312,-2.4688 -4.8459,-1.3272 -11.286,-2.125 -18.406,-2.125 z m 0,4.7188 c 6.7725,0 12.898,0.77117 17.156,1.9375 2.1292,0.58317 3.7737,1.263 4.7188,1.875 0.94506,0.61196 0.90625,0.92677 0.90625,0.71875 0,-0.20802 0.0388,0.10679 -0.90625,0.71875 -0.94506,0.61196 -2.5895,1.2918 -4.7188,1.875 -4.2585,1.1663 -10.384,1.9375 -17.156,1.9375 -6.7725,0 -12.929,-0.77117 -17.188,-1.9375 -2.1292,-0.58317 -3.7737,-1.263 -4.7188,-1.875 -0.94506,-0.61196 -0.90625,-0.92677 -0.90625,-0.71875 0,0.20802 -0.0388,-0.10679 0.90625,-0.71875 0.94506,-0.61196 2.5895,-1.2918 4.7188,-1.875 4.2585,-1.1663 10.415,-1.9375 17.188,-1.9375 z"
           stroke="#6d661a"
           stroke-linecap="round"
           stroke-width="1.5"
           fill="#ebdb3d" />
      </g>
      <ellipse
         ry="3.4447508"
         rx="35.40765"
         cy="255.0882"
         cx="-174.30698"
         id="path2636"
         style="opacity:0.42906;fill:#000000;fill-opacity:1;stroke:none;stroke-width:1.165;stroke-opacity:1;filter:url(#filter2646)" />
    </g>
    <g
       id="layer1-5"
       transform="matrix(0.1402222,0,0,0.17244819,94.037382,146.10868)">
      <path
         style="fill:url(#linearGradient3436)"
         id="path12952"
         stroke="#720000"
         stroke-width="2.6996"
         fill="url(#linearGradient3436)"
         d="m 54.474,56.249 c -9.817,95.451 103.84,141.66 183.79,183.58 87.83,-48.25 200.17,-79.76 183.7,-183.58 -14.53,-91.605 -157.24,-85.902 -183.78,-30.835 -40.32,-56.291 -175.12,-51.936 -183.71,30.834 z" />
      <path
         id="path3416"
         opacity="0.76617"
         d="m 83.38,76.903 c -6.443,62.637 81.23,106.05 133.69,133.56 -14.67,-59.8 -80.06,-39.94 -88.71,-108.38 C 122.3,54.118 190.24,55.256 204.94,56.671 182.82,19.729 89.01,22.587 83.38,76.906 Z"
         transform="matrix(1.2883,0,0,1.3145,-40.199,-43.543)"
         filter="url(#filter3426)"
         fill="#9e0000" />
      <path
         id="path3438"
         opacity="0.61692"
         d="m 309.04,99.677 c 0,12.699 -10.306,23.005 -23.005,23.005 -12.699,0 -23.005,-10.306 -23.005,-23.005 0,-12.699 10.306,-23.005 23.005,-23.005 12.699,0 23.005,10.306 23.005,23.005 z"
         transform="matrix(1.5238,0,0,1.5238,-79.698,-113.14)"
         filter="url(#filter3440)"
         fill="#ffffff" />
    </g>
  </g>
  <style
     type="text/css"
     id="style859">/* Specular Highlighting */
		.low-specularity	{opacity:0.25;}
		.specularity		{opacity:0.5;}
		.high-specularity	{opacity:0.75;}
		.full-specularity	{opacity:1;}
	/* Shading */
		.low-shade	{opacity:0.25;}
		.shade		{opacity:0.5;}
		.high-shade	{opacity:0.75;}
		.full-shade	{opacity:1;}
	/* Tango palette fill/stroke */
		.black		{fill:#000;}
		.aluminium1	{fill:#eeeeec;}
		.aluminium2	{fill:#d3d7cf;}
		.aluminium6	{fill:#2e3436;}
		.chocolate3	{fill:#8f5902;}
		.chocolate2	{fill:#c17d11;}
		.aluminium4	{fill:#888a85;}
	/* Shadows: Back-Shadows &amp; Base Shadows */
		.base-shadow	{opacity:0.4;}
		.outline-big	{stroke:black;stroke-width:8;opacity:0.25;stroke-linejoin:round;}
		.outline-small	{stroke:black;stroke-width:4;opacity:0.5;stroke-linejoin:round;}
		.stroke-highlight	{fill:none;stroke:white;stroke-opacity:0.2;stroke-width:4;stroke-linejoin:round;}</style>
</svg>
