<?xml version="1.0" encoding="UTF-8" standalone="no"?>
<svg
   xmlns:dc="http://purl.org/dc/elements/1.1/"
   xmlns:cc="http://creativecommons.org/ns#"
   xmlns:rdf="http://www.w3.org/1999/02/22-rdf-syntax-ns#"
   xmlns:svg="http://www.w3.org/2000/svg"
   xmlns="http://www.w3.org/2000/svg"
   xmlns:xlink="http://www.w3.org/1999/xlink"
   xmlns:sodipodi="http://sodipodi.sourceforge.net/DTD/sodipodi-0.dtd"
   xmlns:inkscape="http://www.inkscape.org/namespaces/inkscape"
   version="1.1"
   id="Layer_1"
   x="0px"
   y="0px"
   width="1367.9816"
   height="962.9646"
   viewBox="0 0 1367.9816 962.9646"
   xml:space="preserve"
   sodipodi:docname="proprietary-codecompletion-vs-gnu-ghost.svg"
   inkscape:version="1.0.2 (e86c8708, 2021-01-15)"
   inkscape:export-filename="/Users/mindaslab/Projects/gnu_ghost/design/proprietary-codecompletion-vs-gnu-ghost.png"
   inkscape:export-xdpi="299.93143"
   inkscape:export-ydpi="299.93143"><metadata
   id="metadata1175"><rdf:RDF><cc:Work
       rdf:about=""><dc:format>image/svg+xml</dc:format><dc:type
         rdf:resource="http://purl.org/dc/dcmitype/StillImage" /><dc:title></dc:title></cc:Work></rdf:RDF></metadata><defs
   id="defs1173"><linearGradient
     id="linearGradient6713"
     y2="778.71002"
     gradientUnits="userSpaceOnUse"
     x2="318.51999"
     y1="838.28998"
     x1="317.16"><stop
       id="stop6416"
       stop-color="#cff2ff"
       offset="0" /><stop
       id="stop6418"
       stop-color="#fff"
       offset="1" /></linearGradient><linearGradient
     id="linearGradient6783"
     y2="762.59998"
     gradientUnits="userSpaceOnUse"
     x2="320.32001"
     y1="799.96002"
     x1="316.03"><stop
       id="stop6416-7"
       stop-color="#cff2ff"
       offset="0" /><stop
       id="stop6418-0"
       stop-color="#fff"
       offset="1" /></linearGradient><filter
     id="filter5309"
     height="1.7816"
     width="1.2628"
     y="-0.39082"
     x="-0.13138001"
     color-interpolation-filters="sRGB"><feGaussianBlur
       id="feGaussianBlur5311"
       stdDeviation="3.0125679" /></filter><radialGradient
     id="radialGradient3702"
     gradientUnits="userSpaceOnUse"
     cy="519.23999"
     cx="515.85999"
     gradientTransform="matrix(0.77994,3.9458,-1.9194,0.3794,1155.7,-1723)"
     r="76.268997"><stop
       id="stop6549-7"
       stop-opacity="0"
       offset="0" /><stop
       id="stop6551-9"
       stop-opacity="0"
       offset=".5" /><stop
       id="stop6553-0"
       stop-color="#67afcd"
       stop-opacity=".44746"
       offset="1" /></radialGradient><linearGradient
     id="linearGradient3704"
     y2="388.14001"
     gradientUnits="userSpaceOnUse"
     x2="499.79999"
     gradientTransform="translate(54)"
     y1="504.5"
     x1="500.98999"><stop
       id="stop3461-6-8"
       stop-color="#fff"
       stop-opacity=".4339"
       offset="0" /><stop
       id="stop3465-4-3"
       stop-color="#40aeff"
       stop-opacity=".37966"
       offset="1" /></linearGradient><filter
     id="filter3485-5-0"
     width="1.2315"
     y="-0.12456"
     x="-0.11576"
     height="1.2491"
     color-interpolation-filters="sRGB"><feGaussianBlur
       id="feGaussianBlur3487-7-4"
       stdDeviation="6.0922004" /></filter><radialGradient
     id="radialGradient3706"
     gradientUnits="userSpaceOnUse"
     cy="542.71002"
     cx="453.75"
     gradientTransform="matrix(2.1031,-0.75707,0.3519,0.97755,-636.75,356.49)"
     r="77.982002"><stop
       id="stop4676"
       stop-opacity="0"
       offset="0" /><stop
       id="stop3400"
       stop-opacity="0"
       offset=".5" /><stop
       id="stop4678"
       stop-opacity=".37069"
       offset="1" /></radialGradient><filter
     id="filter3485-5"
     width="1.2315"
     y="-0.12456"
     x="-0.11576"
     height="1.2491"
     color-interpolation-filters="sRGB"><feGaussianBlur
       id="feGaussianBlur3487-7"
       stdDeviation="6.0922004" /></filter><radialGradient
     id="radialGradient3720"
     gradientUnits="userSpaceOnUse"
     cy="716.19"
     cx="189.48"
     gradientTransform="matrix(-1.3653,0.49546,-0.90594,-2.4964,1097.5,2408.3)"
     r="13.047"><stop
       id="stop4484"
       stop-color="#fff"
       offset="0" /><stop
       id="stop4490"
       stop-color="#ecb732"
       offset=".33002" /><stop
       id="stop4486"
       stop-color="#d5b214"
       offset="1" /></radialGradient><radialGradient
     id="radialGradient3722"
     gradientUnits="userSpaceOnUse"
     cy="729.08002"
     cx="166.73"
     gradientTransform="matrix(0.96082,0.063654,-0.051551,1.1205,44.117,-98.473)"
     r="0.1797"><stop
       id="stop4762"
       offset="0" /><stop
       id="stop4764"
       stop-opacity=".15593"
       offset="1" /></radialGradient><linearGradient
     id="linearGradient3736"
     y2="670.87"
     gradientUnits="userSpaceOnUse"
     x2="188.53"
     y1="670.82001"
     x1="187.5"><stop
       id="stop4494-3-4"
       stop-color="#bcab00"
       offset="0" /><stop
       id="stop4496-8-6"
       stop-color="#fff"
       offset="1" /></linearGradient><linearGradient
     id="linearGradient3738"
     y2="689.20001"
     gradientUnits="userSpaceOnUse"
     x2="181.07001"
     gradientTransform="matrix(0.99638,0.084967,-0.084967,0.99638,65.126,-12.746)"
     y1="689.25"
     x1="179.74001"><stop
       id="stop4494-3-7"
       stop-color="#bcab00"
       offset="0" /><stop
       id="stop4496-8-7"
       stop-color="#fff"
       offset="1" /></linearGradient><linearGradient
     id="linearGradient3740"
     y2="688.31"
     gradientUnits="userSpaceOnUse"
     x2="192.23"
     gradientTransform="matrix(0.9978,-0.066347,0.066347,0.9978,-46.794,14.239)"
     y1="688.17999"
     x1="190.92"><stop
       id="stop4494-3-8"
       stop-color="#bcab00"
       offset="0" /><stop
       id="stop4496-8-0"
       stop-color="#fff"
       offset="1" /></linearGradient><linearGradient
     id="linearGradient3742"
     y2="689.20001"
     gradientUnits="userSpaceOnUse"
     x2="181.07001"
     gradientTransform="matrix(0.99394,0.10995,-0.10995,0.99394,84.792,-15.712)"
     y1="689.25"
     x1="179.74001"><stop
       id="stop4494-3-7-9"
       stop-color="#bcab00"
       offset="0" /><stop
       id="stop4496-8-7-8"
       stop-color="#fff"
       offset="1" /></linearGradient><linearGradient
     id="linearGradient3744"
     y2="670.71997"
     gradientUnits="userSpaceOnUse"
     x2="185.97"
     y1="670.64001"
     x1="184.87"><stop
       id="stop4494-3-3"
       stop-color="#bcab00"
       offset="0" /><stop
       id="stop4496-8-65"
       stop-color="#fff"
       offset="1" /></linearGradient><linearGradient
     id="linearGradient3746"
     y2="689.20001"
     gradientUnits="userSpaceOnUse"
     x2="181.07001"
     gradientTransform="rotate(3.3905069,182.1195,752.35946)"
     y1="689.25"
     x1="179.74001"><stop
       id="stop4494-3-7-5"
       stop-color="#bcab00"
       offset="0" /><stop
       id="stop4496-8-7-2"
       stop-color="#fff"
       offset="1" /></linearGradient><linearGradient
     id="linearGradient3748"
     y2="671.02002"
     xlink:href="#linearGradient4492-2"
     gradientUnits="userSpaceOnUse"
     x2="177.62"
     y1="671.03003"
     x1="176.46001" /><linearGradient
     id="linearGradient4492-2"><stop
       id="stop4494-3"
       stop-color="#bcab00"
       offset="0" /><stop
       id="stop4496-8"
       stop-color="#fff"
       offset="1" /></linearGradient><linearGradient
     id="linearGradient3750"
     y2="670.53998"
     xlink:href="#linearGradient4492-2"
     gradientUnits="userSpaceOnUse"
     x2="180.67999"
     y1="670.42999"
     x1="179.00999" /><linearGradient
     id="linearGradient3752"
     y2="670.76001"
     gradientUnits="userSpaceOnUse"
     x2="183.69"
     y1="670.65997"
     x1="181.98"><stop
       id="stop4494-3-0"
       stop-color="#bcab00"
       offset="0" /><stop
       id="stop4496-8-78"
       stop-color="#fff"
       offset="1" /></linearGradient><linearGradient
     id="linearGradient3754"
     y2="688.31"
     xlink:href="#linearGradient4492-2"
     gradientUnits="userSpaceOnUse"
     x2="192.23"
     y1="688.17999"
     x1="190.92" /><linearGradient
     id="linearGradient3756"
     y2="689.02002"
     xlink:href="#linearGradient4492-2"
     gradientUnits="userSpaceOnUse"
     x2="179.08"
     y1="689.15997"
     x1="177.14999" /><linearGradient
     id="linearGradient3758"
     y2="689.20001"
     xlink:href="#linearGradient4492-2"
     gradientUnits="userSpaceOnUse"
     x2="181.07001"
     y1="689.25"
     x1="179.74001" /><linearGradient
     id="linearGradient3760"
     y2="688.73999"
     xlink:href="#linearGradient4492-2"
     gradientUnits="userSpaceOnUse"
     x2="184.09"
     y1="688.73999"
     x1="182.03999" /><linearGradient
     id="linearGradient9035"
     inkscape:collect="always"><stop
       id="stop9037"
       style="stop-color:#ffffff"
       offset="0" /><stop
       id="stop9039"
       style="stop-color:#ffffff;stop-opacity:0"
       offset="1" /></linearGradient><linearGradient
     id="linearGradient8603"
     inkscape:collect="always"><stop
       id="stop8605"
       style="stop-color:#000000"
       offset="0" /><stop
       id="stop8607"
       style="stop-color:#000000;stop-opacity:0"
       offset="1" /></linearGradient><style
     id="style3168"
     type="text/css">@font-face { font-family:&quot;Gigi&quot;;src:url(&quot;#FontID0&quot;) format(svg)}
    .str0 {stroke:#1F1A17;stroke-width:0.0762}
    .str2 {stroke:black;stroke-width:0.0762}
    .str3 {stroke:#1F1A17;stroke-width:0.1763}
    .str6 {stroke:#1F1A17;stroke-width:0.1763;stroke-linecap:round;stroke-linejoin:round}
    .str5 {stroke:black;stroke-width:0.1763}
    .str4 {stroke:black;stroke-width:0.1763;stroke-linecap:round;stroke-linejoin:round}
    .str1 {stroke:#0093DD;stroke-width:0.3527}
    .fil1 {fill:none}
    .fil2 {fill:none;fill-rule:nonzero}
    .fil13 {fill:#00923F}
    .fil3 {fill:#0093DD}
    .fil5 {fill:#1F1A17}
    .fil21 {fill:#DA251D}
    .fil4 {fill:white}
    .fil22 {fill:#79C6F1}
    .fil14 {fill:black}
    .fil7 {fill:#020202}
    .fil9 {fill:#090909}
    .fil18 {fill:#33CC33}
    .fil20 {fill:#663300}
    .fil12 {fill:#848489}
    .fil19 {fill:#996633}
    .fil10 {fill:#A6A6AD}
    .fil11 {fill:#BBBBC2}
    .fil6 {fill:#E5E5E8}
    .fil8 {fill:#FDFDFD}
    .fil16 {fill:red}
    .fil17 {fill:#FF99CC}
    .fil15 {fill:white}
    .fil0 {fill:#E7E09D}
    .fnt0 {font-weight:normal;font-size:8.1876;font-family:'Gigi'}</style><linearGradient
     id="linearGradient8609"
     y2="353.82999"
     xlink:href="#linearGradient8603"
     gradientUnits="userSpaceOnUse"
     x2="365.10999"
     y1="380.45001"
     x1="206.64999"
     inkscape:collect="always" /><linearGradient
     id="linearGradient8632"
     y2="354.54001"
     xlink:href="#linearGradient8603"
     gradientUnits="userSpaceOnUse"
     x2="380.82999"
     gradientTransform="translate(75.256,496.04)"
     y1="355.81"
     x1="284.85999"
     inkscape:collect="always" /><linearGradient
     id="linearGradient8640"
     y2="846.03003"
     gradientUnits="userSpaceOnUse"
     x2="195.73"
     gradientTransform="translate(62.143,-1.4286)"
     y1="840.46997"
     x1="61.957001"
     inkscape:collect="always"><stop
       id="stop8636"
       style="stop-color:#000000;stop-opacity:.71910"
       offset="0" /><stop
       id="stop8638"
       style="stop-color:#000000;stop-opacity:0"
       offset="1" /></linearGradient><filter
     id="filter8688"
     height="1.2515"
     width="1.0372"
     y="-0.12574001"
     x="-0.018595999"
     inkscape:collect="always"
     style="color-interpolation-filters:sRGB"><feGaussianBlur
       id="feGaussianBlur8690"
       stdDeviation="2.5347217"
       inkscape:collect="always" /></filter><linearGradient
     id="linearGradient8698"
     y2="708.47998"
     gradientUnits="userSpaceOnUse"
     x2="220.13"
     y1="598.88"
     x1="183.74001"
     inkscape:collect="always"><stop
       id="stop8694"
       style="stop-color:#ffffff"
       offset="0" /><stop
       id="stop8696"
       style="stop-color:#ffffff;stop-opacity:0"
       offset="1" /></linearGradient><filter
     id="filter8768"
     inkscape:collect="always"
     style="color-interpolation-filters:sRGB"><feGaussianBlur
       id="feGaussianBlur8770"
       stdDeviation="5.2797312"
       inkscape:collect="always" /></filter><linearGradient
     id="linearGradient8782"
     y2="268.85999"
     gradientUnits="userSpaceOnUse"
     x2="211"
     y1="497.98999"
     x1="46.355"
     inkscape:collect="always"><stop
       id="stop8778"
       style="stop-color:#ffffff"
       offset="0" /><stop
       id="stop8780"
       style="stop-color:#ffffff;stop-opacity:0"
       offset="1" /></linearGradient><filter
     id="filter9105"
     inkscape:collect="always"
     style="color-interpolation-filters:sRGB"><feGaussianBlur
       id="feGaussianBlur9107"
       stdDeviation="1.0022768"
       inkscape:collect="always" /></filter><linearGradient
     id="linearGradient9141"
     y2="667.19"
     xlink:href="#linearGradient9035"
     gradientUnits="userSpaceOnUse"
     x2="181.45"
     gradientTransform="translate(-5.8443,-9.0152)"
     y1="613.02002"
     x1="139.02"
     inkscape:collect="always" /><linearGradient
     id="linearGradient9143"
     y2="667.19"
     xlink:href="#linearGradient9035"
     gradientUnits="userSpaceOnUse"
     x2="181.45"
     gradientTransform="translate(37.727,-9.9081)"
     y1="613.02002"
     x1="139.02"
     inkscape:collect="always" /><filter
     id="filter4697"
     inkscape:collect="always"><feGaussianBlur
       id="feGaussianBlur4699"
       stdDeviation="7.0393284"
       inkscape:collect="always" /></filter><filter
     color-interpolation-filters="sRGB"
     x="-0.13138001"
     y="-0.39082"
     width="1.2628"
     height="1.7816"
     id="filter5309-5"><feGaussianBlur
       stdDeviation="3.0125679"
       id="feGaussianBlur5311-6" /></filter><filter
     height="1.6636728"
     y="-0.3318364"
     width="1.0645676"
     x="-0.032283805"
     id="filter2646"
     style="color-interpolation-filters:sRGB"
     inkscape:collect="always"><feGaussianBlur
       id="feGaussianBlur2648"
       stdDeviation="0.95257811"
       inkscape:collect="always" /></filter><linearGradient
     id="linearGradient4192"><stop
       id="stop4194"
       style="stop-color:#dadada"
       offset="0" /><stop
       id="stop4196"
       style="stop-color:#3c3c3c"
       offset=".27078" /><stop
       id="stop4198"
       style="stop-color:#262626"
       offset="1" /></linearGradient><linearGradient
     id="linearGradient3986"
     inkscape:collect="always"><stop
       id="stop3988"
       style="stop-color:#523303"
       offset="0" /><stop
       id="stop3990"
       style="stop-color:#523303;stop-opacity:0"
       offset="1" /></linearGradient><filter
     id="filter3904"
     inkscape:collect="always"
     color-interpolation-filters="sRGB"><feGaussianBlur
       id="feGaussianBlur3906"
       stdDeviation="0.26505348"
       inkscape:collect="always" /></filter><filter
     id="filter3980"
     inkscape:collect="always"
     color-interpolation-filters="sRGB"><feGaussianBlur
       id="feGaussianBlur3982"
       stdDeviation="0.49142205"
       inkscape:collect="always" /></filter><filter
     id="filter4018"
     height="1.1526"
     width="1.2129"
     color-interpolation-filters="sRGB"
     y="-0.076310001"
     x="-0.10643"
     inkscape:collect="always"><feGaussianBlur
       id="feGaussianBlur4020"
       stdDeviation="1.5831594"
       inkscape:collect="always" /></filter><filter
     id="filter3904-3"
     inkscape:menu="Shadows and Glows"
     height="1.5"
     y="-0.25"
     inkscape:menu-tooltip="Darkens the edge with an inner blur and adds a flexible glow"
     inkscape:label="Dark and Glow"
     color-interpolation-filters="sRGB"
     inkscape:collect="always"><feGaussianBlur
       id="feGaussianBlur3906-5"
       stdDeviation="0.26505348"
       inkscape:collect="always"
       result="fbSourceGraphic" /><feColorMatrix
       id="feColorMatrix4133"
       values="0 0 0 -1 0 0 0 0 -1 0 0 0 0 -1 0 0 0 0 1 0"
       result="fbSourceGraphicAlpha"
       in="fbSourceGraphic" /><feGaussianBlur
       id="feGaussianBlur4135"
       in="fbSourceGraphic"
       stdDeviation="5"
       result="result6" /><feComposite
       id="feComposite4137"
       operator="atop"
       in="fbSourceGraphic"
       in2="result6"
       result="result8" /><feComposite
       id="feComposite4139"
       operator="over"
       in="result8"
       in2="fbSourceGraphicAlpha"
       result="result9" /><feColorMatrix
       id="feColorMatrix4141"
       values="1 0 0 0 0 0 1 0 0 0 0 0 1 0 0 0 0 0 1 0 "
       result="result10" /><feBlend
       id="feBlend4143"
       mode="normal"
       in2="result6"
       in="result10" /></filter><filter
     id="filter4602"
     inkscape:collect="always"
     color-interpolation-filters="sRGB"><feGaussianBlur
       id="feGaussianBlur4604"
       stdDeviation="0.60781118"
       inkscape:collect="always" /></filter><filter
     id="filter4606"
     inkscape:collect="always"
     color-interpolation-filters="sRGB"><feGaussianBlur
       id="feGaussianBlur4608"
       stdDeviation="0.45393517"
       inkscape:collect="always" /></filter><linearGradient
     id="linearGradient5357"
     y2="965.13"
     gradientUnits="userSpaceOnUse"
     x2="355.04999"
     y1="844.01001"
     x1="238.03"
     inkscape:collect="always"><stop
       id="stop3852"
       style="stop-color:#e6b874"
       offset="0" /><stop
       id="stop3854"
       style="stop-color:#824d00"
       offset="1" /></linearGradient><radialGradient
     id="radialGradient5359"
     xlink:href="#linearGradient3986"
     gradientUnits="userSpaceOnUse"
     cy="110.41"
     cx="301.92001"
     gradientTransform="matrix(0.57413,-0.6963,0.73376,0.60502,-147.78,1006)"
     r="7.0858002"
     inkscape:collect="always" /><radialGradient
     id="radialGradient5361"
     gradientUnits="userSpaceOnUse"
     cy="55.616001"
     cx="365.39001"
     gradientTransform="matrix(-1.3313,-0.81916,1.136,-1.8462,612.09,1196.2)"
     r="10.614"
     inkscape:collect="always"><stop
       id="stop4067"
       style="stop-color:#8b6228"
       offset="0" /><stop
       id="stop4069"
       style="stop-color:#b47f34;stop-opacity:0"
       offset="1" /></radialGradient><radialGradient
     id="radialGradient5363"
     gradientUnits="userSpaceOnUse"
     cy="162.62"
     cx="336.59"
     gradientTransform="matrix(-1.2384,-0.11302,0.51833,-5.6794,482.51,1876.3)"
     r="21.035999"
     inkscape:collect="always"><stop
       id="stop3912"
       style="stop-color:#492500"
       offset="0" /><stop
       id="stop3914"
       style="stop-color:#854000;stop-opacity:.10748"
       offset="1" /></radialGradient><radialGradient
     id="radialGradient5365"
     xlink:href="#linearGradient3986"
     gradientUnits="userSpaceOnUse"
     cy="48.990002"
     cx="249"
     gradientTransform="matrix(-1.2696,-2.7023,0.74263,-0.3489,320.52,1474.9)"
     r="6.7536998"
     inkscape:collect="always" /><linearGradient
     id="linearGradient5367"
     y2="965.13"
     gradientUnits="userSpaceOnUse"
     x2="355.04999"
     gradientTransform="translate(0.73209,-6.88e-4)"
     y1="844.01001"
     x1="238.03"
     inkscape:collect="always"><stop
       id="stop3852-6"
       style="stop-color:#e6b874"
       offset="0" /><stop
       id="stop3854-4"
       style="stop-color:#824d00"
       offset="1" /></linearGradient><linearGradient
     id="linearGradient5369"
     y2="49.125999"
     xlink:href="#linearGradient4192"
     spreadMethod="reflect"
     gradientUnits="userSpaceOnUse"
     x2="249.58"
     gradientTransform="matrix(1.2435,0,0,1.2435,-268.88,724.09)"
     y1="60.125999"
     x1="232.53999"
     inkscape:collect="always" /><linearGradient
     id="linearGradient5371"
     y2="66.125999"
     xlink:href="#linearGradient4192"
     gradientUnits="userSpaceOnUse"
     x2="239.21001"
     gradientTransform="matrix(1.2435,0,0,1.2435,-268.88,724.09)"
     y1="60.125999"
     x1="232.53999"
     inkscape:collect="always" /><linearGradient
     id="linearGradient5373"
     y2="49.125999"
     xlink:href="#linearGradient4192"
     spreadMethod="reflect"
     gradientUnits="userSpaceOnUse"
     x2="249.58"
     gradientTransform="matrix(1.2435,0,0,1.2435,-266.39,728.9)"
     y1="60.125999"
     x1="232.53999"
     inkscape:collect="always" /><linearGradient
     id="linearGradient5375"
     y2="66.125999"
     xlink:href="#linearGradient4192"
     gradientUnits="userSpaceOnUse"
     x2="239.21001"
     gradientTransform="matrix(1.2435,0,0,1.2435,-266.39,728.9)"
     y1="60.125999"
     x1="232.53999"
     inkscape:collect="always" /><linearGradient
     id="linearGradient5377"
     y2="49.125999"
     xlink:href="#linearGradient4192"
     spreadMethod="reflect"
     gradientUnits="userSpaceOnUse"
     x2="249.58"
     gradientTransform="matrix(1.2435,0,0,1.2435,-263.59,733.26)"
     y1="60.125999"
     x1="232.53999"
     inkscape:collect="always" /><linearGradient
     id="linearGradient5379"
     y2="66.125999"
     xlink:href="#linearGradient4192"
     gradientUnits="userSpaceOnUse"
     x2="239.21001"
     gradientTransform="matrix(1.2435,0,0,1.2435,-263.59,733.26)"
     y1="60.125999"
     x1="232.53999"
     inkscape:collect="always" /><linearGradient
     id="linearGradient5381"
     y2="49.125999"
     xlink:href="#linearGradient4192"
     spreadMethod="reflect"
     gradientUnits="userSpaceOnUse"
     x2="249.58"
     gradientTransform="matrix(0.54584,1.2224,-1.2328,0.54122,109.52,476.29)"
     y1="60.125999"
     x1="232.53999"
     inkscape:collect="always" /><linearGradient
     id="linearGradient5383"
     y2="66.125999"
     xlink:href="#linearGradient4192"
     gradientUnits="userSpaceOnUse"
     x2="239.21001"
     gradientTransform="matrix(0.54584,1.2224,-1.2328,0.54122,109.52,476.29)"
     y1="60.125999"
     x1="232.53999"
     inkscape:collect="always" /><linearGradient
     id="linearGradient5385"
     y2="49.125999"
     xlink:href="#linearGradient4192"
     spreadMethod="reflect"
     gradientUnits="userSpaceOnUse"
     x2="249.58"
     gradientTransform="matrix(0.55665,1.2216,-1.2572,0.54089,106.11,481.03)"
     y1="60.125999"
     x1="232.53999"
     inkscape:collect="always" /><linearGradient
     id="linearGradient5387"
     y2="66.125999"
     xlink:href="#linearGradient4192"
     gradientUnits="userSpaceOnUse"
     x2="239.21001"
     gradientTransform="matrix(0.55665,1.2216,-1.2572,0.54089,106.11,481.03)"
     y1="60.125999"
     x1="232.53999"
     inkscape:collect="always" /><linearGradient
     id="linearGradient5389"
     y2="49.125999"
     xlink:href="#linearGradient4192"
     spreadMethod="reflect"
     gradientUnits="userSpaceOnUse"
     x2="249.58"
     gradientTransform="matrix(0.56746,1.2209,-1.2816,0.54056,102.07,485.89)"
     y1="60.125999"
     x1="232.53999"
     inkscape:collect="always" /><linearGradient
     id="linearGradient5391"
     y2="66.125999"
     xlink:href="#linearGradient4192"
     gradientUnits="userSpaceOnUse"
     x2="239.21001"
     gradientTransform="matrix(0.56746,1.2209,-1.2816,0.54056,102.07,485.89)"
     y1="60.125999"
     x1="232.53999"
     inkscape:collect="always" /><linearGradient
     id="linearGradient5393"
     y2="218.96001"
     gradientUnits="userSpaceOnUse"
     x2="127.5"
     gradientTransform="matrix(1.1337,0,0,1,141.47,762.61)"
     y1="218.96001"
     x1="70.212997"
     inkscape:collect="always"><stop
       id="stop4447-6"
       style="stop-color:#dadada"
       offset="0" /><stop
       id="stop4449-9"
       style="stop-color:#000000"
       offset=".38861" /><stop
       id="stop4451-7"
       style="stop-color:#262626"
       offset="1" /></linearGradient><linearGradient
     id="linearGradient5395"
     y2="218.96001"
     xlink:href="#linearGradient4192"
     gradientUnits="userSpaceOnUse"
     x2="127.5"
     gradientTransform="matrix(1.1337,0,0,1,141.47,762.61)"
     y1="218.96001"
     x1="70.212997"
     inkscape:collect="always" /></defs><sodipodi:namedview
   pagecolor="#ffffff"
   bordercolor="#666666"
   borderopacity="1"
   objecttolerance="10"
   gridtolerance="10"
   guidetolerance="10"
   inkscape:pageopacity="1"
   inkscape:pageshadow="2"
   inkscape:window-width="1440"
   inkscape:window-height="872"
   id="namedview1171"
   showgrid="false"
   inkscape:zoom="0.58990005"
   inkscape:cx="654.45868"
   inkscape:cy="469.48211"
   inkscape:window-x="0"
   inkscape:window-y="0"
   inkscape:window-maximized="0"
   inkscape:current-layer="XMLID_1_"
   inkscape:document-rotation="0"
   fit-margin-left="20"
   fit-margin-top="20"
   fit-margin-right="20"
   fit-margin-bottom="20" />
<style
   type="text/css"
   id="style833">
	.st0{clip-path:url(#XMLID_61_);}
	.st1{fill:url(#XMLID_63_);}
	.st2{fill:#FCFCF0;}
	.st3{fill:#C2DFDD;}
	.st4{fill:url(#XMLID_68_);}
	.st5{fill:url(#XMLID_71_);}
	.st6{fill:#D8E5F9;}
	.st7{fill:#C1D0E8;}
	.st8{fill:#83A2D1;}
	.st9{fill:#7D8AB5;}
	.st10{fill:#616DA9;}
	.st11{fill:#BBC6EA;}
	.st12{fill:#EBBCAA;}
	.st13{fill:url(#XMLID_311_);}
	.st14{fill:url(#XMLID_324_);}
	.st15{fill:url(#XMLID_330_);}
	.st16{fill:url(#XMLID_331_);}
	.st17{fill:url(#XMLID_335_);}
	.st18{opacity:0.5;fill:#592E5B;}
	.st19{fill:#F4DED7;}
	.st20{fill:#7C3618;}
	.st21{fill:#F7B794;}
	.st22{fill:#B42F4A;}
	.st23{fill:#FFFFFF;}
	.st24{fill:#E5E0E4;}
	.st25{fill:#C97D5D;}
	.st26{fill:#004952;}
	.st27{fill:#EFA135;}
	.st28{fill:#D87B27;}
	.st29{fill:#30A1A7;}
	.st30{fill:#D85F4E;}
	.st31{fill:#F8905B;}
	.st32{fill:#FCBF90;}
	.st33{fill:#81D8C7;}
	.st34{fill:url(#XMLID_337_);}
	.st35{fill:#B26E49;}
	.st36{fill:#BA2E49;}
	.st37{fill:#120C00;}
	.st38{fill:#CE4968;}
	.st39{fill:#5269AD;}
	.st40{fill:#A74E40;}
	.st41{fill:url(#XMLID_340_);}
	.st42{fill:url(#XMLID_341_);}
	.st43{fill:url(#XMLID_342_);}
	.st44{fill:url(#XMLID_343_);}
	.st45{fill:#151E3C;}
	.st46{fill:url(#XMLID_344_);}
	.st47{fill:#D34668;}
</style>
<g
   id="XMLID_59_"
   transform="translate(-33.3,-22.3079)">
	<defs
   id="defs836">
		<rect
   id="XMLID_56_"
   width="1400"
   height="980"
   x="0"
   y="0" />
	</defs>
	<clipPath
   id="XMLID_61_">
		<use
   xlink:href="#XMLID_56_"
   style="overflow:visible"
   id="use838"
   x="0"
   y="0"
   width="100%"
   height="100%" />
	</clipPath>
	<g
   id="XMLID_3_"
   class="st0"
   clip-path="url(#XMLID_61_)">
		<linearGradient
   id="XMLID_63_"
   gradientUnits="userSpaceOnUse"
   x1="700"
   y1="9.7711"
   x2="700"
   y2="544.84332">
			<stop
   offset="0"
   style="stop-color:#97B6E2"
   id="stop841" />
			<stop
   offset="0.4093"
   style="stop-color:#9AB8E3"
   id="stop843" />
			<stop
   offset="0.6572"
   style="stop-color:#A2C0E8"
   id="stop845" />
			<stop
   offset="0.8614"
   style="stop-color:#B0CDEF"
   id="stop847" />
			<stop
   offset="1"
   style="stop-color:#BFDAF7"
   id="stop849" />
		</linearGradient>
		
		<g
   id="XMLID_272_">
			
			
		</g>
		
		
		
		<g
   id="XMLID_13_">
			<g
   id="XMLID_10_">
				<g
   id="XMLID_623_">
					<path
   id="XMLID_587_"
   class="st20"
   d="m 705.2,604.5 c 19.1,8.7 38.8,17.6 59.7,18.1 7.5,0.2 15.4,-0.9 21.2,-5.7 0.8,-0.6 1.6,-1.5 1.5,-2.5 -0.1,-1.4 -1.8,-2.2 -3.2,-2.5 -10.3,-2.4 -21.1,-2.5 -31.4,-5 -11,-2.7 -21.2,-8.2 -32,-11.5 -4.5,-1.3 -17,-5.7 -21.7,-3.1 -6.9,4.1 1.3,10.1 5.9,12.2 z" />
					<path
   id="XMLID_584_"
   class="st20"
   d="m 659.7,875 c 4.4,3.1 8.8,6.2 13.2,9.3 5,3.5 10,7 15.6,9.3 15.2,6.1 32.6,2.3 47.5,-4.5 3.5,-1.6 7.3,-3.8 7.9,-7.6 0.5,-3.4 -2.1,-6.7 -5.2,-8.2 -3.1,-1.5 -6.7,-1.6 -10.2,-1.8 -19.3,-1 -38.3,-5.2 -56.2,-12.3 -5.6,-2.2 -16.2,-10.1 -21.7,-4.3 -6.9,7.3 3.8,16.4 9.1,20.1 z" />
					<path
   id="XMLID_540_"
   class="st21"
   d="m 332.5,289.9 c 39.7,-32.9 85.9,-58.1 135.1,-73.6 0.6,-3.4 2.4,-6.9 4.7,-9.5 4.5,-5 8.9,-10 13.4,-15 3.2,-3.5 6.7,-7.3 11.4,-8 -0.3,7.1 -11,10.5 -10.8,17.6 7.1,-9.3 17.4,-15.7 28.6,-19.1 0.9,-0.3 2,-0.5 2.8,0.1 0.9,0.7 0.8,2.1 0.1,3 -0.7,0.9 -1.7,1.4 -2.8,1.8 -7.8,3.6 -14.8,8.9 -20.2,15.5 7.5,-4.7 15.1,-9.5 23.4,-12.3 2.6,-0.9 6.5,-0.9 7,1.8 0.2,1.1 -0.3,2.2 -1.1,3 -1.9,2.2 -5,2.9 -7.8,3.8 -5.4,1.7 -10.4,4.6 -14.6,8.5 8.1,-1.7 16.4,-2.7 24.8,-3 1.4,0 3,0 4.1,0.9 2.1,1.7 0.8,5.4 -1.6,6.6 -2.4,1.2 -5.3,0.7 -8,0.2 -3.8,-0.7 -7.7,-1.3 -11.5,-0.7 -3.8,0.6 -7.6,2.6 -9.4,6 3.8,4.6 8.7,8.4 14,11.1 2.7,1.3 6,3.2 5.6,6.2 -0.3,2.7 -3.9,4 -6.5,3.3 -2.7,-0.7 -4.8,-2.6 -7.3,-3.8 -10.5,-5.1 -24.6,2.9 -34,-3.9 -39.1,19.5 -74.6,46 -102.7,79.4 -1.3,1.6 -2.7,3.2 -4.6,4 -1.4,0.6 -2.9,0.7 -4.5,0.7 -13.1,-0.2 -25.2,-11.6 -27.6,-24.6 z" />
					<g
   id="XMLID_1_">
						<g
   id="XMLID_284_">
							<path
   id="XMLID_285_"
   class="st20"
   d="m 585.6,708.8 c -2.3,-0.4 -4.2,-2.2 -4.8,-4.6 L 450.6,128.7 c -0.7,-3.3 1.3,-6.6 4.6,-7.3 3.3,-0.7 6.6,1.3 7.3,4.6 l 130.2,575.5 c 0.7,3.3 -1.3,6.6 -4.6,7.3 -0.9,0.2 -1.7,0.2 -2.5,0 z" />
						</g>
						<path
   id="XMLID_281_"
   class="st22"
   d="m 437.8,160.6 c 0.9,19.4 11,38.7 5.7,57.4 2.9,0.4 5.3,-2 7,-4.3 13.5,-17.8 17.3,-42.5 9.7,-63.4 -1.8,-5.1 -4.3,-10 -5.6,-15.3 -1.6,-6.5 0.3,-10.9 1.9,-16.8 -14.7,-0.9 -19.1,32.6 -18.7,42.4 z" />
						<polygon
   id="XMLID_279_"
   class="st23"
   points="437.1,42.5 442,110.8 455.7,120.9 463.4,105.7 "
   style="stroke:#000000;stroke-opacity:1" />
						<path
   id="XMLID_34_"
   class="st22"
   d="m 469.2,121.3 c 2.9,2.1 4.8,5.3 6.6,8.4 6.1,10.7 12.2,21.6 20.3,30.8 -4.6,1.3 -9.4,2.7 -14,1.6 -3.2,-0.8 -6.1,-2.7 -8.8,-4.7 -4.5,-3.3 -8.7,-7 -12.6,-10.9 -3.7,-3.7 -7.2,-7.8 -9,-12.7 -1.4,-3.7 -2.5,-12 1.3,-14.9 3.6,-2.8 13,0.1 16.2,2.4 z" />
						<g
   id="XMLID_11_">
							<polygon
   id="XMLID_27_"
   class="st24"
   points="437.1,42.5 442,110.8 455.7,120.9 " />
						</g>
					<text
   xml:space="preserve"
   style="font-size:40px;line-height:1.25;font-family:Ubuntu;-inkscape-font-specification:Ubuntu"
   x="1079.844"
   y="837.42999"
   id="text1165"><tspan
     sodipodi:role="line"
     id="tspan1163"
     x="1079.844"
     y="837.42999">GNU Ghost</tspan></text><text
   xml:space="preserve"
   style="font-size:40px;line-height:1.25;font-family:Ubuntu;-inkscape-font-specification:Ubuntu"
   x="108.49296"
   y="667.90973"
   id="text1181"><tspan
     sodipodi:role="line"
     id="tspan1179"
     x="108.49296"
     y="667.90973">proprietary</tspan><tspan
     sodipodi:role="line"
     x="108.49296"
     y="717.90973"
     id="tspan1183">code</tspan><tspan
     sodipodi:role="line"
     x="108.49296"
     y="767.90973"
     id="tspan1185">completion</tspan></text><text
   xml:space="preserve"
   style="font-size:15.008px;line-height:1.25;font-family:Ubuntu;-inkscape-font-specification:Ubuntu;stroke-width:0.375201"
   x="837.71094"
   y="928.30646"
   id="text1165-3"
   transform="scale(0.96462704,1.0366701)"><tspan
     sodipodi:role="line"
     id="tspan1163-5"
     x="837.71094"
     y="928.30646"
     style="stroke-width:0.375201">Adapted from  https://www.vecteezy.com/vector-art/150967-david-and-goliath-fighting</tspan></text></g>
					<path
   id="XMLID_672_"
   class="st25"
   d="m 332.5,289.9 c 2.4,12.9 14.5,24.3 27.6,24.6 1.5,0 3.1,-0.1 4.5,-0.7 1.9,-0.8 3.3,-2.4 4.6,-4 3.5,-4.2 7.2,-8.3 11,-12.3 -8.1,-8.6 -15.3,-18 -20.9,-27.9 -9.2,6.4 -18.2,13.2 -26.8,20.3 z" />
					<path
   id="XMLID_546_"
   class="st26"
   d="m 588.3,407.2 c -2.9,17.4 0.8,35.2 6.2,52 5.4,16.8 12.4,33.1 16.2,50.3 5.5,24.4 4.3,50.3 -3.2,74.2 -3.7,11.6 -8.9,22.7 -14.5,33.6 -9.3,18 -20.3,35.9 -37.1,47.2 l -15,9.1 c 0,0 -44.7,-21.8 -18.1,-133.2 26.7,-111.4 65.5,-133.2 65.5,-133.2 z" />
					<path
   id="XMLID_544_"
   class="st21"
   d="m 784.2,615.5 c 0.6,-3.5 -1.2,-7.1 -4,-9.3 -2.8,-2.2 -6.4,-3.2 -9.9,-3.5 -2.6,-0.2 -5.2,-0.2 -7.7,-0.8 -3.3,-0.9 -6.1,-3 -8.8,-5 C 739,585.8 724.1,575.7 709.3,564.7 700.7,537 692,509.2 681.4,482.2 c -9.4,-24 -17.7,-48.7 -24.6,-73.5 -2.9,-10.3 -6.5,-20.4 -11,-30.1 -1.4,-3.1 -3.1,-6.4 -6.1,-8.1 -2,-1.2 -4.4,-1.5 -6.8,-1.7 -16.3,-1.5 -32.9,1.1 -47.9,7.5 -11.7,27.8 -15.3,61.4 -6.2,90.2 13,-9 27,-19.3 38.4,-30.3 5.5,13.9 12,27.9 19.4,40.9 18.3,32.4 47.6,58.3 61.5,92.8 3.4,8.5 -0.4,17.6 0.8,26.6 4.7,3.2 11.1,4.8 16.5,6.7 10.2,3.6 20.4,7.3 30.5,10.9 5,1.8 10.1,3.6 15.3,4.5 7.6,1.2 15.7,-0.6 23,-3.1 z" />
					<path
   id="XMLID_547_"
   class="st21"
   d="m 740,879.7 c -3.8,-6.2 -8.2,-12.9 -15.3,-14.7 -3.6,-0.9 -7.5,-0.4 -11.2,-0.7 -11.2,-1 -20,-9.5 -28.7,-16.6 -8.3,-6.8 -16.9,-13.3 -26.4,-18.2 -15.3,-43.8 -22.4,-90.9 -36.7,-135.1 -9.4,-29.1 -10.9,-60.8 -24.8,-88 -3.9,-7.7 -8.8,-14.9 -13.6,-22.1 -8,-11.9 -16.1,-23.8 -24.1,-35.7 -25.8,21.8 -36.2,59.5 -24.7,91.3 6,16.6 22.7,26.2 36.9,36.7 9.4,30.7 21.2,61 38.4,88.1 13.8,21.8 30.2,42.4 39,66.6 3.5,9.7 0,19.3 4.9,28.4 8.9,5 18.5,12 26.3,18.6 5.6,4.8 11.3,10.2 18.5,11.6 13.2,2.5 29.7,0.3 41.5,-10.2 z" />
					<path
   id="XMLID_676_"
   class="st20"
   d="m 703,544.6 c -5.1,1.3 -10.2,2.9 -15.1,5 3.4,5.7 6.5,11.5 9.1,17.6 3.8,-1.7 7.6,-3.2 11.6,-4.6 -1.8,-6 -3.7,-12 -5.6,-18 z" />
					<path
   id="XMLID_701_"
   class="st20"
   d="m 721.7,573.7 c -5.2,8.5 -8.4,18.2 -9.9,28.2 1.2,0.4 2.5,0.8 3.6,1.2 4.5,1.6 8.9,3.2 13.4,4.8 0.5,-8.7 2.4,-17.3 6.7,-24.3 -4.6,-3.3 -9.2,-6.6 -13.8,-9.9 z" />
					<path
   id="XMLID_706_"
   class="st20"
   d="m 762.2,601.7 c -3.1,-0.9 -5.9,-2.9 -8.5,-4.9 -1.3,-1 -2.6,-1.9 -3.9,-2.9 -4.2,5.4 -7.3,11.7 -8.7,18.4 1.6,0.6 3.2,1.1 4.8,1.7 2.4,0.8 4.7,1.7 7.1,2.4 1.7,-5.6 4.8,-10.9 9.2,-14.7 z" />
					<path
   id="XMLID_696_"
   class="st20"
   d="m 662.9,429.4 c -12.4,8.7 -24.6,18.1 -36.4,28.1 3,6.3 6.2,12.5 9.6,18.6 10.1,-9.6 22.5,-16.4 34.2,-24.2 -2.6,-7.5 -5,-15 -7.4,-22.5 z" />
					<path
   id="XMLID_693_"
   class="st20"
   d="m 621.6,694.3 c -1.4,-4.3 -2.6,-8.6 -3.7,-13 -14.4,3.2 -28.1,8.8 -39.2,18.2 2,5.7 4.2,11.4 6.5,17.1 11.5,-8.1 24.1,-14.7 37.3,-19.3 -0.3,-1 -0.6,-2 -0.9,-3 z" />
					<path
   id="XMLID_695_"
   class="st20"
   d="m 650.9,805.9 c -4,1.6 -8,3.1 -12,4.8 3.1,5.7 6,11.5 8.4,17.6 3.2,-0.8 6.5,-1.7 9.7,-2.6 -2.1,-6.6 -4.2,-13.2 -6.1,-19.8 z" />
					<path
   id="XMLID_699_"
   class="st20"
   d="m 684.8,847.6 c -4.2,-3.4 -8.5,-6.8 -13,-9.9 -3.6,3.4 -6.1,8.5 -8.3,12.3 -2.4,4.4 -3.5,9 -3.7,13.6 4,2.6 8.1,5.4 11.9,8.4 3.3,-8.7 9,-16.4 16.7,-21.3 -1.2,-1 -2.4,-2.1 -3.6,-3.1 z" />
					<path
   id="XMLID_698_"
   class="st20"
   d="m 724.9,865 c -0.1,0 -0.2,-0.1 -0.2,-0.1 -3.6,-0.9 -7.5,-0.4 -11.2,-0.7 -3.5,-0.3 -6.7,-1.3 -9.8,-2.8 -7.7,5.9 -14.7,13.4 -18.3,21.9 3.8,3.1 7.9,5.7 12.7,6.6 1.2,0.2 2.4,0.4 3.6,0.5 0.6,-4.4 3.7,-8.9 5.8,-12.4 4.1,-6.5 10.4,-10.9 17.4,-13 z" />
					<path
   id="XMLID_630_"
   class="st25"
   d="m 622,368.2 c -12.7,0.3 -25.3,2.9 -36.9,7.9 -11.7,27.8 -15.3,61.4 -6.2,90.2 9,-6.2 18.4,-13 27.1,-20.2 -1.8,-26.3 4.1,-53.7 16,-77.9 z" />
					<path
   id="XMLID_632_"
   class="st25"
   d="m 559,548.6 c -25.8,21.8 -36.2,59.5 -24.7,91.3 2.5,6.8 6.8,12.5 11.9,17.5 5.6,-26.5 19.2,-52.8 36.3,-74 -7.8,-11.6 -15.7,-23.2 -23.5,-34.8 z" />
					<path
   id="XMLID_543_"
   class="st27"
   d="m 611.4,361.9 c -12.2,9.4 -18.2,25 -20.1,40.2 -2,15.3 -0.4,30.7 -0.6,46.1 -0.1,8.7 -0.7,17.5 -4.5,25.3 -4.5,9.4 -13,16.1 -21.4,22.3 -5,3.7 -10.3,7.3 -16.4,8.4 -1.5,0.3 -3,0.4 -4.4,0 -2,-0.5 -3.6,-1.9 -5.2,-3.2 -21.3,-18.8 -38.9,-42.9 -64.8,-54.6 -4.7,-2.1 -12.4,-4.9 -11.4,-11 0.7,-4.3 9.3,-10.9 12.3,-14 8.7,-8.8 18.2,-16.8 28.4,-23.8 20.4,-14.1 43.3,-24.4 67.4,-30.3 6.9,-1.7 13.8,-3 20.8,-3.9 4.1,-0.4 17,0.8 19.9,-1.5 z" />
					<path
   id="XMLID_610_"
   class="st28"
   d="m 535.9,391.5 c -2,7.6 -7.6,13.5 -13.1,19.1 -10.7,10.9 -22.2,22.4 -37.1,26 -6.3,1.6 -14.4,2.6 -20.4,0.5 11.1,-8 25.1,-13.4 36.9,-20.9 6.7,-4.3 31.6,-16.9 33.7,-24.7 z" />
					<path
   id="XMLID_614_"
   class="st28"
   d="m 556.9,402.8 c -6.8,10.9 -17.2,19.2 -28.5,25.3 -10,5.4 -20.9,9.3 -31.7,12.7 10.9,-5.2 21.4,-11.3 31.6,-17.8 7.8,-5 23.7,-12.3 28.6,-20.2 z" />
					<path
   id="XMLID_631_"
   class="st29"
   d="m 591.6,363.5 c -3.1,0.4 -6.2,0.9 -9.2,1.4 -2.3,3.5 -4.2,7.2 -5.9,11.1 -9,24 4,51 -6,75 -7.6,16.9 -22.4,33.9 -40.7,41.7 3,2.9 6,5.7 9,8.4 1.5,1.4 3.2,2.7 5.2,3.2 1.4,0.4 2.9,0.3 4.4,0 6.1,-1.1 11.4,-4.8 16.4,-8.4 8.4,-6.2 16.9,-12.9 21.4,-22.3 3.8,-7.8 4.4,-16.7 4.5,-25.3 0.1,-15.4 -1.4,-30.9 0.6,-46.1 2,-15.3 8,-30.8 20.1,-40.2 -2.9,2.2 -15.8,1 -19.8,1.5 z" />
					<path
   id="XMLID_542_"
   class="st27"
   d="m 540.9,673.6 c -4.9,-26.5 3.1,-53.6 13.2,-78.5 10.1,-24.9 22.4,-49.4 26.6,-76 1.6,-10.3 2,-21 -0.8,-31.1 -5.7,-20.7 -24.2,-36 -44.3,-43.5 -20.1,-7.6 -51.5,-8 -73,-9 -26.6,31.7 -39.6,70.5 -51.4,110.1 25.5,57.1 74,99.7 129.7,128 z" />
					<path
   id="XMLID_567_"
   class="st28"
   d="m 502.1,599.1 c 0.8,-9.6 -7.6,-25.6 -10.5,-34.9 -4,-12.8 -8.1,-25.5 -12.4,-38.1 -4.1,-12.3 -8.4,-24.5 -12.8,-36.7 -3,-8.4 -13.2,-25.6 -10.6,-33.9 31.9,34.9 50.3,97.1 46.3,143.6 z" />
					<path
   id="XMLID_588_"
   class="st28"
   d="m 456.1,589.8 c 4.7,-12.1 -1,-35.7 -0.4,-49.1 0.7,-16.1 1.5,-34.2 7.5,-49.3 11.8,28.3 3.6,70.8 -7.1,98.4 z" />
					<path
   id="XMLID_606_"
   class="st28"
   d="m 537.1,532.6 c 1.2,-14.1 -4,-28.2 -12.4,-39.5 -8.4,-11.3 -19.9,-20 -32.1,-27 19.6,11.2 35.7,46.9 44.5,66.5 z" />
					<path
   id="XMLID_622_"
   class="st29"
   d="m 579.9,488 c -5.7,-20.7 -24.2,-36 -44.3,-43.5 -20.1,-7.6 -51.5,-8 -73,-9 -5.2,6.1 -9.8,12.5 -14,19.2 36.3,-2.3 75.3,-1.8 99.9,25.4 17,19 11,49 2,72 -14,34.2 -27.4,70.7 -34.1,107.9 8,4.9 16.1,9.4 24.5,13.7 -4.9,-26.5 3.1,-53.6 13.2,-78.5 10.1,-25 22.4,-49.4 26.6,-76 1.7,-10.4 2,-21.1 -0.8,-31.2 z" />
					<g
   id="XMLID_538_">
						<path
   id="XMLID_524_"
   class="st22"
   d="m 53.3,380.5 c 5.5,13.8 17.2,25.1 31.2,30.2 14,5.1 30.2,3.9 43.3,-3.1 -12.4,-5.1 -24.1,-11.6 -35,-19.3 -6.4,-4.6 -12.6,-9.7 -19.7,-13.3 -8.6,-4.4 -12.4,0.5 -19.8,5.5 z" />
						<path
   id="XMLID_509_"
   class="st30"
   d="m 61.5,372.6 c -1,0.6 -2.1,1.2 -2.4,2.3 -0.3,0.9 0.1,1.8 0.5,2.7 6.6,14.4 18.6,26.2 33.2,32.4 14.5,6.2 31.4,6.8 46.4,1.6 -5.3,1.8 -20.4,-8.3 -24.7,-11 -7.7,-4.8 -14.6,-10.7 -20.7,-17.5 -6.2,-6.9 -9.6,-15.2 -15,-22.5 -3.8,-5 -4.1,-2.8 -7,1.8 -2.7,4.1 -5.9,7.7 -10.3,10.2 z" />
						<path
   id="XMLID_512_"
   class="st31"
   d="m 93.5,330 c 0,0 -45.6,25 -7.3,66 38.3,41 75.4,9 75.4,9 z" />
						<path
   id="XMLID_562_"
   class="st32"
   d="M 135.2,376 93.5,330 c 0,0 -42,23 -11.6,61 19.3,1.4 38.6,-3.9 53.3,-15 z" />
						<path
   id="XMLID_583_"
   class="st30"
   d="m 82,391.1 c 1.3,1.6 2.7,3.3 4.3,4.9 3.7,3.9 7.3,7.2 10.9,9.8 12.3,1.7 24.5,2 35.4,-1.8 6.4,-2.4 13,-5.7 19.2,-9.9 L 135.2,376 c -14.7,11.1 -34,16.4 -53.2,15.1 z" />
						<path
   id="XMLID_508_"
   class="st30"
   d="m 107.9,322.6 c -8.2,1.6 -15.9,6.8 -19.3,14.4 -1.6,3.5 -2.2,7.3 -2.4,11.1 -0.6,15.1 7.1,29.7 18.4,39.8 11.3,10.1 25.8,15.8 40.6,18.9 5.6,1.2 12,1.8 16.4,-1.8 6.2,-5 4.7,-14.6 2.1,-22.1 -5.8,-16.5 -14.8,-30.4 -25.4,-44.2 -3.1,-4 -5.2,-9.6 -9.2,-12.7 -5.5,-4.4 -14.6,-4.7 -21.2,-3.4 z" />
						<path
   id="XMLID_613_"
   class="st20"
   d="m 86.5,354.5 c 1.4,12.8 8.5,24.8 18.1,33.4 10.9,9.7 24.8,15.4 39,18.6 -4.4,-11.7 -10.4,-23 -18.2,-33.5 -9.4,-12.4 -24.2,-19.5 -38.9,-18.5 z" />
					</g>
					<path
   id="XMLID_533_"
   class="st30"
   d="m 190.5,408.2 c 0,0 -3,5.9 8,8.7 11,2.9 6.8,-17.4 6.8,-17.4 z" />
					<path
   id="XMLID_535_"
   class="st33"
   d="m 209.5,399.2 c 6.7,-4.7 13.6,-9.1 20.8,-13.1 8.7,-4.8 11.7,-16.8 19.6,-22.8 7.9,-6 12.7,-9.8 22.2,-16.3 1.1,-0.7 0.3,-2.7 1.1,-3.8 0.9,-1.2 2.5,-1.6 4,-1.7 5.5,-0.4 10.9,2.8 14.2,7.2 3.3,4.4 4.8,10 5.4,15.4 1.7,16.4 -4,32.5 -10.7,47.6 -7.3,16.4 -16,32.3 -25.8,47.3 -0.8,1.2 -1.7,2.6 -3.1,3 -2,0.6 -4.1,-0.8 -5.7,-2.2 -6.9,-5.7 -13.7,-11.5 -20.6,-17.2 -8.3,-6.9 -17.1,-14.1 -27.7,-15.8 -7.2,-1.2 -18.3,1 -12.3,-10 4.1,-7.3 11.9,-12.9 18.6,-17.6 z" />
					<path
   id="XMLID_539_"
   class="st33"
   d="m 284.7,332.6 c 13.6,-23 33.7,-42 57.5,-54.2 19.2,11.7 37.7,25.2 53.7,41.1 -13.8,8.7 -26.8,18.5 -38.9,29.4 -0.8,0.7 -1.6,1.4 -2.5,1.7 -1.5,0.4 -3,-0.2 -4.4,-0.9 -21.1,-9.4 -42.5,-14.5 -65.4,-17.1 z" />
					<path
   id="XMLID_458_"
   class="st21"
   d="m 273.3,380.9 c 3.2,-2.9 5.1,-7.2 5.1,-11.5 0,-0.5 0,-1 -0.3,-1.4 -0.4,-0.5 -1,-0.6 -1.6,-0.7 -8.8,-1.7 -16.4,-7.7 -21.7,-14.9 -5.3,-7.2 -8.8,-14.4 -9.9,-23.3 -1.1,-9.2 -2.5,-19 -8.4,-26.2 -5.1,-6.2 -13.1,-9.5 -20.9,-11.3 -8.8,-2 -18,-2.4 -27,-2.4 -12.4,0 -25.2,1 -36,7 -10.8,6 -19.2,18 -17.3,30.2 1.9,12.2 9.6,25.3 18.2,34.1 2.5,2.5 5.2,4.9 8.3,6.6 9.6,5.3 21.3,3.7 32,2.1 7.3,5.1 13.9,12.2 15.9,20.9 0.4,1.8 0.8,3.7 2,5.1 1.1,1.3 2.9,1.9 4.5,2.4 6.8,2.1 14,3.1 21.1,3.2 6.6,0 13.5,-0.9 18.9,-4.7 6.4,-4.4 11.4,-10.1 17.1,-15.2 z" />
					<linearGradient
   id="XMLID_337_"
   gradientUnits="userSpaceOnUse"
   x1="179.4213"
   y1="312.47379"
   x2="181.088"
   y2="281.8071">
						<stop
   offset="0"
   style="stop-color:#F7B794"
   id="stop1036" />
						<stop
   offset="1"
   style="stop-color:#E97695"
   id="stop1038" />
					</linearGradient>
					<path
   id="XMLID_489_"
   class="st34"
   d="m 168.1,290.4 c 0.8,-2.7 1.9,-5.6 4.3,-7.1 1.2,-0.7 2.5,-1.1 3.9,-1.4 2.5,-0.6 5.1,-1.2 7.7,-1.1 2.6,0.1 5.3,1 7,3 2,2.3 2.3,5.6 2.5,8.6 0.3,4.3 0.5,8.9 -1.5,12.8 -2.5,4.8 -7.8,7.3 -12.9,9.1 -1.9,0.7 -4.1,1.3 -6,0.7 -8.5,-2.7 -6.8,-18.7 -5,-24.6 z"
   style="fill:url(#XMLID_337_)" />
					<path
   id="XMLID_502_"
   class="st35"
   d="m 164,372 c -10.8,-1.2 -20.5,-7.7 -27,-16.3 -6.5,-8.7 -9.9,-19.4 -11,-30.1 -0.7,-6.8 -0.5,-13.8 2,-20.2 2,-5 5.3,-9.5 9.2,-13.2 7.6,-7.4 17.4,-12.4 27.8,-14.2 0.6,-0.1 1.4,-0.2 1.9,0.2 0.5,0.4 0.6,1.1 0.6,1.8 0.2,3.3 0.4,6.8 -1.3,9.6 -2.4,3.9 -7.4,5 -11.6,6.9 -9.6,4.5 -15.8,15.4 -14.8,25.9 0.2,2.1 0.7,4.3 2,5.9 2.2,2.8 6,3.6 9,5.6 4.4,3 6.5,8.9 5.1,14 6.8,1 13.8,1.4 20.6,0.3 6.8,-1.1 13.5,-3.8 18.7,-8.3 -6.3,-6 -13,-12.9 -13.5,-21.7 -0.2,-3.5 0.7,-7 2,-10.3 1.1,-2.9 2.6,-5.7 4.4,-8.1 6.3,-8.4 17.5,-12.8 27.8,-10.8 8.7,1.6 17.1,5 22.9,11.7 5.8,6.7 8.3,16.3 5.8,24.8 -0.8,-1.8 -1.7,-3.5 -3.3,-4.6 -3.8,-2.6 -9.3,-1.3 -12.6,1.8 -3.3,3.2 -4.8,7.8 -5.7,12.3 -0.9,4.5 -1.2,9.1 -2.7,13.5 -1.5,4.4 -4.1,8.4 -7.6,11.5 -2.2,2 -4.7,3.6 -7.4,5 -13,6.7 -26.7,8.6 -41.3,7 z" />
					<path
   id="XMLID_486_"
   class="st21"
   d="m 156.1,360.9 c -3.3,1.7 -6.7,3.8 -8.7,6.9 -2.1,3.1 -2.4,7.6 0,10.5 1.6,1.8 4.1,2.6 6.5,3 7,1.2 14.4,-0.5 20.2,-4.6 5.8,-4.1 9.8,-10.5 11.1,-17.5 0.1,-0.4 0.1,-0.8 0,-1.1 -0.1,-0.3 -0.4,-0.5 -0.7,-0.7 -9.4,-6.4 -19.5,-1.1 -28.4,3.5 z" />
					<path
   id="XMLID_495_"
   class="st20"
   d="m 179.6,303.5 c -0.1,0.4 -0.1,0.9 0.2,1.3 0.5,0.7 1.8,0.4 2.2,-0.4 0.4,-0.8 0.3,-1.7 0.2,-2.6 -0.1,-1.9 0.7,-3.7 0.7,-5.5 -1.9,1.6 -2.9,4.7 -3.3,7.2 z" />
					<path
   id="XMLID_500_"
   class="st36"
   d="m 202.9,297.8 c -2.6,1.2 -5.3,2.6 -7.1,4.9 -1.8,2.2 -2.7,5.5 -1.4,8.1 0.5,1 1.2,1.8 2.2,2.2 1,0.4 2.2,0.4 3.1,-0.2 1.4,-1 1.6,-2.9 1.9,-4.6 0.7,-4.6 3,-8 5.6,-11.7 -1.4,-0.3 -3,0.7 -4.3,1.3 z" />
					<path
   id="XMLID_503_"
   class="st37"
   d="m 148.3,308.8 c 2.2,-3.2 5.6,-5.6 9.4,-6.5 -3.1,4.6 -4.5,10.3 -3.7,15.8 -1.9,-1.8 -2.6,-4.6 -2.1,-7.2 0.5,-2.6 2,-4.8 3.8,-6.7 -2,2 -4.5,3.1 -6.3,5.5 -1.8,2.3 -2.9,4.9 -3.7,7.7 -1.4,-2.3 1.3,-6.7 2.6,-8.6 z" />
					<path
   id="XMLID_506_"
   class="st25"
   d="m 152.1,374.2 c -1.1,-1.9 0.4,-4.3 2,-5.8 2.3,-2.2 5,-3.8 8,-4.9 -0.2,1.1 -0.3,2.2 0.1,3.3 0.4,1.1 1.5,1.9 2.6,1.6 0.4,-0.1 0.8,-0.4 1.1,-0.7 1.5,-1.3 2.6,-3 3.3,-4.8 0.6,-1.5 1.3,-3.5 2.9,-3.6 0.7,0 1.3,0.3 1.8,0.7 1.8,1.6 2.1,4.5 1,6.7 -1.1,2.2 -3.3,3.6 -5.6,4.3 -1.4,0.5 -2.9,0.7 -4.4,0.4 -1.5,-0.3 -2.8,-1.2 -3.5,-2.6 -0.3,-0.7 -0.7,-1.7 -1.5,-1.6 -0.3,0 -0.5,0.3 -0.7,0.5 -1.1,1 -2.2,2.1 -3.2,3.1 -0.8,0.8 -1.6,2 -0.9,2.8 0.3,0.3 0.6,0.4 1,0.5 1.1,0.3 2.3,0.6 3.4,1 -1.4,2 -6.3,1.1 -7.4,-0.9 z" />
					<path
   id="XMLID_534_"
   class="st30"
   d="m 453.4,430.6 c -12,-22 -29.1,-40.8 -47.6,-57.7 -12.6,-11.5 -26,-22.4 -41.1,-30.5 -15.1,-8.1 -32,-13.3 -49,-13 -6,0.1 -12.1,1.2 -17.6,3.6 -8,3.3 -15.3,8.8 -22.6,13.5 -0.1,14.5 -7,28.8 -18.2,37.9 -3.8,3.1 -8.3,5.7 -13.2,6.3 9.2,23.5 10,50.6 5.1,75.3 8.3,12.7 15,27.5 20.7,41.6 l 3.3,0.5 c 9.1,1 18.2,1.9 27.3,2.9 14.1,1.5 28.2,3 42,6.4 21.3,5.4 41.3,15.6 58.2,29.6 10.7,-27.2 24.5,-55.9 38.6,-81.5 5.8,-10.8 10.8,-23.1 14.1,-34.9 z" />
					<path
   id="XMLID_537_"
   class="st29"
   d="m 200.2,521.4 c 0,0 72.7,21.2 70.7,-49.1 0.1,0 -70.9,-14.4 -70.7,49.1 z" />
					<g
   id="XMLID_564_">
						<path
   id="XMLID_559_"
   class="st20"
   d="m 279.5,502 c 0,0 -0.3,-2.9 -0.7,-8.1 -0.1,-1.3 -0.2,-2.7 -0.2,-4.3 -0.1,-1.6 -0.1,-3.2 -0.2,-5.1 -0.1,-1.8 -0.1,-3.7 0,-5.7 0,-2 0.1,-4.2 0.2,-6.4 0.4,-4.4 0.6,-9.2 1.3,-14.3 0.5,-5.1 1.5,-10.4 2.6,-15.8 0.6,-2.7 1.3,-5.5 1.9,-8.2 0.8,-2.8 1.6,-5.5 2.4,-8.3 1.8,-5.6 3.7,-11.2 5.9,-16.7 0.6,-1.4 1.1,-2.8 1.7,-4.1 0.6,-1.3 1.3,-2.7 1.9,-4 0.6,-1.3 1.2,-2.7 1.9,-4 0.7,-1.3 1.4,-2.6 2,-3.9 1.4,-2.6 2.7,-5.2 4.2,-7.6 0.7,-1.2 1.5,-2.5 2.2,-3.7 0.7,-1.2 1.4,-2.4 2.2,-3.6 1.5,-2.3 3,-4.6 4.5,-6.8 1.6,-2.1 3.2,-4.2 4.7,-6.3 0.4,-0.5 0.8,-1 1.1,-1.5 0.4,-0.5 0.8,-1 1.2,-1.4 0.8,-0.9 1.6,-1.9 2.3,-2.8 1.5,-1.8 3,-3.6 4.5,-5.3 3,-3.3 6,-6.1 8.8,-8.4 2.8,-2.3 5.5,-4 7.8,-5.2 2.3,-1.2 4.2,-1.9 5.5,-2.4 1.3,-0.4 2,-0.6 2,-0.6 0,0 -0.7,0.3 -2,0.7 -1.3,0.5 -3.1,1.3 -5.4,2.6 -2.2,1.3 -4.8,3.1 -7.5,5.5 -2.7,2.4 -5.5,5.3 -8.4,8.6 -1.5,1.7 -2.9,3.5 -4.4,5.3 -0.7,0.9 -1.5,1.9 -2.3,2.8 -0.4,0.5 -0.8,1 -1.2,1.5 -0.4,0.5 -0.7,1 -1.1,1.5 -1.5,2.1 -3,4.2 -4.5,6.3 -1.4,2.2 -2.9,4.5 -4.4,6.8 -0.8,1.1 -1.5,2.3 -2.2,3.6 -0.7,1.2 -1.4,2.4 -2.1,3.7 -1.5,2.4 -2.8,5 -4.1,7.6 -0.7,1.3 -1.3,2.6 -2,3.9 -0.6,1.3 -1.2,2.7 -1.8,4 -0.6,1.3 -1.2,2.7 -1.8,4 -0.6,1.3 -1.1,2.7 -1.7,4.1 -2.3,5.4 -4.2,11 -6,16.5 -0.8,2.8 -1.7,5.5 -2.4,8.3 -0.7,2.8 -1.3,5.5 -2,8.2 -1.1,5.4 -2.2,10.6 -2.9,15.6 -0.9,5 -1.1,9.8 -1.6,14.2 -0.1,2.2 -0.2,4.3 -0.3,6.3 -0.1,2 -0.2,3.9 -0.2,5.7 0,1.8 0,3.5 0,5 0,1.6 0,3 0.1,4.3 0.4,5 0.5,7.9 0.5,7.9 z" />
						<path
   id="XMLID_560_"
   class="st20"
   d="m 322.2,511 c 0,0 0.2,-2.5 0.5,-7 0.1,-1.1 0.2,-2.3 0.3,-3.7 0.2,-1.3 0.4,-2.8 0.5,-4.3 0.2,-1.5 0.4,-3.2 0.6,-4.9 0.3,-1.7 0.6,-3.5 1,-5.4 0.4,-1.9 0.7,-3.9 1.1,-5.9 0.5,-2 0.9,-4.1 1.4,-6.2 0.3,-1.1 0.5,-2.2 0.8,-3.3 0.3,-1.1 0.6,-2.2 0.9,-3.3 0.6,-2.2 1.2,-4.5 1.9,-6.8 1.5,-4.6 3,-9.3 4.9,-14 1.7,-4.8 3.8,-9.4 5.8,-14.1 2.3,-4.6 4.4,-9.2 6.9,-13.6 2.3,-4.5 5,-8.7 7.5,-12.8 1.3,-2 2.6,-4 3.9,-5.9 0.6,-1 1.3,-1.9 1.9,-2.8 0.6,-0.9 1.3,-1.8 2,-2.7 1.3,-1.8 2.6,-3.5 3.8,-5.1 1.2,-1.6 2.6,-3.2 3.8,-4.7 1.2,-1.5 2.4,-2.9 3.5,-4.2 1.2,-1.3 2.3,-2.5 3.3,-3.7 1,-1.2 2,-2.2 2.9,-3.2 0.9,-1 1.8,-1.8 2.6,-2.6 3.2,-3.1 5,-4.9 5,-4.9 0,0 -1.7,1.9 -4.7,5.2 -0.7,0.8 -1.6,1.7 -2.5,2.7 -0.9,1 -1.8,2.2 -2.8,3.3 -1,1.2 -2,2.5 -3.2,3.8 -1.1,1.4 -2.2,2.8 -3.4,4.3 -1.2,1.5 -2.4,3.1 -3.6,4.7 -1.2,1.7 -2.4,3.4 -3.7,5.2 -0.6,0.9 -1.3,1.8 -1.9,2.7 -0.6,0.9 -1.2,1.9 -1.8,2.9 -1.2,1.9 -2.6,3.9 -3.8,5.9 -2.4,4.1 -5,8.3 -7.3,12.7 -2.5,4.4 -4.5,9 -6.8,13.6 -2,4.7 -4.2,9.3 -5.9,14 -1.9,4.6 -3.4,9.3 -4.9,13.8 -0.7,2.3 -1.3,4.5 -2,6.7 -0.3,1.1 -0.7,2.2 -1,3.3 -0.3,1.1 -0.6,2.2 -0.8,3.2 -0.5,2.1 -1.1,4.2 -1.6,6.2 -0.5,2 -0.8,4 -1.3,5.8 -0.4,1.9 -0.8,3.7 -1.1,5.4 -0.3,1.7 -0.6,3.3 -0.8,4.9 -0.3,1.5 -0.5,3 -0.7,4.3 -0.2,1.3 -0.3,2.6 -0.5,3.7 -0.3,4.2 -0.7,6.8 -0.7,6.8 z" />
						<path
   id="XMLID_561_"
   class="st20"
   d="m 371.1,524.9 c 0,0 0.3,-2.1 0.7,-5.7 0.1,-0.9 0.2,-1.9 0.4,-3 0.2,-1.1 0.4,-2.3 0.6,-3.5 0.2,-1.3 0.5,-2.6 0.7,-4 0.3,-1.4 0.6,-2.9 1,-4.4 0.4,-1.5 0.7,-3.1 1.1,-4.8 0.4,-1.6 0.9,-3.3 1.4,-5 0.2,-0.9 0.5,-1.7 0.7,-2.6 0.3,-0.9 0.6,-1.8 0.8,-2.7 0.6,-1.8 1.1,-3.6 1.8,-5.5 1.4,-3.7 2.7,-7.5 4.3,-11.3 1.5,-3.8 3.4,-7.6 5.1,-11.4 1.9,-3.7 3.8,-7.5 5.9,-11 2,-3.6 4.2,-7 6.3,-10.3 1.1,-1.6 2.2,-3.2 3.2,-4.8 0.5,-0.8 1.1,-1.5 1.6,-2.3 0.5,-0.8 1.1,-1.5 1.6,-2.2 1.1,-1.4 2.1,-2.8 3.1,-4.2 1,-1.3 2.1,-2.6 3.1,-3.8 1,-1.2 1.9,-2.4 2.9,-3.5 1,-1.1 1.9,-2.1 2.7,-3 0.9,-0.9 1.6,-1.8 2.4,-2.6 0.7,-0.8 1.5,-1.5 2.1,-2.2 2.6,-2.6 4,-4.1 4,-4.1 0,0 -1.4,1.6 -3.7,4.3 -0.6,0.7 -1.3,1.4 -2,2.3 -0.7,0.9 -1.4,1.8 -2.2,2.8 -0.8,1 -1.6,2 -2.5,3.1 -0.9,1.1 -1.8,2.3 -2.7,3.6 -0.9,1.2 -1.9,2.5 -2.9,3.9 -1,1.4 -2,2.8 -3,4.2 -0.5,0.7 -1,1.5 -1.6,2.2 -0.5,0.8 -1,1.5 -1.5,2.3 -1,1.6 -2.1,3.1 -3.1,4.8 -2,3.3 -4.1,6.7 -6.1,10.3 -2.1,3.5 -3.9,7.3 -5.8,10.9 -1.7,3.8 -3.6,7.5 -5.1,11.2 -1.6,3.7 -3,7.5 -4.5,11.1 -0.7,1.8 -1.3,3.6 -1.9,5.4 -0.3,0.9 -0.6,1.8 -0.9,2.6 -0.3,0.9 -0.5,1.7 -0.8,2.6 -0.5,1.7 -1,3.4 -1.5,5 -0.5,1.6 -0.9,3.2 -1.3,4.7 -0.4,1.5 -0.8,2.9 -1.2,4.3 -0.3,1.4 -0.6,2.7 -0.9,3.9 -0.3,1.2 -0.6,2.4 -0.8,3.5 -0.2,1.1 -0.4,2.1 -0.6,3 -0.5,3.9 -0.9,5.9 -0.9,5.9 z" />
					</g>
					<path
   id="XMLID_536_"
   class="st21"
   d="m 313.4,431.5 c -3.7,33.9 -7.5,68.4 -22,99.3 -2.8,5.9 -6,11.7 -10.5,16.5 -4.5,4.7 -10.5,8.3 -17.1,8.8 -6.2,0.5 -12.4,-1.8 -17.7,-5.1 -10.4,-6.5 -18.1,-16.8 -23.2,-28 -5,-11.2 -7.6,-23.3 -9.6,-35.5 3.9,-6.9 9.9,-10.9 16.8,-14.8 6.9,-3.9 14.4,-6.5 22,-8.7 1.4,5.9 4.5,11.1 7.7,16.3 1.5,2.4 3.4,4.9 6.2,5.6 2.7,0.6 5.5,-0.8 7.4,-2.8 1.9,-2 2.9,-4.7 3.9,-7.2 7.2,-18.8 12.4,-38.4 15.3,-58.3 1.8,-12.4 -7.2,-23 -6.1,-35.4 0.5,-6 4.2,-11.7 9.6,-14.6 1.7,-0.9 4.1,-1.5 5.5,-0.2 1.2,1.2 1,3.2 0.2,4.7 -0.8,1.5 -2.1,2.7 -3,4.1 -1.8,2.8 -2,6.5 -0.4,9.5 0.4,0.7 0.9,1.5 1.6,1.9 1.5,0.9 3.5,0.1 4.7,-1.2 1.1,-1.3 1.6,-3 2.2,-4.7 3.9,-11.9 12.6,-23.2 24.9,-25.7 2.2,-0.5 5.2,-0.2 5.8,2 0.5,1.8 -1,3.5 -2.4,4.8 -6.7,5.9 -14.7,12.4 -14.7,21.3 5.2,-9.4 14.3,-15.4 24.7,-17.6 2,-0.4 4,-0.7 5.9,0.1 1.9,0.7 3.3,2.7 2.9,4.7 -0.6,2.2 -3.2,3.2 -5.3,4 -8.9,3.2 -16.5,9.6 -21.2,17.8 9.5,-6.3 20.7,-8.8 31.9,-10.8 1.9,-0.3 4.1,-0.5 5.3,1 1,1.3 0.6,3.2 -0.5,4.4 -1.1,1.2 -2.6,1.8 -4.1,2.4 -10.1,4 -20.1,8.2 -29.1,14.3 7.2,-3.2 15.7,-4.6 23.5,-4 1.2,0.1 2.5,0.2 3.5,0.9 1,0.6 1.8,1.9 1.5,3.1 -0.3,1.3 -1.7,2 -3,2.4 -3.9,1.1 -8.1,0.6 -11.9,1.8 -6.2,1.9 -10.4,7.7 -14.6,12.7 -4.2,5 -10.1,11 -16.6,10.2 z" />
					<path
   id="XMLID_633_"
   class="st27"
   d="m 411.8,238.7 c 0.5,8.6 2.5,17.2 6,25.1 0.8,-0.6 1.7,-1.2 2.5,-1.8 -2.9,-8.1 -4.3,-16.7 -4.3,-25.3 -1.3,0.6 -2.8,1.3 -4.2,2 z" />
					<path
   id="XMLID_680_"
   class="st27"
   d="m 457.2,238.2 c -1.8,-5.7 -2.9,-11.6 -2.7,-17.5 -1.4,0.5 -2.7,1 -4.1,1.5 0.2,6.2 1.4,12.2 3.2,18.1 1.2,-0.7 2.4,-1.4 3.6,-2.1 z" />
					<path
   id="XMLID_681_"
   class="st20"
   d="m 450.4,222.2 c -11.7,4.3 -23.1,9.1 -34.3,14.4 -0.1,8.7 1.4,17.3 4.3,25.3 10.6,-7.9 21.7,-15.1 33.2,-21.7 -1.8,-5.8 -2.9,-11.8 -3.2,-18 z" />
					<path
   id="XMLID_679_"
   class="st27"
   d="m 312.2,441.9 c -8,-2.6 -15.5,-6.9 -21.6,-12.7 -0.3,1.6 -0.6,3.2 -1,4.7 6.6,5.7 14,10 21.9,13.2 0.3,-1.7 0.5,-3.4 0.7,-5.2 z" />
					<path
   id="XMLID_634_"
   class="st20"
   d="m 305.9,484.8 c 2.5,-12.4 4.2,-25 5.7,-37.7 -8,-3.2 -15.4,-7.5 -21.9,-13.2 -2.3,10.8 -5.2,21.5 -8.8,32 6.9,8.2 15.5,14.6 25,18.9 z" />
					<path
   id="XMLID_682_"
   class="st27"
   d="m 304.7,490.7 c 0.4,-2 0.9,-3.9 1.2,-5.9 -9.6,-4.3 -18.1,-10.7 -25,-18.8 -0.5,1.5 -1,3 -1.6,4.5 5.7,9 15.2,15.7 25.4,20.2 z" />
					<path
   id="XMLID_664_"
   class="st25"
   d="m 258.9,478.7 c -2.8,-4.7 -5.5,-9.4 -6.8,-14.7 -7.6,2.2 -15.1,4.8 -22,8.7 -6.9,3.9 -12.8,8 -16.8,14.8 2,12.1 4.6,24.3 9.6,35.5 0.1,0.2 0.2,0.4 0.3,0.7 6.2,-18.4 20,-33.1 35.7,-45 z" />
					<path
   id="XMLID_532_"
   class="st33"
   d="m 185.6,425.8 c -2.7,7.3 -2.5,15.4 -2,23.2 1.6,24.9 5.8,50 16.6,72.4 1.3,-10.6 9,-19.1 17.2,-25.9 15.2,-12.7 33.8,-22.3 53.6,-23.2 -11.6,-22.4 -24.7,-46.2 -47.5,-56.9 -14.4,-6.7 -31.4,-6.9 -37.9,10.4 z" />
					<path
   id="XMLID_565_"
   class="st20"
   d="m 264.8,354.6 c 8.5,-2.8 17.6,-1.7 26.5,-0.6 6.7,0.8 13.4,1.7 20.1,2.5 2.3,0.3 4.7,0.6 6.8,-0.5 1.6,-0.8 2.7,-2.3 3.7,-3.8 1.3,-2 2.3,-4 3.2,-6.2 0.8,-2 1.4,-4.5 0.2,-6.3 -0.9,-1.4 -2.6,-1.9 -4.2,-2.4 -10.8,-3.1 -22.4,-4.6 -33.4,-2.3 -11,2.3 -21.5,8.8 -26.7,18.8 -0.5,1 -0.4,2.1 0.3,2.8 1.1,-0.8 2.2,-1.6 3.5,-2 z" />
					<path
   id="XMLID_591_"
   class="st31"
   d="m 324.7,346.3 c -0.4,0.5 -0.7,0.9 -1.1,1.4 -2.4,3.2 -6.4,4.7 -10.2,3.6 -9.8,-2.7 -20.6,-1.8 -30.8,-0.7 -4,0.4 -8.1,0.8 -11.8,2.3 -3.5,1.5 -6.8,4.1 -8.2,7.6 -2.9,-2.3 -5.4,-5 -7.6,-8 0,0 0,0 0,0 5.8,-13.9 19.7,-23.8 34.6,-26 10.7,-1.6 22,0.6 31.8,5.5 5.3,2.7 6.9,9.6 3.3,14.3 z" />
					<path
   id="XMLID_541_"
   class="st22"
   d="m 484.2,412.7 c -22.7,31.9 -44.5,84.3 -60.1,120.2 -4,9.1 -8.3,19.3 -8.2,29.2 -4,-1.9 -7.9,-3.7 -11.9,-5.6 -6,-2.8 -11.1,-6.7 -16.6,-10.5 15.3,-44.4 35.6,-87.1 60.3,-127.1 10.9,4.1 25.7,-10.4 36.5,-6.2 z" />
					<path
   id="XMLID_545_"
   class="st27"
   d="m 716.8,564.7 c -4.4,-0.3 -9.8,1.2 -13.7,3.2 -7.8,-28.3 -19,-55.7 -33.4,-81.3 -6.1,-10.8 -12.7,-21.3 -18.6,-32.1 -9.9,-18.1 -17.3,-37.9 -23.1,-57.7 4.2,-5.8 8.6,-11.6 14.1,-16.1 5.5,-4.5 12.5,-7.7 19.7,-7.3 20.2,63 39.5,127 55,191.3 z" />
					<path
   id="XMLID_704_"
   class="st28"
   d="m 642.5,398 c 1.5,-7.5 11.4,-12.7 21.8,-16.6 -0.9,-2.7 -1.7,-5.4 -2.6,-8 -7.1,-0.4 -14.1,2.8 -19.7,7.3 -5.5,4.5 -9.8,10.4 -14.1,16.1 5.8,19.8 13.3,39.6 23.1,57.7 5.9,10.9 12.5,21.3 18.6,32.1 14.4,25.6 25.6,53 33.4,81.3 1.6,-0.8 3.4,-1.5 5.2,-2.1 -8.1,-28.2 -14.7,-55.9 -28.8,-80.9 C 663.5,457 637.5,430 642.5,398 Z" />
					<path
   id="XMLID_552_"
   class="st20"
   d="m 404.4,817.3 c 5.8,-16.2 13.6,-31.7 23.2,-46 -23.5,-63.4 -34.2,-131.6 -31.1,-199.1 -8.8,-6.5 -12.1,-3.6 -17.6,-13.1 -7.5,89.2 -4.4,173.7 25.5,258.2 z" />
					<path
   id="XMLID_548_"
   class="st27"
   d="m 654.7,834.7 c 5.3,-4.3 12.3,-6.6 19.2,-6.1 -19.3,-53.4 -24.2,-111.3 -52.1,-160.8 -3.5,-6.3 -12.3,-7.3 -19.3,-5.5 -9.6,2.4 -18.3,9 -22.3,18 6.6,32.6 28.3,60.6 43.9,90 4.8,9 9,18.2 13.3,27.4 5.5,12 11.8,25.1 17.3,37 z" />
					<path
   id="XMLID_708_"
   class="st28"
   d="m 589.5,692 c -7,-13 8,-22 20,-20 5.7,1.1 11.3,2.9 17,4.6 -1.5,-2.9 -3,-5.8 -4.6,-8.7 -3.5,-6.3 -12.3,-7.3 -19.3,-5.5 -9.6,2.4 -18.3,9 -22.3,18 6.6,32.6 28.3,60.6 43.9,90 4.8,9 9,18.2 13.3,27.4 5.5,11.9 11.8,25 17.3,36.9 1,-0.8 2.1,-1.6 3.3,-2.3 C 638.4,784.3 614,738.7 589.5,692 Z" />
					<path
   id="XMLID_551_"
   class="st27"
   d="m 361.1,524.7 c -4,-0.1 -8.7,0.8 -10.8,4.3 -3,5 1.3,11.1 5.3,15.4 10.2,10.9 20.5,21.8 33.1,29.9 4.4,2.8 9.2,5.3 14.4,6.3 5.2,1 10.8,0.2 15.1,-2.9 3.1,-2.3 5.4,-6.6 3.7,-10.1 -0.8,-1.7 -2.4,-2.9 -3.9,-4 -17.5,-13 -33.3,-38.2 -56.9,-38.9 z" />
					<polygon
   id="XMLID_550_"
   class="st20"
   points="377.5,548.6 365.2,447.1 401.5,447.1 395.9,562.1 " />
					<path
   id="XMLID_563_"
   class="st32"
   d="m 396.5,459 c 1.5,-1.1 3.1,-2.5 4.6,-4.1 l 0.4,-7.9 h -36.3 l 1.2,10.3 c 8.2,6.9 20,7.9 30.1,1.7 z" />
					<ellipse
   id="XMLID_549_"
   class="st27"
   cx="383.39999"
   cy="447.10001"
   rx="18.1"
   ry="8.8999996" />
					<path
   id="XMLID_597_"
   class="st20"
   d="m 240.2,413.5 c 4.5,1.7 9,3.6 13.7,4.5 4.7,0.9 9.9,0.6 14,-2 3.6,-2.2 6.1,-6.2 6.5,-10.4 0.2,-1.9 -0.1,-4.1 -1.7,-5.1 -0.6,-0.4 -1.3,-0.6 -1.9,-0.7 -18.4,-4.8 -37.5,-9.6 -56.2,-6 -6.1,1.2 -25,10.6 -9.7,12.1 12.1,1.1 23.8,3.3 35.3,7.6 z" />
					<path
   id="XMLID_529_"
   class="st31"
   d="m 196.4,392.5 c 1,-1.5 2,-3 3.4,-4.1 1.4,-1.1 3.1,-1.6 4.8,-2.1 23.3,-6.7 49.2,-3.7 70.4,8.2 0.8,0.4 1.6,0.9 1.9,1.8 0.3,0.8 0,1.6 -0.3,2.4 -2.2,6.6 -5.2,14 -11.7,16.5 -5.4,2.1 -11.5,0.1 -17,-1.9 -12.4,-4.3 -25.5,-7.9 -38.7,-8 -3.3,0 -18.8,2.8 -18.8,2.8 0.8,-7 4.3,-12.9 6,-15.6 z" />
					<path
   id="XMLID_617_"
   class="st38"
   d="m 402.8,525 c 1.3,-0.2 2.6,0.8 2.8,2 17.1,-35.7 35,-71.1 53.6,-106 -10.9,40.1 -36.2,75.2 -47,115.3 -1.5,-0.8 -3.1,-1.6 -4.6,-2.4 -0.3,5.2 0.9,10.5 3.4,15.1 -7.3,-1.5 -13,-23.3 -8.2,-24 z" />
				</g>
				<g
   id="XMLID_5_">
					<path
   id="XMLID_553_"
   class="st39"
   d="m 155.3,263.5 c 0,0 -0.6,-1.2 -1.6,-3.4 -1,-2.2 -2.3,-5.3 -3.9,-9.1 -0.8,-1.9 -1.7,-3.9 -2.6,-6 -0.9,-2.1 -2,-4.4 -3,-6.7 -1.1,-2.3 -2.1,-4.7 -3.2,-7.1 -1.1,-2.4 -2.3,-4.9 -3.4,-7.3 -1.2,-2.4 -2.4,-4.9 -3.5,-7.3 -1.2,-2.4 -2.3,-4.7 -3.5,-7 -1.2,-2.2 -2.2,-4.5 -3.3,-6.5 -1.1,-2.1 -2.1,-4 -3,-5.9 -1.9,-3.6 -3.4,-6.7 -4.5,-8.8 -1.1,-2.1 -1.7,-3.4 -1.7,-3.4 0,0 0.9,1 2.5,2.8 0.8,0.9 1.7,2 2.8,3.4 0.5,0.7 1.1,1.4 1.7,2.1 0.6,0.7 1.1,1.6 1.7,2.4 0.6,0.8 1.2,1.7 1.9,2.6 0.6,0.9 1.3,1.9 1.9,2.9 1.3,2 2.6,4.1 4,6.3 1.3,2.2 2.6,4.5 3.9,6.9 1.3,2.4 2.5,4.9 3.7,7.3 1.1,2.5 2.3,5 3.3,7.5 1.1,2.5 2,5 2.9,7.4 0.9,2.4 1.7,4.8 2.4,7 0.3,1.1 0.7,2.2 1,3.3 0.3,1.1 0.6,2.1 0.8,3.1 0.3,1 0.5,1.9 0.7,2.9 0.2,0.9 0.4,1.8 0.6,2.6 0.4,1.6 0.7,3.1 0.9,4.2 0.3,2.5 0.5,3.8 0.5,3.8 z" />
					<path
   id="XMLID_554_"
   class="st39"
   d="m 168.9,259.7 c 0,0 -0.3,-0.5 -0.7,-1.3 -0.4,-0.8 -1,-2 -1.5,-3.5 -0.5,-1.5 -0.9,-3.2 -1.3,-5.2 -0.1,-1 -0.3,-2 -0.4,-3 -0.1,-1 -0.1,-2 -0.1,-3.1 0,-1 0,-2.1 0.1,-3.1 0.1,-1 0.2,-2 0.3,-3 0.3,-1.9 0.7,-3.7 1.2,-5.2 1,-3 2.2,-4.8 2.2,-4.8 0,0 0.1,0.5 0.3,1.4 0.1,0.9 0.3,2.2 0.4,3.7 0.1,0.8 0.1,1.6 0.2,2.4 0,0.9 0.1,1.8 0.1,2.7 0,0.9 0.1,1.9 0.1,2.8 0,1 0,1.9 0,2.9 0,1 0,2 0,2.9 0,1 0,1.9 -0.1,2.8 0,1.8 -0.2,3.6 -0.3,5.1 -0.1,1.5 -0.3,2.8 -0.4,3.7 0,1.2 -0.1,1.8 -0.1,1.8 z" />
					<path
   id="XMLID_555_"
   class="st39"
   d="m 175.8,258.4 c 0,0 -0.1,-0.5 -0.2,-1.3 -0.1,-0.8 -0.2,-1.9 -0.2,-3.3 0,-1.4 0.2,-2.9 0.6,-4.5 0.2,-0.8 0.4,-1.7 0.7,-2.5 0.3,-0.8 0.6,-1.7 0.9,-2.5 0.4,-0.8 0.7,-1.6 1.2,-2.4 0.4,-0.8 0.9,-1.5 1.4,-2.2 1,-1.4 2,-2.6 3,-3.5 1.9,-1.9 3.6,-2.7 3.6,-2.7 0,0 -0.1,0.5 -0.3,1.2 -0.2,0.8 -0.5,1.8 -0.9,3.1 -0.2,0.6 -0.4,1.3 -0.7,1.9 -0.3,0.7 -0.5,1.4 -0.8,2.1 -0.3,0.7 -0.6,1.5 -0.9,2.2 -0.3,0.7 -0.6,1.5 -1,2.2 -0.3,0.7 -0.7,1.5 -1,2.2 -0.3,0.7 -0.7,1.5 -1,2.2 -0.3,0.7 -0.7,1.4 -1,2 -0.3,0.6 -0.7,1.3 -1,1.8 -0.6,1.1 -1.2,2.1 -1.6,2.7 -0.5,0.9 -0.8,1.3 -0.8,1.3 z" />
					<path
   id="XMLID_556_"
   class="st39"
   d="m 145.9,268.6 c 0,0 -0.5,-0.2 -1.3,-0.6 -0.8,-0.4 -2,-1 -3.3,-1.8 -1.3,-0.8 -2.8,-1.8 -4.3,-2.9 -0.8,-0.6 -1.5,-1.1 -2.3,-1.8 -0.8,-0.6 -1.5,-1.2 -2.3,-1.9 -0.7,-0.7 -1.5,-1.3 -2.2,-2 -0.7,-0.7 -1.4,-1.3 -2.1,-2 -1.3,-1.3 -2.5,-2.6 -3.5,-3.8 -1,-1.2 -1.8,-2.2 -2.3,-2.9 -0.5,-0.7 -0.8,-1.2 -0.8,-1.2 0,0 2.1,0.5 4.9,1.9 1.4,0.7 3,1.6 4.6,2.6 0.8,0.5 1.6,1.1 2.4,1.7 0.8,0.6 1.6,1.3 2.4,1.9 0.8,0.7 1.5,1.3 2.2,2.1 0.7,0.7 1.4,1.4 2.1,2.1 1.3,1.4 2.4,2.8 3.3,4.1 0.9,1.3 1.5,2.4 2,3.2 0.3,0.8 0.5,1.3 0.5,1.3 z" />
					<path
   id="XMLID_557_"
   class="st39"
   d="m 132.2,276.9 c 0,0 -0.3,0.2 -0.9,0.6 -0.6,0.3 -1.4,0.8 -2.4,1.2 -1,0.4 -2.2,0.7 -3.5,1 -0.6,0.1 -1.3,0.2 -2,0.3 -0.7,0.1 -1.4,0.1 -2.1,0.2 -0.7,0 -1.4,0 -2.1,0 -0.7,0 -1.4,-0.1 -2,-0.2 -1.3,-0.2 -2.5,-0.4 -3.6,-0.8 -1,-0.3 -1.9,-0.7 -2.5,-1 -0.6,-0.3 -0.9,-0.5 -0.9,-0.5 0,0 0.4,-0.2 1,-0.5 0.6,-0.3 1.5,-0.6 2.5,-0.9 2.1,-0.6 4.8,-1.1 7.5,-1.1 1.4,0 2.7,0 4,0.1 1.3,0.1 2.5,0.3 3.5,0.5 1,0.2 1.9,0.5 2.6,0.7 0.5,0.2 0.9,0.4 0.9,0.4 z" />
				</g>
				<g
   id="XMLID_7_">
					<path
   id="XMLID_558_"
   class="st39"
   d="m 260.9,272.3 c 0,0 3.34497,0.29614 9.36592,1.0365 6.18819,0.74035 15.21961,1.62878 26.59251,2.96142 5.68645,0.74035 12.0419,1.33264 18.89909,2.36914 6.85719,1.03649 14.38337,2.07299 22.24405,3.25756 8.02793,1.18457 16.39036,2.51721 25.25453,3.84985 8.86417,1.48071 18.23009,3.25756 27.9305,5.03441 4.85021,0.88843 9.86767,1.77686 14.88512,2.81335 5.01746,1.0365 10.20216,1.77686 15.38687,2.96142 10.3694,2.22107 21.07331,4.59021 32.11171,7.10742 5.5192,1.18456 11.20565,2.36913 16.72486,3.70177 5.68645,1.48071 11.20565,2.81335 17.05935,4.29406 5.68645,1.48071 11.54014,2.96142 17.39384,4.44214 3.01048,0.74035 5.8537,1.48071 8.86417,2.22106 3.01048,0.74036 5.8537,1.48071 8.86418,2.36914 23.58204,6.95934 48.16757,13.47447 72.41861,21.91452 24.58553,7.69969 49.00382,16.8801 73.4221,25.61629 24.08379,9.77269 48.50208,18.9531 71.58237,29.46614 23.58204,9.92076 45.8261,21.02609 67.73566,31.53914 2.67597,1.33264 5.35195,2.66528 8.02792,3.99792 2.67598,1.33264 5.35196,2.81335 7.86069,4.14599 5.1847,2.66528 10.53665,5.47863 15.55411,8.14391 5.1847,2.66528 10.20216,5.33056 15.21961,7.99583 5.01746,2.66528 9.86767,5.47863 14.55063,8.14391 9.53316,5.47863 18.89908,10.66112 27.9305,15.84361 4.51571,2.51721 8.86417,5.33056 13.04539,7.84776 4.18121,2.66528 8.36242,5.18249 12.54363,7.6997 8.19518,5.03442 16.05586,9.77269 23.4148,14.36289 7.19169,4.73828 14.04888,9.32848 20.57157,13.62254 6.35544,4.29406 12.37639,8.29198 18.06284,11.99376 5.5192,3.70177 10.36941,7.40355 14.88512,10.66111 9.03145,6.36706 16.05585,11.54955 20.73885,14.95518 4.8502,3.40564 7.3589,5.33056 7.3589,5.33056 0,0 -2.676,-1.77685 -7.6934,-5.03442 -5.0175,-3.25756 -12.3764,-7.99583 -21.57509,-14.21482 -4.68296,-3.10949 -9.70042,-6.51513 -15.38687,-10.06883 -5.68645,-3.55371 -11.87464,-7.40355 -18.39733,-11.40147 -6.5227,-4.14599 -13.54714,-8.44005 -21.07332,-13.03026 -7.52618,-4.44213 -15.38686,-9.03233 -23.74929,-13.77061 -4.18121,-2.36913 -8.36243,-4.88634 -12.71089,-7.40355 -4.34846,-2.51721 -8.69692,-5.18249 -13.21263,-7.55162 -9.03142,-4.88635 -18.56459,-10.06884 -28.09775,-15.25132 -4.85021,-2.66528 -9.70042,-5.33056 -14.71787,-7.84777 -5.01746,-2.51721 -10.20216,-5.03442 -15.38687,-7.6997 -10.36941,-5.18248 -20.90607,-10.66111 -31.60997,-15.8436 -10.87116,-5.03442 -22.07681,-10.2169 -33.28246,-15.54746 -5.68645,-2.66528 -11.20565,-5.33056 -17.05935,-7.6997 -5.8537,-2.51721 -11.54015,-5.03441 -17.39384,-7.55162 -23.0803,-10.36498 -47.33134,-19.54538 -71.41513,-29.17 -24.41828,-8.73619 -48.50207,-18.06467 -72.92035,-25.76437 -6.02095,-2.07299 -12.0419,-3.99792 -18.06284,-6.07091 -6.02095,-2.073 -12.0419,-3.84985 -18.06285,-5.6267 -12.04189,-3.55371 -23.91653,-7.25548 -35.62393,-10.66112 -11.7074,-3.40563 -23.4148,-6.21898 -34.7877,-9.47655 -5.68644,-1.48071 -11.37289,-3.10949 -16.8921,-4.5902 -5.5192,-1.48071 -11.20565,-2.66528 -16.5576,-3.99792 -10.87115,-2.66528 -21.57506,-5.18249 -31.94447,-7.55162 -5.1847,-1.33264 -10.20216,-2.22107 -15.21962,-3.25757 -5.01745,-1.03649 -9.86766,-2.07299 -14.71787,-3.10949 -9.70041,-1.92492 -18.89908,-3.99792 -27.596,-5.77477 -8.86417,-1.62878 -17.2266,-3.10949 -25.08728,-4.5902 -7.86068,-1.48071 -15.21962,-2.81335 -22.07681,-3.99792 -6.85719,-1.18457 -13.21263,-2.073 -18.89908,-2.96142 -11.3729,-1.62878 -20.40432,-3.1095 -26.42527,-3.99792 C 264.07772,272.74421 260.9,272.3 260.9,272.3 Z"
   style="stroke-width:1.57368" />
				</g>
				<g
   id="XMLID_8_">
					<path
   id="XMLID_14_"
   class="st20"
   d="m 83.1,145.1 c 2.5,-2.3 2.8,-2.5 5.3,-4.8 1.5,0.7 3,1.5 4.7,2 4.2,1.4 4,0.8 8.3,0.5 7.3,-0.5 12.2,2.3 15.8,8.9 1.2,2.1 4.8,9.8 4.2,12.1 -0.5,1.9 -6.5,8.6 -8.3,9.3 -6.1,2.4 -19.2,-9.8 -23.2,-14.7 -2.4,-2.9 -5.3,-8.5 -6.8,-13.3 z" />
					<path
   id="XMLID_12_"
   class="st40"
   d="m 121.4,162.8 c -0.3,-3 -3.2,-9.2 -4.2,-11.1 -3.6,-6.5 -8.5,-9.4 -15.8,-8.9 -0.8,0.1 -1.4,0.1 -1.9,0.2 -1.4,1.1 -2.8,2.4 -4,3.8 8.5,3.3 16.5,16.9 25.9,16 z" />
					<path
   id="XMLID_9_"
   class="st40"
   d="m 88,140.7 c -2.1,1.9 -2.5,2.3 -4.9,4.4 1.5,4.9 4.4,10.4 6.8,13.3 0.3,0.4 0.7,0.9 1.2,1.4 0.5,-6.1 -0.5,-12.6 -3.1,-19.1 z" />
				</g>
			</g>
			
		<g
   id="g2686"
   transform="matrix(2.7959051,0,0,2.8895706,1668.078,17.841583)"><g
     id="g2634"><g
       id="g2343"
       transform="matrix(0.26458333,0,0,0.26458333,-229.58263,130.45574)"><g
         transform="translate(8.4387156,-161.58616)"
         inkscape:label="ombra"
         style="display:none"
         id="layer2"><path
           d="m 287.54,107.24 c -53.93,0.32756 -111.13,36.371 -131.44,94.75 -8.376,24.075 -3.3745,71.123 -6.7812,96.219 -3.4068,25.095 -7.1545,40.563 -12.125,58.594 -4.9705,18.031 -13.242,38.114 -17.188,49.5 -3.9671,11.448 -5.7002,18.386 -0.9375,20.562 1.4172,0.64771 3.1666,0.83906 5.1562,0.71875 8.3027,0.52033 42.578,-23.404 52.473,-26.241 l 26.688,16.58 c 11.904,11.073 13.126,36.838 26.902,38.973 30.681,4.7559 47.714,-26.006 75.437,-19.438 18.807,4.4556 36.512,27.962 55.656,25.312 18.793,-2.601 25.392,-30.946 42.656,-38.812 15.154,-6.9043 40.598,5.8252 53.188,-0.84375 1.1237,-0.19261 2.2027,-0.70568 3.2188,-1.6562 17.325,-16.207 -27.46,-90.243 -31.312,-109.12 -6.25,-34.003 0.1458,-70.849 -10.125,-105.03 -12.686,-42.22 -48.61,-93.574 -120.72,-99.656 -3.5542,-0.29977 -7.1546,-0.42809 -10.75,-0.40625 z"
           inkscape:connector-curvature="0"
           style="display:inline;fill:#333333;stroke:#000000;stroke-width:1px;filter:url(#filter8768)"
           sodipodi:nodetypes="sssssscccsssscscsss"
           id="path8717" /></g><g
         transform="translate(8.4387156,-647.01616)"
         inkscape:label="Livello 1"
         id="layer1-6"><g
           transform="matrix(1.25,0,0,-1.25,-3198.7,1848.3)"
           id="g3055" /><g
           transform="matrix(1.25,0,0,-1.25,-3198.7,1848.3)"
           id="g3125" /><g
           transform="matrix(1.25,0,0,-1.25,-3198.7,1848.3)"
           id="g3133" /><g
           transform="matrix(1.25,0,0,-1.25,-3198.7,1848.3)"
           id="g3153" /></g><g
         transform="translate(8.4387156,-161.58616)"
         inkscape:label="occhi"
         id="layer3"><g
           id="g4701"><path
             inkscape:connector-curvature="0"
             style="fill:#666666;stroke:#000000;stroke-width:1px;filter:url(#filter4697)"
             sodipodi:nodetypes="csssssccccssssccscsscc"
             d="m 197.73,197.16 c -53.93,0.32756 -111.16,36.403 -131.47,94.781 -8.376,24.075 -3.3745,71.092 -6.7812,96.188 -3.4068,25.095 -7.1545,40.563 -12.125,58.594 -4.9705,18.031 -13.211,38.114 -17.156,49.5 -3.9671,11.448 -5.7002,18.386 -0.9375,20.562 1.4433,0.65963 3.2145,0.85408 5.25,0.71875 8.2514,0.48609 18.154,-1.9698 27.969,-4.7812 l 32.411,-9.3806 14.433,8.7868 c 11.894,11.077 17.355,32.553 31.125,34.688 30.681,4.7559 47.746,-26.006 75.469,-19.438 18.807,4.4556 36.48,27.962 55.625,25.312 18.793,-2.601 25.423,-30.946 42.688,-38.812 15.178,-6.9154 40.65,5.8989 53.219,-0.84375 0.008,-0.004 0.0234,0.004 0.0312,0 1.1018,-0.20133 2.1271,-0.72276 3.125,-1.6562 17.325,-16.207 -27.46,-90.212 -31.312,-109.09 -6.2499,-34.003 0.17706,-70.88 -10.094,-105.06 -12.686,-42.22 -48.641,-93.574 -120.75,-99.656 -3.5542,-0.29977 -7.1234,-0.42809 -10.719,-0.40625 z"
             id="path3841" /><g
             transform="translate(-90.956,88.945)"
             id="g4508"><path
               d="m 112.95,423.71 c 2.2507,1.023 2.3262,1.4556 4.9106,1.7419 19.612,2.1723 49.855,-14.351 65,-11.385 20.944,4.1013 25.048,38.104 42.561,40.819 30.681,4.7559 47.739,-26.002 75.462,-19.434 18.807,4.4556 36.493,27.961 55.638,25.311 18.793,-2.601 25.403,-30.955 42.667,-38.821 17.912,-8.161 50.185,11.161 58.635,-6.6161 -3.698,-15.765 -43.548,-40.633 -62.323,-46.338 -78.084,-23.727 -137.32,-27.796 -213.71,0.61493 -22.581,8.3978 -61.787,32.178 -68.839,54.107 z"
               inkscape:connector-curvature="0"
               style="fill:#cccccc"
               sodipodi:nodetypes="csssssscssc"
               id="path8371" /><path
               d="m 124.48,421.06 c 1.8984,1.1865 61.442,-29.139 79.601,-33.328 18.623,-4.2961 33.404,8.2339 52.501,8.9868 27.915,1.1005 60.649,-31.1 81.205,-22.565 9.6665,4.0137 -0.26817,23.97 6.1502,32.238 6.1187,7.8818 10.884,7.425 20.861,7.2544 17.513,-0.29937 37.298,-27.923 52.884,-19.931 13.953,7.1547 34.072,25.736 33.931,23.333"
               inkscape:connector-curvature="0"
               style="fill:none;stroke:#848181;stroke-width:6.3;filter:url(#filter8688)"
               sodipodi:nodetypes="cssssssc"
               id="path8642" /><path
               d="m 114.21,424.85 c -4.7627,-2.1767 -3.0182,-9.1121 0.94887,-20.56 3.9456,-11.386 12.202,-31.466 17.173,-49.497 4.9705,-18.031 8.7151,-33.494 12.122,-58.589 3.4068,-25.095 -1.6008,-72.135 6.7752,-96.21 21.665,-62.271 85.319,-99.148 142.19,-94.352 72.109,6.0818 108.06,57.428 120.75,99.648 10.271,34.183 3.8516,71.053 10.102,105.06 3.8521,18.882 48.64,92.889 31.315,109.1 -10.644,9.9572 -27.704,-25.436 -40.406,-27.274 -15.706,-0.4652 -26.888,9.9952 -34.748,14.907 -19.741,12.357 -40.582,4.4581 -37.152,-10.8 1.0654,-4.7388 1.8014,-14.597 -1.7625,-20.244 -5.2547,-8.3266 -21.651,-3.2668 -30.384,0.98477 -22.735,11.068 -46.803,19.751 -57.64,18.417 -10.756,-1.3234 -34.041,-12.653 -51.941,-8.0094 -16.229,4.2096 -18.583,6.9608 -35.401,16.443 -15.069,8.4953 -41.805,25.614 -51.936,20.984 z"
               inkscape:connector-curvature="0"
               style="fill:#ececec"
               sodipodi:nodetypes="ssssssscsccsssssss"
               id="path8369" /><path
               transform="translate(0,-485.43)"
               inkscape:connector-curvature="0"
               sodipodi:nodetypes="cccc"
               d="m 208.53,871.8 c 27.222,-25.07 36.619,-71.973 40.46,-91.83 12.709,38.849 18.448,60.862 9.5404,100.91 -7.9858,2.0364 -33.76,-11.481 -50,-9.0825 z"
               style="fill:url(#linearGradient8640)"
               id="path8407" /><path
               d="m 338.86,281.49 c -1.7425,0.17425 14.162,89.881 37.083,127.57 -2.4754,2.8483 -18.343,7.0366 -27.443,0.54098 -2.6539,-1.7253 -4.2592,-4.3245 -5.4922,-7.2339 -0.46059,-4.3857 1.073,-8.3885 1.246,-12.133 0.0483,-7.4965 -0.0662,-6.0765 -1.6395,-12.395 -2.6869,-19.887 -9.1017,-75.93 -3.7546,-96.345 z"
               inkscape:connector-curvature="0"
               style="fill:url(#linearGradient8609)"
               sodipodi:nodetypes="ccccccc"
               id="rect8592" /><path
               inkscape:connector-curvature="0"
               transform="translate(0,-485.43)"
               sodipodi:nodetypes="cscssc"
               d="m 391.62,776.82 c -2.053,0.68435 0.0992,32.183 22.116,66.541 13.482,21.039 27.157,51.306 36.205,63.254 -4.4089,-1.5293 -12.805,-9.3084 -20.048,-18.006 -3.9899,-4.7907 -7.3496,-7.6651 -13.133,-11.345 -27.429,-17.45 -30.328,-77.563 -25.139,-100.44 z"
               style="opacity:0.29167;fill:url(#linearGradient8632)"
               id="path8630" /><path
               transform="translate(0,-485.43)"
               inkscape:connector-curvature="0"
               sodipodi:nodetypes="csscc"
               d="m 157.93,694.69 c 9.4642,-39.141 77.53,-106.39 130.71,-93.214 4.8816,1.2094 6.1229,3.5211 3.0548,12.846 -16.56,50.331 -69.421,44.542 -125.67,101.75 -12.456,9.9977 -13.224,-6.2576 -8.0961,-21.384 z"
               style="fill:url(#linearGradient8698)"
               id="path8561" /><path
               d="m 123.21,407.29 c 17.783,-31.429 25.817,-70.595 33.214,-102.5 8.1445,-25.531 50.163,-40.521 54.286,-13.571 6.4938,42.449 -29.328,94.565 -47.001,107.53 -16.388,9.1791 -21.808,6.2953 -39.047,18.411 -3.837,2.6968 -7.3829,0.6069 -1.452,-9.8748 z"
               inkscape:connector-curvature="0"
               style="fill:url(#linearGradient8782)"
               sodipodi:nodetypes="scscss"
               id="path8774" /><g
               transform="translate(-20.886,332.14)"
               id="g9131"><g
                 transform="translate(112.14,-754.29)"
                 id="g9050"><g
                   transform="translate(0,-485.43)"
                   id="g8364"><path
                     inkscape:connector-curvature="0"
                     style="fill:#ffffff;stroke:#000000;stroke-width:2.8346"
                     d="m 159.57,1095 c -2.1587,0.039 -4.3369,0.3254 -6.4832,0.9005 -17.17,4.6007 -26.57,25.241 -20.98,46.102 5.5897,20.861 24.07,34.045 41.24,29.444 8.3655,-2.2416 14.89,-8.271 18.729,-16.298 3.8411,8.0079 10.287,14.06 18.639,16.298 17.17,4.6007 35.65,-8.5833 41.24,-29.444 5.5897,-20.861 -3.81,-41.502 -20.98,-46.102 -15.322,-4.1056 -31.677,5.9249 -38.989,22.961 -6.2917,-14.637 -19.171,-24.102 -32.416,-23.862 z"
                     id="path7526" /><ellipse
                     ry="21.428572"
                     rx="19.642857"
                     cy="660.50055"
                     cx="73.214287"
                     transform="matrix(0.87674,0,0,1.1219,106.1,405.69)"
                     style="fill:#000000;stroke:#000000;stroke-width:0.71455;stroke-linecap:round;stroke-linejoin:round"
                     id="path8360" /><ellipse
                     ry="21.428572"
                     rx="19.642857"
                     cy="660.50055"
                     cx="73.214287"
                     transform="matrix(0.87674,0,0,1.1219,149.59,405.69)"
                     style="fill:#000000;stroke:#000000;stroke-width:0.71455;stroke-linecap:round;stroke-linejoin:round"
                     id="path8362" /></g><path
                   d="m 160.12,640.13 c -5.008,3.7382 -9.6901,21.004 -9.3928,21.302 12.079,59.285 34.224,30.994 38.555,3.7927 2.7836,-17.48 -3.7161,-34.065 -18.589,-28.144 0,0 -5.8547,-0.4732 -10.574,3.0491 z"
                   inkscape:connector-curvature="0"
                   style="fill:url(#linearGradient9141)"
                   sodipodi:nodetypes="scscs"
                   id="path9025" /><path
                   inkscape:connector-curvature="0"
                   style="fill:url(#linearGradient9143)"
                   sodipodi:nodetypes="scscs"
                   d="m 203.69,639.24 c -5.008,3.7382 -9.6901,21.004 -9.3928,21.302 12.079,59.285 34.224,30.994 38.555,3.7927 2.7836,-17.48 -3.7161,-34.065 -18.589,-28.144 0,0 -5.8547,-0.4732 -10.574,3.0491 z"
                   id="path9046" /></g><path
                 d="m 271.89,-142.92 c -2.1587,0.039 -4.3369,0.3254 -6.4832,0.9005 -17.17,4.6007 -26.57,25.241 -20.98,46.102 5.5897,20.861 24.07,34.045 41.24,29.444 8.3655,-2.2416 14.89,-8.271 18.729,-16.298 3.8411,8.0079 10.287,14.06 18.639,16.298 17.17,4.6007 35.65,-8.5833 41.24,-29.444 5.5897,-20.861 -3.81,-41.502 -20.98,-46.102 -15.322,-4.1056 -31.677,5.9249 -38.989,22.961 -6.2917,-14.637 -19.171,-24.102 -32.416,-23.862 z"
                 inkscape:connector-curvature="0"
                 style="fill:none;stroke:#000000;stroke-width:2.8346;filter:url(#filter9105)"
                 id="path9066" /></g></g></g></g></g><path
       fill-rule="evenodd"
       stroke="#000000"
       stroke-width="1.05833"
       fill="#502d16"
       d="m -154.40129,152.21269 c 4.28916,-11.53371 14.52827,0.81881 17.46409,-1.35112 3.04271,-2.24895 0.52916,-8.46666 1.5875,-9.92187 1.05833,-1.45521 5.98249,8.74659 3.96875,12.56771 -1.9717,3.74147 -10.32246,3.42265 -15.79351,3.38481 -3.08875,-0.0201 -7.88167,-2.67626 -7.22683,-4.67942 z"
       id="imagebot_72-7" /><path
       fill-rule="evenodd"
       stroke="#000000"
       stroke-width="1.05833"
       fill="#502d16"
       d="m -200.06863,152.21269 c -4.28916,-11.53371 -14.52827,0.81881 -17.46409,-1.35112 -3.0427,-2.24895 -0.52916,-8.46666 -1.5875,-9.92187 -1.05833,-1.45521 -5.98249,8.74659 -3.96874,12.56771 1.9717,3.74147 10.32245,3.42265 15.7935,3.38481 3.08875,-0.0201 7.88168,-2.67626 7.22683,-4.67942 z"
       id="imagebot_50-5" /></g><g
     style="fill:#ffffff"
     transform="matrix(1.0960982,0,0,0.69810312,-535.35674,-300.13368)"
     id="g5313-2"><path
       fill="#f2e883"
       style="color:#000000;text-indent:0;text-transform:none;filter:url(#filter5309-5)"
       d="m 329.41,604.66 c -7.1203,0 -13.56,0.79778 -18.406,2.125 -2.423,0.66361 -4.4617,1.4322 -6.0625,2.4688 -1.6008,1.0366 -3.0625,2.5457 -3.0625,4.6562 0,2.1105 1.4617,3.6197 3.0625,4.6562 1.6008,1.0366 3.6396,1.8051 6.0625,2.4688 4.8459,1.3272 11.286,2.125 18.406,2.125 7.1203,0 13.56,-0.79778 18.406,-2.125 2.423,-0.66361 4.4305,-1.4322 6.0312,-2.4688 1.6008,-1.0366 3.0625,-2.5457 3.0625,-4.6562 0,-2.1105 -1.4617,-3.6197 -3.0625,-4.6562 -1.6008,-1.0366 -3.6083,-1.8051 -6.0312,-2.4688 -4.8459,-1.3272 -11.286,-2.125 -18.406,-2.125 z m 0,4.7188 c 6.7725,0 12.898,0.77117 17.156,1.9375 2.1292,0.58317 3.7737,1.263 4.7188,1.875 0.94506,0.61196 0.90625,0.92677 0.90625,0.71875 0,-0.20802 0.0388,0.10679 -0.90625,0.71875 -0.94506,0.61196 -2.5895,1.2918 -4.7188,1.875 -4.2585,1.1663 -10.384,1.9375 -17.156,1.9375 -6.7725,0 -12.929,-0.77117 -17.188,-1.9375 -2.1292,-0.58317 -3.7737,-1.263 -4.7188,-1.875 -0.94506,-0.61196 -0.90625,-0.92677 -0.90625,-0.71875 0,0.20802 -0.0388,-0.10679 0.90625,-0.71875 0.94506,-0.61196 2.5895,-1.2918 4.7188,-1.875 4.2585,-1.1663 10.415,-1.9375 17.188,-1.9375 z"
       filter="url(#filter5309)"
       id="path5281-7-9" /><path
       fill="#ebdb3d"
       stroke-width="1.5"
       stroke-linecap="round"
       stroke="#6d661a"
       d="m 328.77,605.22 c -7.1203,0 -13.56,0.79778 -18.406,2.125 -2.423,0.66361 -4.4617,1.4322 -6.0625,2.4688 -1.6008,1.0366 -3.0625,2.5457 -3.0625,4.6562 0,2.1105 1.4617,3.6197 3.0625,4.6562 1.6008,1.0366 3.6396,1.8051 6.0625,2.4688 4.8459,1.3272 11.286,2.125 18.406,2.125 7.1203,0 13.56,-0.79778 18.406,-2.125 2.423,-0.66361 4.4305,-1.4322 6.0312,-2.4688 1.6008,-1.0366 3.0625,-2.5457 3.0625,-4.6562 0,-2.1105 -1.4617,-3.6197 -3.0625,-4.6562 -1.6008,-1.0366 -3.6083,-1.8051 -6.0312,-2.4688 -4.8459,-1.3272 -11.286,-2.125 -18.406,-2.125 z m 0,4.7188 c 6.7725,0 12.898,0.77117 17.156,1.9375 2.1292,0.58317 3.7737,1.263 4.7188,1.875 0.94506,0.61196 0.90625,0.92677 0.90625,0.71875 0,-0.20802 0.0388,0.10679 -0.90625,0.71875 -0.94506,0.61196 -2.5895,1.2918 -4.7188,1.875 -4.2585,1.1663 -10.384,1.9375 -17.156,1.9375 -6.7725,0 -12.929,-0.77117 -17.188,-1.9375 -2.1292,-0.58317 -3.7737,-1.263 -4.7188,-1.875 -0.94506,-0.61196 -0.90625,-0.92677 -0.90625,-0.71875 0,0.20802 -0.0388,-0.10679 0.90625,-0.71875 0.94506,-0.61196 2.5895,-1.2918 4.7188,-1.875 4.2585,-1.1663 10.415,-1.9375 17.188,-1.9375 z"
       style="color:#000000;text-indent:0;text-transform:none"
       stroke-linejoin="round"
       id="path5281-1" /></g><ellipse
     style="opacity:0.42906;fill:#000000;fill-opacity:1;stroke:none;stroke-width:1.165;stroke-opacity:1;filter:url(#filter2646)"
     id="path2636"
     cx="-174.30698"
     cy="255.0882"
     rx="35.40765"
     ry="3.4447508" /></g><g
   id="g5330"
   transform="matrix(-0.45531761,-0.40998246,-0.48173272,0.53500189,1556.8896,166.67148)"><path
     id="path2996"
     style="fill:#cb984d;stroke:url(#linearGradient5357);filter:url(#filter3904)"
     d="m 230.26,812.39 c -1.8881,-3.3828 -7.8614,-4.2517 -2.8184,-11.9 4.0006,-3.0635 8.2485,-5.6324 12.839,-7.5157 2.475,-0.11805 6.2306,-4.0779 6.5762,2.1921 l 2.1921,5.3236 c 1.3224,6.0187 3.463,7.946 5.3236,11.273 l 6.263,5.6367 31.942,42.902 c 5.1846,2.8757 9.369,9.0857 17.888,0.84774 l 26.267,-43.436 c 3.7067,-4.2465 8.9806,-5.6722 10.021,-14.718 l 3.7578,-5.6367 c 1.5309,-2.9056 4.5718,-2.036 7.2025,-2.1921 4.8258,1.8868 9.7787,3.2651 13.466,9.7077 1.4274,2.6169 0.22614,4.1823 -1.2526,5.6368 l -3.4447,4.6973 c -3.3338,3.0352 -5.2896,7.793 -6.263,13.779 -9.6033,19.624 -20.525,35.295 -28.81,58.873 -2.5674,15.218 -6.7508,18.27 -7.8668,48.134 -0.39468,16.254 -2.1849,33.11 0.038,48.317 -0.20251,3.1184 2.31,7.0125 -1.5658,9.0814 1.4808,-1.5865 -13.592,13.10996 -30.063,-0.6263 -1.7811,0.25287 -1.1368,-6.164 -0.6263,-12.213 0.0163,-21.031 1.8826,-40.08 -5.9499,-69.52 -5.593,-19.465 -16.729,-46.307 -35.073,-64.823 -2.4434,-2.5525 -0.77947,-1.1904 -8.746,-12.58 0.43359,0.67768 -1.621,-0.40657 -4.0932,-9.0277 -0.23794,-3.4055 0.42916,-6.5325 -7.2025,-12.213 z"
     sodipodi:nodetypes="cccccccccccccccccccccccccccc"
     transform="matrix(1.2435,0,0,1.2435,-268.88,-211.5)"
     inkscape:connector-curvature="0" /><path
     id="path3908"
     style="fill:#895f1f;filter:url(#filter3980)"
     d="m 259.45,63.731 c 10.174,15.073 19.425,29.777 31.512,45.616 12.593,13.851 17.198,5.6397 22.494,0.076 l 23.809,-45.227 c -8.7683,14.614 -16.565,24.37 -26.305,43.841 -3.9944,3.2592 -6.9546,7.459 -18.006,-0.6263 -9.8522,-12.728 -21.274,-28.746 -33.504,-43.681 z"
     sodipodi:nodetypes="ccccccc"
     transform="matrix(1.2435,0,0,1.2435,-268.88,724.09)"
     inkscape:connector-curvature="0" /><path
     id="path3984"
     d="m 97.901,859.51 c 6.1456,4.6707 12.576,5.8621 17.623,0.68839 -3.9047,5.2424 -8.7375,13.744 -17.623,-0.68839 z"
     sodipodi:nodetypes="ccc"
     style="fill:url(#radialGradient5359)"
     inkscape:connector-curvature="0" /><path
     id="path3994"
     d="m 31.17,775.24 c -4.6903,4.2222 -19.029,7.0814 -13.123,11.304 20.376,29.739 53.751,89.806 61.129,89.216 -1.5372,-15.51 -0.43392,-12.009 0.55072,-9.3622 l 17.072,44.057 7.71,8.2607 c 5.513,-2.0588 3.7781,44.806 1.1014,98.027 1.4235,7.9289 3.6011,6.0543 6.0579,0.5508 v -7.7101 c 0.84818,-5.6264 1.5045,-12.404 5.3735,0.095 l -2.5646,19.731 c 6.7737,-0.5965 13.547,-3.5118 20.321,-8.2607 -3.3927,-13.074 -9.3529,-66.182 7.71,-128.32 9.1749,-18.354 9.936,-28.819 27.536,-55.072 2.9443,-5.4889 5.3652,-11.501 7.8045,-17.495 -8.9172,-3.3334 -12.611,-5.9937 -17.167,-11.693 -12.808,15.441 -18.465,34.457 -25.333,52.869 -4.7401,10.369 -10.053,20.042 -21.94,21.734 -23.827,-2.11 -55.223,-69.45 -82.24,-107.93 z"
     sodipodi:nodetypes="ccccccccccccccccccc"
     style="fill:#b47f34"
     inkscape:connector-curvature="0" /><path
     id="path3996"
     d="m 247.08,64.196 35.699,49.791"
     style="fill:#b47f34;stroke:#8f662a;stroke-width:5;stroke-linecap:round;filter:url(#filter4018)"
     transform="matrix(1.2435,0,0,1.2435,-268.88,724.09)"
     inkscape:connector-curvature="0" /><path
     id="path4043"
     d="m 181.29,779.77 -13.63,17.524 15.966,9.7354 7.7883,-11.293 c 5.6577,-2.9754 0.69401,-7.3669 -0.77883,-11.293 -3.1153,-1.9693 -6.2306,-5.0835 -9.3459,-4.673 z"
     sodipodi:nodetypes="cccccc"
     style="fill:url(#radialGradient5361)"
     inkscape:connector-curvature="0" /><path
     id="path4073"
     d="m 179.84,821.34 c -12.892,22.489 -24.069,40.779 -36.898,72.694 -1.1759,8.5622 -4.0283,17.963 -6.1247,26.985 -4.4944,36.614 -4.4924,69.661 -2.0139,100.13 l -11.014,7.71 -0.55072,-133.27 c 6.8337,-5.1872 51.781,-87.138 56.602,-74.246 z"
     sodipodi:nodetypes="ccccccc"
     style="fill:url(#radialGradient5363)"
     inkscape:connector-curvature="0" /><path
     id="path4083"
     d="m 38.424,777.18 c -0.22295,-3.272 -0.76319,-6.0826 -4.9564,-3.5796 l -6.0579,1.9275 c 3.3849,10.497 8.761,15.021 13.493,21.478 l 3.3043,-4.6811 z"
     sodipodi:nodetypes="cccccc"
     style="fill:url(#radialGradient5365)"
     inkscape:connector-curvature="0" /><path
     id="path2996-3"
     style="opacity:0.30625;fill:#ffffff;stroke:url(#linearGradient5367);filter:url(#filter3904-3)"
     d="m 230.99,812.39 c -1.8881,-3.3828 -7.8614,-4.2517 -2.8184,-11.9 4.0006,-3.0635 8.2485,-5.6324 12.839,-7.5157 2.475,-0.11805 6.2306,-4.0779 6.5762,2.1921 l 2.1921,5.3236 c 1.3224,6.0187 3.463,7.946 5.3236,11.273 l 6.263,5.6367 31.942,42.902 c 5.1846,2.8757 9.369,9.0857 17.888,0.84774 l 26.267,-43.436 c 3.7067,-4.2465 8.9806,-5.6722 10.021,-14.718 l 3.7578,-5.6367 c 1.5309,-2.9056 4.5718,-2.036 7.2025,-2.1921 4.8258,1.8868 9.7787,3.2651 13.466,9.7077 1.4274,2.6169 0.22614,4.1823 -1.2526,5.6368 l -3.4447,4.6973 c -3.3338,3.0352 -5.2896,7.793 -6.263,13.779 -9.6033,19.624 -20.525,35.295 -28.81,58.873 -2.5674,15.218 -6.7508,18.27 -7.8668,48.134 -0.39468,16.254 -2.1849,33.11 0.038,48.317 -0.20251,3.1184 2.31,7.0125 -1.5658,9.0814 1.4808,-1.5865 -13.592,13.10996 -30.063,-0.6263 -1.7811,0.25287 -1.1368,-6.164 -0.6263,-12.213 0.0163,-21.031 1.8826,-40.08 -5.9499,-69.52 -5.593,-19.465 -16.729,-46.307 -35.073,-64.823 -2.4434,-2.5525 -0.77947,-1.1904 -8.746,-12.58 0.43359,0.67768 -1.621,-0.40657 -4.0932,-9.0277 -0.23794,-3.4055 0.42916,-6.5325 -7.2025,-12.213 z"
     sodipodi:nodetypes="cccccccccccccccccccccccccccc"
     transform="matrix(1.2435,0,0,1.2435,-270.38,-212)"
     inkscape:connector-curvature="0" /><path
     id="path4156"
     d="m 15.844,799.21 25.333,-16.521 c 1.7811,0.17245 3.6153,0.29623 1.1014,4.4057 l -23.68,15.41 c -2.1859,0.32513 -3.4938,-0.33755 -2.7536,-3.3043 z"
     sodipodi:nodetypes="ccccc"
     style="fill:url(#linearGradient5369);stroke:url(#linearGradient5371);stroke-width:1.2435"
     inkscape:connector-curvature="0" /><path
     id="path4156-5"
     d="m 18.331,804.03 25.333,-16.521 c 1.7811,0.17245 3.6153,0.29622 1.1014,4.4057 l -23.681,15.42 c -2.1859,0.32513 -3.4938,-0.33756 -2.7536,-3.3043 z"
     sodipodi:nodetypes="ccccc"
     style="fill:url(#linearGradient5373);stroke:url(#linearGradient5375);stroke-width:1.2435"
     inkscape:connector-curvature="0" /><path
     id="path4156-9"
     d="m 21.129,808.38 25.333,-16.521 c 1.7811,0.17246 3.6153,0.29622 1.1014,4.4057 l -23.681,15.42 c -2.1859,0.32513 -3.4938,-0.33756 -2.7536,-3.3043 z"
     sodipodi:nodetypes="ccccc"
     style="fill:url(#linearGradient5377);stroke:url(#linearGradient5379);stroke-width:1.2435"
     inkscape:connector-curvature="0" /><path
     id="path4156-1"
     d="m 160.02,788.85 27.499,17.711 c 0.61083,1.8258 1.2932,3.6827 -3.8842,3.0002 l -25.682,-16.566 c -1.2818,-2.0072 -1.1989,-3.5812 2.0671,-4.1448 z"
     sodipodi:nodetypes="ccccc"
     style="fill:url(#linearGradient5381);stroke:url(#linearGradient5383);stroke-width:1.3425"
     inkscape:connector-curvature="0" /><path
     id="path4156-1-1"
     sodipodi:nodetypes="ccccc"
     d="m 157.62,793.41 28.043,17.7 c 0.62296,1.8247 1.3189,3.6804 -3.9611,2.9984 l -26.19,-16.56 c -1.3072,-2.0059 -1.2226,-3.579 2.108,-4.1423 z"
     inkscape:transform-center-x="-17.414254"
     inkscape:transform-center-y="8.9177223"
     inkscape:connector-curvature="0"
     style="fill:url(#linearGradient5385);stroke:url(#linearGradient5387);stroke-width:1.3553" /><path
     id="path4156-1-13"
     d="m 154.57,798.08 28.588,17.689 c 0.63503,1.8236 1.3445,3.6782 -4.0381,2.9965 l -26.699,-16.546 c -1.3326,-2.0047 -1.2464,-3.5768 2.149,-4.1398 z"
     sodipodi:nodetypes="ccccc"
     style="fill:url(#linearGradient5389);stroke:url(#linearGradient5391);stroke-width:1.368"
     inkscape:connector-curvature="0" /><g
     id="g4663"
     transform="matrix(1.2435,0,0,1.2435,-268.88,-211.5)"><g
       id="g4574"
       style="filter:url(#filter4606)"><path
         id="path4522"
         style="fill:none;stroke:#2a2a2a;stroke-width:4;stroke-linecap:round;stroke-linejoin:round"
         d="m 240,67 c 32.906,-1.0137 -29.531,111.51 -5.5,158"
         sodipodi:nodetypes="cc"
         transform="translate(0,752.36)"
         inkscape:connector-curvature="0" /><path
         id="path4572"
         style="fill:none;stroke:#838383;stroke-width:2;stroke-linecap:round;stroke-linejoin:round"
         d="M 239.75,66 C 270.362,67.8759 209.373,182.47 234,225.75"
         sodipodi:nodetypes="ccc"
         transform="translate(0,752.36)"
         inkscape:connector-curvature="0" /></g><g
       id="g4574-2"
       style="filter:url(#filter4602)"
       transform="matrix(0.81442,0.58027,-0.58027,0.81442,642.48,11.057)"><g
         id="g4624"><path
           id="path4522-0"
           style="fill:none;stroke:#2a2a2a;stroke-width:4;stroke-linecap:round;stroke-linejoin:round"
           d="m 240.69,70.412 c 32.614,-1.325 -28.618,98.868 21.916,173.63"
           sodipodi:nodetypes="cc"
           inkscape:connector-curvature="0"
           transform="translate(0,752.36)" /></g><path
         id="path4572-2"
         style="fill:none;stroke:#838383;stroke-width:2;stroke-linecap:round;stroke-linejoin:round"
         d="m 239.75,69.041 c 30.61,1.876 -29.28,109.17 23.16,174.75"
         sodipodi:nodetypes="cc"
         transform="translate(0,752.36)"
         inkscape:connector-curvature="0" /></g><path
       id="path4627"
       sodipodi:nodetypes="ccccccc"
       style="fill:url(#linearGradient5393);stroke:url(#linearGradient5395);stroke-width:2.1295;stroke-linecap:round;stroke-linejoin:round"
       inkscape:connector-curvature="0"
       d="m 229.62,962.36 c 2.712,13.455 30.757,31.245 46.199,-0.25 2.6544,-4.1296 6.6127,-9.6544 9.0697,2 v 15.25 c -17.394,50.04 -64.278,14.424 -62.637,2.5 l 0.28343,-19 c 0.27224,-4.1139 3.146,-8.2198 7.0857,-0.5 z" /></g><path
     id="path4645"
     d="m 17.447,1009.8 c 27.641,24.531 51.755,16.367 57.824,-5.285"
     sodipodi:nodetypes="cc"
     style="fill:none;stroke:#464646;stroke-width:4.9741;stroke-linecap:round;stroke-linejoin:round"
     inkscape:connector-curvature="0" /></g></g>
	</g>
</g>
</svg>
